{
  "Version": 3,
  "Meta": {
    "Duration": 6.6,
    "Fps": 60.0,
    "Loop": true,
    "AreBeziersRestricted": true,
    "CurveCount": 215,
    "TotalSegmentCount": 1179,
    "TotalPointCount": 2087,
    "UserDataCount": 1,
    "TotalUserDataSize": 0
  },
  "Curves": [
    {
      "Target": "Parameter",
      "Id": "ParamAngleX",
      "Segments": [
        0,
        0,
        2,
        0.75,
        0,
        1,
        1.6,
        0,
        2.45,
        1.112,
        3.3,
        3,
        1,
        3.55,
        3.555,
        3.8,
        3.7,
        4.05,
        3.7,
        0,
        6.6,
        0
      ]
    },
    {
      "Target": "Parameter",
      "Id": "ParamAngleZ",
      "Segments": [
        0,
        0,
        0,
        2.7,
        2,
        0,
        3.3,
        1.88,
        1,
        4.25,
        0.985,
        5.2,
        0,
        6.15,
        0,
        2,
        6.6,
        0
      ]
    },
    {
      "Target": "Parameter",
      "Id": "ParamEyeLOpen",
      "Segments": [
        0,
        1,
        0,
        0.3,
        0,
        2,
        0.383,
        0,
        0,
        0.65,
        1,
        2,
        3.3,
        1,
        0,
        3.6,
        0,
        2,
        3.683,
        0,
        0,
        3.95,
        1,
        2,
        6.6,
        1
      ]
    },
    {
      "Target": "Parameter",
      "Id": "ParamBodyAngleX",
      "Segments": [
        0,
        -3,
        0,
        2.067,
        4.196,
        1,
        2.728,
        5.563,
        3.389,
        5.38,
        4.05,
        5.38,
        0,
        6.15,
        0,
        0,
        6.6,
        -3
      ]
    },
    {
      "Target": "Parameter",
      "Id": "ParamBreath",
      "Segments": [
        0,
        0,
        0,
        1.65,
        20,
        0,
        3.3,
        0,
        0,
        4.95,
        20,
        0,
        6.6,
        0
      ]
    },
    {
      "Target": "Parameter",
      "Id": "Param43",
      "Segments": [
        0,
        0,
        2,
        0.6,
        0,
        1,
        0.8,
        0,
        1,
        0.016,
        1.2,
        -0.05,
        1,
        1.65,
        -0.199,
        2.1,
        -0.45,
        2.55,
        -0.45,
        0,
        3.95,
        0,
        0,
        4.667,
        -0.45,
        0,
        6.3,
        0,
        2,
        6.6,
        0
      ]
    },
    {
      "Target": "Parameter",
      "Id": "Param52",
      "Segments": [
        0,
        0,
        1,
        0.4,
        0,
        0.8,
        -0.2,
        1.2,
        2.04,
        1,
        1.65,
        4.56,
        2.1,
        11,
        2.55,
        11,
        0,
        3.95,
        0,
        0,
        4.667,
        14.36,
        1,
        5.061,
        14.36,
        5.456,
        10.131,
        5.85,
        4.44,
        1,
        6.1,
        0.833,
        6.35,
        0,
        6.6,
        0
      ]
    },
    {
      "Target": "Parameter",
      "Id": "Param53",
      "Segments": [
        0,
        0,
        0,
        1.2,
        -3.12,
        2,
        5.85,
        -3.12,
        0,
        6.6,
        0
      ]
    },
    {
      "Target": "Parameter",
      "Id": "Param39",
      "Segments": [
        0,
        0,
        1,
        0.2,
        0,
        0.4,
        0.031,
        0.6,
        0.19,
        1,
        0.8,
        0.349,
        1,
        0.695,
        1.2,
        0.83,
        1,
        1.65,
        1.133,
        2.1,
        1.22,
        2.55,
        1.22,
        0,
        3.95,
        0,
        0,
        4.667,
        0.66,
        0,
        6.3,
        0,
        2,
        6.6,
        0
      ]
    },
    {
      "Target": "Parameter",
      "Id": "Param40",
      "Segments": [
        0,
        0,
        2,
        0.6,
        0,
        1,
        0.8,
        0,
        1,
        0,
        1.2,
        -0.46,
        1,
        1.65,
        -1.824,
        2.1,
        -4.08,
        2.55,
        -4.08,
        0,
        3.95,
        0,
        0,
        4.667,
        -4.08,
        0,
        6.3,
        0,
        2,
        6.6,
        0
      ]
    },
    {
      "Target": "Parameter",
      "Id": "Param47",
      "Segments": [
        0,
        0,
        2,
        0.6,
        0,
        1,
        0.8,
        0,
        1,
        -0,
        1.2,
        0.87,
        1,
        1.65,
        3.494,
        2.1,
        8.04,
        2.55,
        8.04,
        0,
        3.95,
        0,
        0,
        4.667,
        6.68,
        0,
        6.3,
        0,
        2,
        6.6,
        0
      ]
    },
    {
      "Target": "Parameter",
      "Id": "Param121",
      "Segments": [
        0,
        0,
        1,
        0.539,
        0,
        1.078,
        -19.98,
        1.617,
        -27,
        1,
        1.928,
        -30,
        2.239,
        -30,
        2.55,
        -30,
        0,
        3.317,
        11,
        1,
        3.589,
        11,
        3.861,
        4.574,
        4.133,
        -9,
        1,
        4.355,
        -20.081,
        4.578,
        -26,
        4.8,
        -26,
        0,
        5.75,
        14,
        0,
        6.6,
        0
      ]
    },
    {
      "Target": "Parameter",
      "Id": "Param51",
      "Segments": [
        0,
        0,
        0,
        2.7,
        2,
        2,
        3.3,
        2,
        0,
        6.6,
        0
      ]
    },
    {
      "Target": "Parameter",
      "Id": "Param57",
      "Segments": [
        0,
        0,
        2,
        1.2,
        0,
        0,
        2.6,
        1,
        0,
        6.6,
        0
      ]
    },
    {
      "Target": "Parameter",
      "Id": "Param58",
      "Segments": [
        0,
        0,
        2,
        1.2,
        0,
        0,
        2.6,
        -3,
        2,
        4.017,
        -3,
        0,
        5.967,
        0,
        2,
        6.6,
        0
      ]
    },
    {
      "Target": "Parameter",
      "Id": "Param61",
      "Segments": [
        0,
        -2,
        0,
        0.983,
        5,
        0,
        2.25,
        -8,
        1,
        2.756,
        -8,
        3.261,
        -7.166,
        3.767,
        -4,
        1,
        4.05,
        -2.226,
        4.334,
        1.173,
        4.617,
        4,
        1,
        5.067,
        8.49,
        5.517,
        11,
        5.967,
        11,
        0,
        6.6,
        -2
      ]
    },
    {
      "Target": "Parameter",
      "Id": "Param60",
      "Segments": [
        0,
        0,
        0,
        1.167,
        5,
        0,
        2.417,
        -7,
        1,
        2.917,
        -7,
        3.417,
        -6.994,
        3.917,
        -6,
        1,
        4.2,
        -5.436,
        4.484,
        5.038,
        4.767,
        7,
        1,
        5.167,
        9.77,
        5.567,
        10,
        5.967,
        10,
        0,
        6.6,
        0
      ]
    },
    {
      "Target": "Parameter",
      "Id": "Param62",
      "Segments": [
        0,
        0,
        2,
        1.2,
        0,
        0,
        1.95,
        2,
        1,
        2.15,
        2,
        2.35,
        0.746,
        2.55,
        0,
        1,
        2.778,
        -0.85,
        3.005,
        -0.92,
        3.233,
        -0.92,
        0,
        4.5,
        0,
        2,
        6.6,
        0
      ]
    },
    {
      "Target": "Parameter",
      "Id": "Param88",
      "Segments": [
        0,
        4,
        1,
        0.4,
        4,
        0.8,
        3.945,
        1.2,
        3,
        1,
        1.389,
        2.554,
        1.578,
        -3,
        1.767,
        -3,
        1,
        1.928,
        -3,
        2.089,
        -0.785,
        2.25,
        3,
        1,
        2.4,
        6.524,
        2.55,
        8,
        2.7,
        8,
        0,
        3.467,
        -2,
        1,
        3.75,
        -2,
        4.034,
        -0.271,
        4.317,
        4,
        1,
        4.606,
        8.355,
        4.894,
        11,
        5.183,
        11,
        0,
        6.6,
        4
      ]
    },
    {
      "Target": "Parameter",
      "Id": "Param89",
      "Segments": [
        0,
        4.003,
        1,
        0.417,
        4.003,
        0.833,
        3.968,
        1.25,
        3,
        1,
        1.472,
        2.484,
        1.695,
        -1.861,
        1.917,
        -1.861,
        1,
        2.084,
        -1.861,
        2.25,
        0.268,
        2.417,
        4,
        1,
        2.6,
        8.105,
        2.784,
        9.917,
        2.967,
        9.917,
        0,
        3.683,
        -2.982,
        1,
        3.933,
        -2.982,
        4.183,
        1.563,
        4.433,
        4,
        1,
        4.722,
        6.816,
        5.011,
        7,
        5.3,
        7,
        0,
        6.6,
        3.94
      ]
    },
    {
      "Target": "Parameter",
      "Id": "Param90",
      "Segments": [
        0,
        4.85,
        1,
        0.056,
        4.85,
        0.111,
        4.514,
        0.167,
        4.391,
        1,
        0.45,
        3.764,
        0.734,
        3.778,
        1.017,
        2.708,
        1,
        1.395,
        1.282,
        1.772,
        -4.03,
        2.15,
        -4.03,
        1,
        2.3,
        -4.03,
        2.45,
        1.264,
        2.6,
        6.062,
        1,
        2.811,
        12.815,
        3.022,
        14.529,
        3.233,
        14.529,
        0,
        3.9,
        -5.51,
        1,
        4.167,
        -5.51,
        4.433,
        -1.552,
        4.7,
        3.96,
        1,
        4.972,
        9.587,
        5.245,
        11.475,
        5.517,
        11.475,
        0,
        6.6,
        4.85
      ]
    },
    {
      "Target": "Parameter",
      "Id": "Param87",
      "Segments": [
        0,
        0,
        2,
        1.967,
        0,
        0,
        2.7,
        7,
        1,
        3.45,
        7,
        4.2,
        6.872,
        4.95,
        5,
        1,
        5.417,
        3.835,
        5.883,
        0,
        6.35,
        0,
        2,
        6.6,
        0
      ]
    },
    {
      "Target": "Parameter",
      "Id": "Param100",
      "Segments": [
        0,
        0,
        0,
        0.3,
        -12,
        0,
        0.9,
        -11,
        2,
        2,
        -11,
        0,
        2.75,
        10,
        2,
        4.35,
        10,
        0,
        6,
        0,
        2,
        6.6,
        0
      ]
    },
    {
      "Target": "Parameter",
      "Id": "Param99",
      "Segments": [
        0,
        0,
        0,
        0.15,
        -15,
        0,
        0.45,
        30,
        0,
        0.6,
        -15,
        0,
        0.9,
        30,
        2,
        1.617,
        30,
        0,
        1.8,
        0,
        2,
        2.967,
        0,
        0,
        3.117,
        -15,
        0,
        3.417,
        30,
        0,
        3.567,
        -15,
        0,
        3.867,
        30,
        2,
        4.583,
        30,
        0,
        4.767,
        0,
        2,
        5.333,
        0,
        0,
        5.483,
        -15,
        0,
        5.783,
        30,
        0,
        5.933,
        -15,
        0,
        6.233,
        30,
        0,
        6.6,
        0
      ]
    },
    {
      "Target": "Parameter",
      "Id": "Param101",
      "Segments": [
        0,
        0,
        0,
        0.867,
        13,
        0,
        2.45,
        -7,
        1,
        2.733,
        -7,
        3.017,
        -0.297,
        3.3,
        3,
        1,
        3.628,
        6.814,
        3.955,
        7,
        4.283,
        7,
        0,
        6.6,
        0
      ]
    },
    {
      "Target": "Parameter",
      "Id": "Param102",
      "Segments": [
        0,
        0,
        2,
        0.867,
        0,
        0,
        2.45,
        -10,
        1,
        2.733,
        -10,
        3.017,
        1.446,
        3.3,
        5,
        1,
        3.628,
        9.112,
        3.955,
        9,
        4.283,
        9,
        0,
        6.6,
        0
      ]
    },
    {
      "Target": "Parameter",
      "Id": "Param103",
      "Segments": [
        0,
        0,
        0,
        0.9,
        -15,
        0,
        1.967,
        26,
        0,
        2.75,
        -10,
        0,
        3.65,
        23,
        0,
        4.95,
        6,
        0,
        5.9,
        22,
        0,
        6.6,
        0
      ]
    },
    {
      "Target": "Parameter",
      "Id": "Param104",
      "Segments": [
        0,
        3.816,
        1,
        0.056,
        3.816,
        0.111,
        2.267,
        0.167,
        0,
        1,
        0.467,
        -12.239,
        0.767,
        -18,
        1.067,
        -18,
        0,
        2.15,
        24,
        0,
        2.933,
        -12,
        0,
        3.833,
        16,
        0,
        5.117,
        10,
        0,
        6.083,
        23,
        0,
        6.6,
        3.816
      ]
    },
    {
      "Target": "Parameter",
      "Id": "Param106",
      "Segments": [
        0,
        0,
        1,
        0.656,
        0,
        1.311,
        -1.726,
        1.967,
        -10,
        1,
        2.228,
        -13.296,
        2.489,
        -23,
        2.75,
        -23,
        1,
        3.8,
        -23,
        4.85,
        -20.257,
        5.9,
        -11,
        1,
        6.133,
        -8.943,
        6.367,
        0,
        6.6,
        0
      ]
    },
    {
      "Target": "Parameter",
      "Id": "Param107",
      "Segments": [
        0,
        0.05,
        1,
        0.028,
        0.05,
        0.055,
        0.16,
        0.083,
        0,
        1,
        0.383,
        -1.726,
        0.683,
        -4,
        0.983,
        -4,
        0,
        2.067,
        6,
        0,
        2.85,
        -5,
        0,
        3.75,
        0,
        0,
        5.033,
        -8,
        0,
        6,
        1,
        0,
        6.6,
        0.05
      ]
    },
    {
      "Target": "Parameter",
      "Id": "Param108",
      "Segments": [
        0,
        0,
        0,
        1.85,
        -5,
        0,
        2.567,
        9,
        0,
        3.3,
        -1,
        0,
        4.217,
        4,
        0,
        6.6,
        0
      ]
    },
    {
      "Target": "Parameter",
      "Id": "Param109",
      "Segments": [
        0,
        0,
        0,
        2.067,
        -6,
        0,
        2.783,
        8,
        0,
        3.5,
        0,
        0,
        4.433,
        4,
        0,
        6.6,
        0
      ]
    },
    {
      "Target": "Parameter",
      "Id": "Param151",
      "Segments": [
        0,
        18.66,
        0,
        0.133,
        -6,
        1,
        0.194,
        -6,
        0.256,
        -0.28,
        0.317,
        10,
        1,
        0.345,
        14.673,
        0.372,
        20.105,
        0.4,
        23,
        1,
        0.439,
        27.053,
        0.478,
        28,
        0.517,
        28,
        1,
        0.55,
        28,
        0.584,
        24.345,
        0.617,
        14,
        1,
        0.656,
        1.931,
        0.694,
        -6,
        0.733,
        -6,
        1,
        0.761,
        -6,
        0.789,
        -4.987,
        0.817,
        -2,
        1,
        0.85,
        1.585,
        0.884,
        5.543,
        0.917,
        10,
        1,
        0.945,
        13.714,
        0.972,
        20.105,
        1,
        23,
        1,
        1.039,
        27.053,
        1.078,
        28,
        1.117,
        28,
        1,
        1.156,
        28,
        1.194,
        25.376,
        1.233,
        14,
        1,
        1.266,
        4.249,
        1.3,
        -6,
        1.333,
        -6,
        1,
        1.366,
        -6,
        1.4,
        -5.3,
        1.433,
        -2,
        1,
        1.461,
        0.75,
        1.489,
        6.223,
        1.517,
        10,
        1,
        1.55,
        14.532,
        1.584,
        19.242,
        1.617,
        23,
        1,
        1.65,
        26.758,
        1.684,
        28,
        1.717,
        28,
        1,
        1.756,
        28,
        1.794,
        24.944,
        1.833,
        14,
        1,
        1.872,
        3.056,
        1.911,
        -6,
        1.95,
        -6,
        1,
        1.978,
        -6,
        2.005,
        -4.987,
        2.033,
        -2,
        1,
        2.066,
        1.585,
        2.1,
        5.543,
        2.133,
        10,
        1,
        2.161,
        13.714,
        2.189,
        20.105,
        2.217,
        23,
        1,
        2.256,
        27.053,
        2.294,
        28,
        2.333,
        28,
        1,
        2.366,
        28,
        2.4,
        24.345,
        2.433,
        14,
        1,
        2.472,
        1.931,
        2.511,
        -6,
        2.55,
        -6,
        1,
        2.578,
        -6,
        2.605,
        -4.987,
        2.633,
        -2,
        1,
        2.666,
        1.585,
        2.7,
        5.543,
        2.733,
        10,
        1,
        2.761,
        13.714,
        2.789,
        20.105,
        2.817,
        23,
        1,
        2.856,
        27.053,
        2.894,
        28,
        2.933,
        28,
        1,
        2.972,
        28,
        3.011,
        25.376,
        3.05,
        14,
        1,
        3.083,
        4.249,
        3.117,
        -6,
        3.15,
        -6,
        1,
        3.183,
        -6,
        3.217,
        -5.3,
        3.25,
        -2,
        1,
        3.278,
        0.75,
        3.305,
        6.591,
        3.333,
        10,
        1,
        3.372,
        14.773,
        3.411,
        19.884,
        3.45,
        23,
        1,
        3.5,
        27.006,
        3.55,
        28,
        3.6,
        28,
        1,
        3.65,
        28,
        3.7,
        20.711,
        3.75,
        14,
        1,
        3.861,
        -0.913,
        3.972,
        -6,
        4.083,
        -6,
        1,
        4.122,
        -6,
        4.161,
        -5.18,
        4.2,
        -2,
        1,
        4.239,
        1.18,
        4.278,
        5.583,
        4.317,
        10,
        1,
        4.35,
        13.786,
        4.384,
        21.375,
        4.417,
        23,
        1,
        4.5,
        27.062,
        4.584,
        28,
        4.667,
        28,
        1,
        4.706,
        28,
        4.744,
        24.944,
        4.783,
        14,
        1,
        4.822,
        3.056,
        4.861,
        -6,
        4.9,
        -6,
        1,
        4.939,
        -6,
        4.978,
        -5.35,
        5.017,
        -2,
        1,
        5.045,
        0.393,
        5.072,
        6.591,
        5.1,
        10,
        1,
        5.139,
        14.773,
        5.178,
        19.242,
        5.217,
        23,
        1,
        5.256,
        26.758,
        5.294,
        28,
        5.333,
        28,
        1,
        5.378,
        28,
        5.422,
        25.322,
        5.467,
        14,
        1,
        5.506,
        4.093,
        5.544,
        -6,
        5.583,
        -6,
        1,
        5.616,
        -6,
        5.65,
        -5.179,
        5.683,
        -2,
        1,
        5.716,
        1.179,
        5.75,
        5.841,
        5.783,
        10,
        1,
        5.816,
        14.159,
        5.85,
        19.632,
        5.883,
        23,
        1,
        5.922,
        26.929,
        5.961,
        28,
        6,
        28,
        1,
        6.044,
        28,
        6.089,
        25.322,
        6.133,
        14,
        1,
        6.172,
        4.093,
        6.211,
        -6,
        6.25,
        -6,
        0,
        6.6,
        18.66
      ]
    },
    {
      "Target": "Parameter",
      "Id": "Param152",
      "Segments": [
        0,
        29.61,
        1,
        0.106,
        22.165,
        0.211,
        -9,
        0.317,
        -9,
        1,
        0.345,
        -9,
        0.372,
        -9.093,
        0.4,
        -6,
        1,
        0.439,
        -1.669,
        0.478,
        9.442,
        0.517,
        18,
        1,
        0.55,
        25.336,
        0.584,
        30,
        0.617,
        30,
        1,
        0.656,
        30,
        0.694,
        14.86,
        0.733,
        8,
        1,
        0.761,
        3.1,
        0.789,
        2.624,
        0.817,
        -1,
        1,
        0.85,
        -5.349,
        0.884,
        -9,
        0.917,
        -9,
        1,
        0.945,
        -9,
        0.972,
        -9.093,
        1,
        -6,
        1,
        1.039,
        -1.669,
        1.078,
        10,
        1.117,
        18,
        1,
        1.156,
        26,
        1.194,
        30,
        1.233,
        30,
        1,
        1.266,
        30,
        1.3,
        12.677,
        1.333,
        8,
        1,
        1.366,
        3.323,
        1.4,
        2.878,
        1.433,
        -1,
        1,
        1.461,
        -4.232,
        1.489,
        -9,
        1.517,
        -9,
        1,
        1.55,
        -9,
        1.584,
        -9.024,
        1.617,
        -6,
        1,
        1.65,
        -2.976,
        1.684,
        10.664,
        1.717,
        18,
        1,
        1.756,
        26.558,
        1.794,
        30,
        1.833,
        30,
        1,
        1.872,
        30,
        1.911,
        14.86,
        1.95,
        8,
        1,
        1.978,
        3.1,
        2.005,
        2.624,
        2.033,
        -1,
        1,
        2.066,
        -5.349,
        2.1,
        -9,
        2.133,
        -9,
        1,
        2.161,
        -9,
        2.189,
        -9.093,
        2.217,
        -6,
        1,
        2.256,
        -1.669,
        2.294,
        9.442,
        2.333,
        18,
        1,
        2.366,
        25.336,
        2.4,
        30,
        2.433,
        30,
        1,
        2.472,
        30,
        2.511,
        14.86,
        2.55,
        8,
        1,
        2.578,
        3.1,
        2.605,
        2.624,
        2.633,
        -1,
        1,
        2.666,
        -5.349,
        2.7,
        -9,
        2.733,
        -9,
        1,
        2.761,
        -9,
        2.789,
        -9.093,
        2.817,
        -6,
        1,
        2.856,
        -1.669,
        2.894,
        10,
        2.933,
        18,
        1,
        2.972,
        26,
        3.011,
        30,
        3.05,
        30,
        1,
        3.083,
        30,
        3.117,
        12.677,
        3.15,
        8,
        1,
        3.183,
        3.323,
        3.217,
        2.878,
        3.25,
        -1,
        1,
        3.278,
        -4.232,
        3.305,
        -9,
        3.333,
        -9,
        1,
        3.372,
        -9,
        3.411,
        -9.094,
        3.45,
        -6,
        1,
        3.5,
        -2.022,
        3.55,
        10,
        3.6,
        18,
        1,
        3.65,
        26,
        3.7,
        30,
        3.75,
        30,
        1,
        3.861,
        30,
        3.972,
        20.253,
        4.083,
        8,
        1,
        4.122,
        3.711,
        4.161,
        2.792,
        4.2,
        -1,
        1,
        4.239,
        -4.792,
        4.278,
        -9,
        4.317,
        -9,
        1,
        4.35,
        -9,
        4.384,
        -8.71,
        4.417,
        -6,
        1,
        4.5,
        0.776,
        4.584,
        8.508,
        4.667,
        18,
        1,
        4.706,
        22.43,
        4.744,
        30,
        4.783,
        30,
        1,
        4.822,
        30,
        4.861,
        12.663,
        4.9,
        8,
        1,
        4.939,
        3.337,
        4.978,
        2.895,
        5.017,
        -1,
        1,
        5.045,
        -3.782,
        5.072,
        -9,
        5.1,
        -9,
        1,
        5.139,
        -9,
        5.178,
        -9.026,
        5.217,
        -6,
        1,
        5.256,
        -2.974,
        5.294,
        10.571,
        5.333,
        18,
        1,
        5.378,
        26.491,
        5.422,
        30,
        5.467,
        30,
        1,
        5.506,
        30,
        5.544,
        13.592,
        5.583,
        8,
        1,
        5.616,
        3.207,
        5.65,
        2.792,
        5.683,
        -1,
        1,
        5.716,
        -4.792,
        5.75,
        -9,
        5.783,
        -9,
        1,
        5.816,
        -9,
        5.85,
        -9.074,
        5.883,
        -6,
        1,
        5.922,
        -2.414,
        5.961,
        10.571,
        6,
        18,
        1,
        6.044,
        26.491,
        6.089,
        30,
        6.133,
        30,
        1,
        6.172,
        30,
        6.211,
        13.592,
        6.25,
        8,
        1,
        6.283,
        3.207,
        6.317,
        2.792,
        6.35,
        -1,
        1,
        6.383,
        -4.792,
        6.417,
        -9,
        6.45,
        -9,
        0,
        6.6,
        30
      ]
    },
    {
      "Target": "Parameter",
      "Id": "Param153",
      "Segments": [
        0,
        28,
        1,
        0.039,
        28,
        0.078,
        24.92,
        0.117,
        13,
        1,
        0.15,
        2.783,
        0.184,
        -7,
        0.217,
        -7,
        1,
        0.25,
        -7,
        0.284,
        -6.218,
        0.317,
        -3,
        1,
        0.345,
        -0.318,
        0.372,
        4.079,
        0.4,
        8,
        1,
        0.433,
        12.705,
        0.467,
        19.026,
        0.5,
        23,
        1,
        0.533,
        26.974,
        0.567,
        28,
        0.6,
        28,
        1,
        0.639,
        28,
        0.678,
        25.302,
        0.717,
        13,
        1,
        0.745,
        4.213,
        0.772,
        -7,
        0.8,
        -7,
        1,
        0.839,
        -7,
        0.878,
        -6.287,
        0.917,
        -3,
        1,
        0.945,
        -0.652,
        0.972,
        4.079,
        1,
        8,
        1,
        1.033,
        12.705,
        1.067,
        19.479,
        1.1,
        23,
        1,
        1.139,
        27.107,
        1.178,
        28,
        1.217,
        28,
        1,
        1.25,
        28,
        1.284,
        23.717,
        1.317,
        13,
        1,
        1.356,
        0.497,
        1.394,
        -7,
        1.433,
        -7,
        1,
        1.461,
        -7,
        1.489,
        -5.863,
        1.517,
        -3,
        1,
        1.55,
        0.436,
        1.584,
        3.585,
        1.617,
        8,
        1,
        1.645,
        11.679,
        1.672,
        20.008,
        1.7,
        23,
        1,
        1.739,
        27.188,
        1.778,
        28,
        1.817,
        28,
        1,
        1.85,
        28,
        1.884,
        24.407,
        1.917,
        13,
        1,
        1.95,
        1.593,
        1.984,
        -7,
        2.017,
        -7,
        1,
        2.056,
        -7,
        2.094,
        -6.287,
        2.133,
        -3,
        1,
        2.161,
        -0.652,
        2.189,
        4.079,
        2.217,
        8,
        1,
        2.25,
        12.705,
        2.284,
        19.026,
        2.317,
        23,
        1,
        2.35,
        26.974,
        2.384,
        28,
        2.417,
        28,
        1,
        2.456,
        28,
        2.494,
        24.92,
        2.533,
        13,
        1,
        2.566,
        2.783,
        2.6,
        -7,
        2.633,
        -7,
        1,
        2.666,
        -7,
        2.7,
        -6.218,
        2.733,
        -3,
        1,
        2.761,
        -0.318,
        2.789,
        4.079,
        2.817,
        8,
        1,
        2.85,
        12.705,
        2.884,
        19.026,
        2.917,
        23,
        1,
        2.95,
        26.974,
        2.984,
        28,
        3.017,
        28,
        1,
        3.056,
        28,
        3.094,
        24.92,
        3.133,
        13,
        1,
        3.166,
        2.783,
        3.2,
        -7,
        3.233,
        -7,
        1,
        3.266,
        -7,
        3.3,
        -5.9,
        3.333,
        -3,
        1,
        3.372,
        0.384,
        3.411,
        3.785,
        3.45,
        8,
        1,
        3.489,
        12.215,
        3.528,
        20.064,
        3.567,
        23,
        1,
        3.622,
        27.194,
        3.678,
        28,
        3.733,
        28,
        1,
        3.844,
        28,
        3.956,
        25.172,
        4.067,
        13,
        1,
        4.111,
        8.131,
        4.156,
        -7,
        4.2,
        -7,
        1,
        4.239,
        -7,
        4.278,
        -6.201,
        4.317,
        -3,
        1,
        4.35,
        -0.256,
        4.384,
        5.571,
        4.417,
        8,
        1,
        4.495,
        13.668,
        4.572,
        17.43,
        4.65,
        23,
        1,
        4.683,
        25.387,
        4.717,
        28,
        4.75,
        28,
        1,
        4.794,
        28,
        4.839,
        25.214,
        4.883,
        13,
        1,
        4.916,
        3.839,
        4.95,
        -7,
        4.983,
        -7,
        1,
        5.022,
        -7,
        5.061,
        -6.076,
        5.1,
        -3,
        1,
        5.139,
        0.076,
        5.178,
        3.489,
        5.217,
        8,
        1,
        5.245,
        11.222,
        5.272,
        20.671,
        5.3,
        23,
        1,
        5.35,
        27.192,
        5.4,
        28,
        5.45,
        28,
        1,
        5.483,
        28,
        5.517,
        23,
        5.55,
        13,
        1,
        5.594,
        -0.333,
        5.639,
        -7,
        5.683,
        -7,
        1,
        5.716,
        -7,
        5.75,
        -6.075,
        5.783,
        -3,
        1,
        5.816,
        0.075,
        5.85,
        3.785,
        5.883,
        8,
        1,
        5.916,
        12.215,
        5.95,
        19.479,
        5.983,
        23,
        1,
        6.022,
        27.107,
        6.061,
        28,
        6.1,
        28,
        1,
        6.144,
        28,
        6.189,
        25.214,
        6.233,
        13,
        1,
        6.266,
        3.839,
        6.3,
        -7,
        6.333,
        -7,
        1,
        6.372,
        -7,
        6.411,
        -7.602,
        6.45,
        -3,
        1,
        6.5,
        2.917,
        6.55,
        28,
        6.6,
        28
      ]
    },
    {
      "Target": "Parameter",
      "Id": "Param154",
      "Segments": [
        0,
        25,
        1,
        0.039,
        27.986,
        0.078,
        30,
        0.117,
        30,
        1,
        0.15,
        30,
        0.184,
        21.012,
        0.217,
        14,
        1,
        0.25,
        6.988,
        0.284,
        3.764,
        0.317,
        -2,
        1,
        0.345,
        -6.803,
        0.372,
        -10,
        0.4,
        -10,
        1,
        0.433,
        -10,
        0.467,
        -9.819,
        0.5,
        -5,
        1,
        0.533,
        -0.181,
        0.567,
        20.921,
        0.6,
        25,
        1,
        0.639,
        29.759,
        0.678,
        30,
        0.717,
        30,
        1,
        0.745,
        30,
        0.772,
        19.072,
        0.8,
        14,
        1,
        0.839,
        6.899,
        0.878,
        4.031,
        0.917,
        -2,
        1,
        0.945,
        -6.308,
        0.972,
        -10,
        1,
        -10,
        1,
        1.033,
        -10,
        1.067,
        -9.819,
        1.1,
        -5,
        1,
        1.139,
        0.623,
        1.178,
        19.377,
        1.217,
        25,
        1,
        1.25,
        29.819,
        1.284,
        30,
        1.317,
        30,
        1,
        1.356,
        30,
        1.394,
        23.016,
        1.433,
        14,
        1,
        1.461,
        7.56,
        1.489,
        2.803,
        1.517,
        -2,
        1,
        1.55,
        -7.764,
        1.584,
        -10,
        1.617,
        -10,
        1,
        1.645,
        -10,
        1.672,
        -9.742,
        1.7,
        -5,
        1,
        1.739,
        1.639,
        1.778,
        19.377,
        1.817,
        25,
        1,
        1.85,
        29.819,
        1.884,
        30,
        1.917,
        30,
        1,
        1.95,
        30,
        1.984,
        20.084,
        2.017,
        14,
        1,
        2.056,
        6.902,
        2.094,
        4.031,
        2.133,
        -2,
        1,
        2.161,
        -6.308,
        2.189,
        -10,
        2.217,
        -10,
        1,
        2.25,
        -10,
        2.284,
        -9.819,
        2.317,
        -5,
        1,
        2.35,
        -0.181,
        2.384,
        20.921,
        2.417,
        25,
        1,
        2.456,
        29.759,
        2.494,
        30,
        2.533,
        30,
        1,
        2.566,
        30,
        2.6,
        21.012,
        2.633,
        14,
        1,
        2.666,
        6.988,
        2.7,
        3.764,
        2.733,
        -2,
        1,
        2.761,
        -6.803,
        2.789,
        -10,
        2.817,
        -10,
        1,
        2.85,
        -10,
        2.884,
        -9.819,
        2.917,
        -5,
        1,
        2.95,
        -0.181,
        2.984,
        20.921,
        3.017,
        25,
        1,
        3.056,
        29.759,
        3.094,
        30,
        3.133,
        30,
        1,
        3.166,
        30,
        3.2,
        21.012,
        3.233,
        14,
        1,
        3.266,
        6.988,
        3.3,
        2.89,
        3.333,
        -2,
        1,
        3.372,
        -7.705,
        3.411,
        -10,
        3.45,
        -10,
        1,
        3.489,
        -10,
        3.528,
        -9.716,
        3.567,
        -5,
        1,
        3.622,
        1.737,
        3.678,
        22.785,
        3.733,
        25,
        1,
        3.844,
        29.431,
        3.956,
        30,
        4.067,
        30,
        1,
        4.111,
        30,
        4.156,
        21.817,
        4.2,
        14,
        1,
        4.239,
        7.16,
        4.278,
        3.705,
        4.317,
        -2,
        1,
        4.35,
        -6.89,
        4.384,
        -10,
        4.417,
        -10,
        1,
        4.495,
        -10,
        4.572,
        -9.282,
        4.65,
        -5,
        1,
        4.683,
        -3.165,
        4.717,
        21.49,
        4.75,
        25,
        1,
        4.794,
        29.68,
        4.839,
        30,
        4.883,
        30,
        1,
        4.916,
        30,
        4.95,
        20.084,
        4.983,
        14,
        1,
        5.022,
        6.902,
        5.061,
        3.333,
        5.1,
        -2,
        1,
        5.139,
        -7.333,
        5.178,
        -10,
        5.217,
        -10,
        1,
        5.245,
        -10,
        5.272,
        -9.444,
        5.3,
        -5,
        1,
        5.35,
        3,
        5.4,
        17.987,
        5.45,
        25,
        1,
        5.483,
        29.676,
        5.517,
        30,
        5.55,
        30,
        1,
        5.594,
        30,
        5.639,
        22.736,
        5.683,
        14,
        1,
        5.716,
        7.448,
        5.75,
        3.333,
        5.783,
        -2,
        1,
        5.816,
        -7.333,
        5.85,
        -10,
        5.883,
        -10,
        1,
        5.916,
        -10,
        5.95,
        -9.819,
        5.983,
        -5,
        1,
        6.022,
        0.623,
        6.061,
        20.833,
        6.1,
        25,
        1,
        6.144,
        29.763,
        6.189,
        30,
        6.233,
        30,
        1,
        6.266,
        30,
        6.3,
        23.782,
        6.333,
        14,
        1,
        6.372,
        2.587,
        6.411,
        -2,
        6.45,
        -2,
        0,
        6.6,
        25
      ]
    },
    {
      "Target": "Parameter",
      "Id": "Param155",
      "Segments": [
        0,
        9,
        1,
        0.222,
        3.123,
        0.445,
        -11.001,
        0.667,
        -11.001,
        0,
        1.333,
        11.181,
        0,
        2,
        -11.001,
        0,
        2.667,
        11.181,
        0,
        3.267,
        -11.001,
        0,
        3.783,
        11.181,
        0,
        4.217,
        -1.611,
        0,
        4.767,
        14.832,
        0,
        5.433,
        -11.477,
        1,
        5.822,
        -11.477,
        6.211,
        6.435,
        6.6,
        9
      ]
    },
    {
      "Target": "Parameter",
      "Id": "Param156",
      "Segments": [
        0,
        5,
        0,
        0.867,
        0,
        0,
        1.533,
        5,
        0,
        2.2,
        0,
        0,
        2.867,
        5,
        0,
        3.467,
        0,
        0,
        3.983,
        5,
        0,
        4.417,
        0,
        0,
        4.967,
        5,
        0,
        5.633,
        0,
        0,
        6.6,
        5
      ]
    },
    {
      "Target": "Parameter",
      "Id": "Param157",
      "Segments": [
        0,
        10,
        1,
        0.083,
        10,
        0.167,
        10.318,
        0.25,
        11,
        1,
        0.411,
        12.318,
        0.572,
        14.75,
        0.733,
        15,
        1,
        0.989,
        15.397,
        1.244,
        15.394,
        1.5,
        15.394,
        0,
        2.067,
        15,
        0,
        2.833,
        15.394,
        0,
        3.333,
        15,
        0,
        3.95,
        15.394,
        0,
        4.283,
        15,
        0,
        4.933,
        15.394,
        1,
        5.122,
        15.394,
        5.311,
        15.595,
        5.5,
        15,
        1,
        5.867,
        13.844,
        6.233,
        10,
        6.6,
        10
      ]
    },
    {
      "Target": "Parameter",
      "Id": "Param158",
      "Segments": [
        0,
        2.093,
        0,
        0.967,
        -0.837,
        0,
        1.633,
        2.093,
        0,
        2.3,
        -0.837,
        0,
        2.967,
        2.093,
        0,
        3.567,
        -0.837,
        0,
        4.083,
        2.093,
        0,
        4.517,
        -0.837,
        0,
        5.067,
        2.093,
        0,
        5.733,
        -0.837,
        0,
        6.6,
        2.093
      ]
    },
    {
      "Target": "Parameter",
      "Id": "Param163",
      "Segments": [
        0,
        -30,
        2,
        1.85,
        -30,
        0,
        2.75,
        -32.8,
        2,
        4.517,
        -32.8,
        0,
        5.45,
        -30,
        0,
        6.6,
        -30.2
      ]
    },
    {
      "Target": "Parameter",
      "Id": "Param164",
      "Segments": [
        0,
        0,
        2,
        2,
        0,
        0,
        2.75,
        2.83,
        2,
        4.517,
        2.83,
        0,
        6.6,
        0
      ]
    },
    {
      "Target": "Parameter",
      "Id": "Param169",
      "Segments": [
        0,
        5,
        0,
        0.533,
        0,
        0,
        1.083,
        5,
        0,
        1.733,
        0,
        0,
        2.417,
        5,
        0,
        3.083,
        0,
        0,
        3.683,
        5,
        0,
        4.2,
        0,
        0,
        4.65,
        5,
        0,
        5.183,
        0,
        0,
        6.6,
        5
      ]
    },
    {
      "Target": "Parameter",
      "Id": "Param170",
      "Segments": [
        0,
        6,
        0,
        0.533,
        0,
        0,
        1.083,
        6,
        0,
        1.733,
        0,
        0,
        2.417,
        6,
        0,
        3.083,
        0,
        0,
        3.683,
        6,
        0,
        4.2,
        0,
        0,
        4.65,
        6,
        0,
        5.183,
        0,
        0,
        6.6,
        6
      ]
    },
    {
      "Target": "Parameter",
      "Id": "Param160",
      "Segments": [
        0,
        -1.734,
        0,
        0.367,
        1,
        2,
        0.917,
        1,
        2,
        1.583,
        1,
        2,
        2.25,
        1,
        0,
        2.917,
        -3,
        0,
        3.517,
        1,
        0,
        4.033,
        -3,
        0,
        4.467,
        1,
        0,
        5.017,
        -3,
        1,
        5.1,
        -3,
        5.184,
        -2.718,
        5.267,
        -1.734,
        1,
        5.406,
        -0.094,
        5.544,
        1,
        5.683,
        1,
        0,
        6.317,
        -3,
        0,
        6.6,
        -1.734
      ]
    },
    {
      "Target": "Parameter",
      "Id": "Param171",
      "Segments": [
        0,
        -1.596,
        0,
        0.533,
        6,
        2,
        1.083,
        6,
        0,
        1.75,
        -2,
        0,
        2.417,
        6,
        0,
        3.083,
        -2,
        0,
        3.683,
        6,
        0,
        4.2,
        -2,
        0,
        4.633,
        6,
        0,
        5.183,
        -2,
        1,
        5.211,
        -2,
        5.239,
        -2.191,
        5.267,
        -1.596,
        1,
        5.461,
        2.568,
        5.656,
        6,
        5.85,
        6,
        0,
        6.483,
        -2,
        0,
        6.6,
        -1.596
      ]
    },
    {
      "Target": "Parameter",
      "Id": "Param172",
      "Segments": [
        0,
        24,
        0,
        0.617,
        10,
        2,
        1.167,
        10,
        0,
        1.833,
        24,
        0,
        2.5,
        10,
        0,
        3.167,
        24,
        0,
        3.767,
        10,
        0,
        4.283,
        24,
        0,
        4.717,
        10,
        0,
        5.267,
        24,
        0,
        5.933,
        10,
        0,
        6.6,
        24
      ]
    },
    {
      "Target": "Parameter",
      "Id": "Param162",
      "Segments": [
        0,
        7.955,
        0,
        0.45,
        0,
        0,
        1.233,
        11.483,
        0,
        1.883,
        0,
        0,
        2.55,
        11.483,
        0,
        3.167,
        0,
        0,
        3.667,
        11.483,
        0,
        4.1,
        0,
        0,
        4.65,
        11.483,
        1,
        4.744,
        11.483,
        4.839,
        10.498,
        4.933,
        7.955,
        1,
        5.122,
        2.868,
        5.311,
        0,
        5.5,
        0,
        0,
        6.167,
        11.483,
        0,
        6.6,
        7.955
      ]
    },
    {
      "Target": "Parameter",
      "Id": "Param173",
      "Segments": [
        0,
        -0.657,
        0,
        0.45,
        -8,
        0,
        1.233,
        4,
        0,
        1.883,
        -8,
        0,
        2.55,
        4,
        0,
        3.167,
        -8,
        0,
        3.667,
        4,
        0,
        4.1,
        -8,
        0,
        4.65,
        4,
        1,
        4.744,
        4,
        4.839,
        1.975,
        4.933,
        -0.657,
        1,
        5.122,
        -5.92,
        5.311,
        -8,
        5.5,
        -8,
        0,
        6.167,
        4,
        0,
        6.6,
        -0.657
      ]
    },
    {
      "Target": "Parameter",
      "Id": "Param174",
      "Segments": [
        0,
        -5,
        1,
        0.2,
        -5,
        0.4,
        -10,
        0.6,
        -20,
        1,
        0.733,
        -26.667,
        0.867,
        -30,
        1,
        -30,
        0,
        1.5,
        -5,
        0,
        2.317,
        -30,
        0,
        2.8,
        -5,
        0,
        3.517,
        -30,
        0,
        3.867,
        -5,
        0,
        4.483,
        -30,
        0,
        4.933,
        -5,
        0,
        5.817,
        -30,
        0,
        6.6,
        -5
      ]
    },
    {
      "Target": "Parameter",
      "Id": "Param161",
      "Segments": [
        0,
        9.731,
        0,
        0.45,
        0,
        0,
        1.233,
        13.582,
        0,
        1.883,
        0,
        0,
        2.55,
        13.582,
        0,
        3.167,
        0,
        0,
        3.667,
        13.582,
        0,
        4.1,
        0,
        0,
        4.65,
        13.582,
        1,
        4.744,
        13.582,
        4.839,
        12.214,
        4.933,
        9.197,
        1,
        5.122,
        3.164,
        5.311,
        0,
        5.5,
        0,
        0,
        6.167,
        13.582,
        0,
        6.6,
        9.731
      ]
    },
    {
      "Target": "Parameter",
      "Id": "Param175",
      "Segments": [
        0,
        -3.92,
        0,
        0.45,
        -18,
        0,
        1.233,
        5,
        0,
        1.883,
        -18,
        0,
        2.55,
        5,
        0,
        3.167,
        -18,
        0,
        3.667,
        5,
        0,
        4.1,
        -18,
        0,
        4.65,
        5,
        1,
        4.744,
        5,
        4.839,
        1.12,
        4.933,
        -3.92,
        1,
        5.122,
        -14.001,
        5.311,
        -18,
        5.5,
        -18,
        0,
        6.167,
        5,
        0,
        6.6,
        -3.92
      ]
    },
    {
      "Target": "Parameter",
      "Id": "Param176",
      "Segments": [
        0,
        5,
        1,
        0.2,
        5,
        0.4,
        0,
        0.6,
        -10,
        1,
        0.733,
        -16.667,
        0.867,
        -20,
        1,
        -20,
        0,
        1.5,
        5,
        0,
        2.317,
        -20,
        0,
        2.8,
        5,
        0,
        3.517,
        -20,
        0,
        3.867,
        5,
        0,
        4.483,
        -20,
        0,
        4.933,
        5,
        0,
        5.817,
        -20,
        0,
        6.6,
        5
      ]
    },
    {
      "Target": "Parameter",
      "Id": "Param167",
      "Segments": [
        0,
        19,
        1,
        0.133,
        19,
        0.267,
        12.506,
        0.4,
        -3,
        1,
        0.489,
        -13.337,
        0.578,
        -20,
        0.667,
        -20,
        1,
        0.761,
        -20,
        0.856,
        -7.151,
        0.95,
        6,
        1,
        1.083,
        24.566,
        1.217,
        30,
        1.35,
        30,
        1,
        1.489,
        30,
        1.628,
        15.892,
        1.767,
        1,
        1,
        1.922,
        -15.679,
        2.078,
        -20,
        2.233,
        -20,
        1,
        2.328,
        -20,
        2.422,
        -7.151,
        2.517,
        6,
        1,
        2.65,
        24.566,
        2.784,
        30,
        2.917,
        30,
        1,
        3.056,
        30,
        3.194,
        15.892,
        3.333,
        1,
        1,
        3.489,
        -15.679,
        3.644,
        -20,
        3.8,
        -20,
        1,
        3.894,
        -20,
        3.989,
        -7.151,
        4.083,
        6,
        1,
        4.216,
        24.566,
        4.35,
        30,
        4.483,
        30,
        1,
        4.622,
        30,
        4.761,
        16.356,
        4.9,
        1,
        1,
        5.056,
        -16.198,
        5.211,
        -21,
        5.367,
        -21,
        1,
        5.578,
        -21,
        5.789,
        -14.682,
        6,
        -1,
        1,
        6.2,
        11.962,
        6.4,
        19,
        6.6,
        19
      ]
    },
    {
      "Target": "Parameter",
      "Id": "Param168",
      "Segments": [
        0,
        -8,
        0,
        0.4,
        17,
        1,
        0.489,
        17,
        0.578,
        -14.304,
        0.667,
        -22,
        1,
        0.761,
        -30,
        0.856,
        -30,
        0.95,
        -30,
        1,
        1.083,
        -30,
        1.217,
        -4.666,
        1.35,
        11,
        1,
        1.489,
        27.318,
        1.628,
        29,
        1.767,
        29,
        1,
        1.922,
        29,
        2.078,
        -6.714,
        2.233,
        -22,
        1,
        2.328,
        -30,
        2.422,
        -30,
        2.517,
        -30,
        1,
        2.65,
        -30,
        2.784,
        -4.666,
        2.917,
        11,
        1,
        3.056,
        27.318,
        3.194,
        29,
        3.333,
        29,
        1,
        3.489,
        29,
        3.644,
        -6.714,
        3.8,
        -22,
        1,
        3.894,
        -30,
        3.989,
        -30,
        4.083,
        -30,
        1,
        4.216,
        -30,
        4.35,
        -4.666,
        4.483,
        11,
        1,
        4.622,
        27.318,
        4.761,
        29,
        4.9,
        29,
        1,
        5.056,
        29,
        5.211,
        14.463,
        5.367,
        2,
        1,
        5.578,
        -14.914,
        5.789,
        -19,
        6,
        -19,
        0,
        6.6,
        -8
      ]
    },
    {
      "Target": "Parameter",
      "Id": "Param139",
      "Segments": [
        0,
        28,
        2,
        0.167,
        28,
        0,
        0.367,
        -6,
        0,
        0.8,
        28,
        0,
        1.017,
        -6,
        0,
        1.45,
        28,
        0,
        1.65,
        -6,
        0,
        2.083,
        28,
        0,
        2.3,
        -6,
        0,
        2.733,
        28,
        0,
        2.933,
        -6,
        0,
        3.367,
        28,
        0,
        3.583,
        -6,
        0,
        4.017,
        28,
        0,
        4.217,
        -6,
        0,
        4.65,
        28,
        0,
        4.867,
        -6,
        0,
        5.3,
        28,
        0,
        5.5,
        -6,
        0,
        5.933,
        28,
        0,
        6.15,
        -6,
        0,
        6.6,
        28
      ]
    },
    {
      "Target": "Parameter",
      "Id": "Param140",
      "Segments": [
        0,
        21,
        1,
        0.089,
        24.731,
        0.178,
        30,
        0.267,
        30,
        0,
        0.6,
        -8.195,
        0,
        0.917,
        30,
        0,
        1.233,
        -8.195,
        0,
        1.55,
        30,
        0,
        1.883,
        -8.195,
        0,
        2.2,
        30,
        0,
        2.517,
        -8.195,
        0,
        2.833,
        30,
        0,
        3.167,
        -8.195,
        0,
        3.483,
        30,
        0,
        3.8,
        -8.195,
        0,
        4.117,
        30,
        0,
        4.45,
        -8.195,
        0,
        4.767,
        30,
        0,
        5.083,
        -8.195,
        0,
        5.4,
        30,
        0,
        5.733,
        -8.195,
        0,
        6.05,
        30,
        0,
        6.367,
        -8.195,
        0,
        6.6,
        21
      ]
    },
    {
      "Target": "Parameter",
      "Id": "Param136",
      "Segments": [
        0,
        20.101,
        0,
        0.383,
        -5,
        0,
        0.7,
        28,
        0,
        1.033,
        -5,
        0,
        1.35,
        28,
        0,
        1.667,
        -5,
        0,
        1.983,
        28,
        0,
        2.317,
        -5,
        0,
        2.65,
        30,
        0,
        2.95,
        -5,
        0,
        3.267,
        28,
        0,
        3.6,
        -5,
        0,
        3.917,
        28,
        0,
        4.233,
        -5,
        0,
        4.55,
        28,
        0,
        4.883,
        -5,
        0,
        5.2,
        28,
        0,
        5.517,
        -5,
        0,
        5.833,
        28,
        0,
        6.167,
        -5,
        0,
        6.483,
        28,
        0,
        6.6,
        20.101
      ]
    },
    {
      "Target": "Parameter",
      "Id": "Param137",
      "Segments": [
        0,
        30,
        1,
        0.167,
        27.048,
        0.333,
        -7.786,
        0.5,
        -7.786,
        0,
        0.8,
        30,
        0,
        1.133,
        -7.786,
        0,
        1.45,
        30,
        0,
        1.783,
        -7.786,
        0,
        2.083,
        30,
        0,
        2.417,
        -7.786,
        0,
        2.733,
        30,
        0,
        3.067,
        -7.786,
        0,
        3.367,
        30,
        0,
        3.7,
        -7.786,
        0,
        4.017,
        30,
        0,
        4.35,
        -7.786,
        0,
        4.65,
        30,
        0,
        4.983,
        -7.786,
        0,
        5.3,
        30,
        0,
        5.633,
        -7.786,
        0,
        5.933,
        30,
        0,
        6.267,
        -7.786,
        0,
        6.6,
        30
      ]
    },
    {
      "Target": "Parameter",
      "Id": "Param138",
      "Segments": [
        0,
        -8.679,
        1,
        0.256,
        1.434,
        0.511,
        27.07,
        0.767,
        27.07,
        0,
        1.383,
        -22.237,
        0,
        1.917,
        17.348,
        0,
        2.7,
        -10.217,
        0,
        3.167,
        10.146,
        0,
        3.983,
        -13.418,
        0,
        4.55,
        13.919,
        0,
        5.317,
        -13.418,
        0,
        5.85,
        13.919,
        1,
        6.022,
        13.919,
        6.195,
        9.319,
        6.367,
        -1.019,
        1,
        6.445,
        -5.688,
        6.522,
        -8.679,
        6.6,
        -8.679
      ]
    },
    {
      "Target": "Parameter",
      "Id": "Param200",
      "Segments": [
        0,
        0,
        2,
        0.283,
        0,
        0,
        1.683,
        12.396,
        1,
        2.522,
        12.396,
        3.361,
        12.136,
        4.2,
        10.596,
        1,
        4.456,
        10.127,
        4.711,
        -0,
        4.967,
        0,
        2,
        6.6,
        0
      ]
    },
    {
      "Target": "Parameter",
      "Id": "Param201",
      "Segments": [
        0,
        0,
        1,
        0.139,
        0,
        0.278,
        0.139,
        0.417,
        0.507,
        1,
        0.584,
        0.949,
        0.75,
        1.644,
        0.917,
        1.938,
        1,
        1.261,
        2.546,
        1.606,
        2.707,
        1.95,
        2.707,
        1,
        2.672,
        2.707,
        3.395,
        2.722,
        4.117,
        2.299,
        1,
        4.611,
        2.009,
        5.106,
        0,
        5.6,
        0,
        2,
        6.6,
        0
      ]
    },
    {
      "Target": "Parameter",
      "Id": "Param202",
      "Segments": [
        0,
        0,
        1,
        0.15,
        0,
        0.3,
        -0.018,
        0.45,
        0.115,
        1,
        0.756,
        0.384,
        1.061,
        0.802,
        1.367,
        1.373,
        1,
        1.772,
        2.132,
        2.178,
        2.941,
        2.583,
        2.941,
        1,
        3.044,
        2.941,
        3.506,
        2.634,
        3.967,
        1.745,
        1,
        4.511,
        0.695,
        5.056,
        0,
        5.6,
        0,
        2,
        6.6,
        0
      ]
    },
    {
      "Target": "Parameter",
      "Id": "Param144",
      "Segments": [
        0,
        9,
        0,
        0.55,
        11.96,
        0,
        1.35,
        2.699,
        0,
        1.917,
        9,
        0,
        2.65,
        2.699,
        0,
        3.167,
        9,
        0,
        3.95,
        2.699,
        0,
        4.55,
        9,
        0,
        5.267,
        2.699,
        0,
        5.833,
        9,
        0,
        6.267,
        4.963,
        0,
        6.6,
        9
      ]
    },
    {
      "Target": "Parameter",
      "Id": "Param96",
      "Segments": [
        0,
        -7,
        0,
        0.567,
        5,
        0,
        1.1,
        -7,
        0,
        1.8,
        5,
        0,
        2.367,
        -7,
        0,
        3.05,
        5,
        0,
        3.533,
        -7,
        0,
        4.317,
        5,
        0,
        4.783,
        -7,
        0,
        5.583,
        5,
        1,
        5.789,
        5,
        5.994,
        4.206,
        6.2,
        0,
        1,
        6.333,
        -2.728,
        6.467,
        -7,
        6.6,
        -7
      ]
    },
    {
      "Target": "Parameter",
      "Id": "Param145",
      "Segments": [
        0,
        3.35,
        1,
        0.289,
        4.347,
        0.578,
        6,
        0.867,
        6,
        0,
        1.483,
        0,
        0,
        2.017,
        6,
        0,
        2.783,
        0,
        0,
        3.267,
        6,
        0,
        4.083,
        0,
        0,
        4.65,
        6,
        0,
        5.4,
        0,
        0,
        5.933,
        6,
        0,
        6.333,
        0,
        0,
        6.6,
        3.35
      ]
    },
    {
      "Target": "Parameter",
      "Id": "Param97",
      "Segments": [
        0,
        -7,
        0,
        0.567,
        10,
        0,
        1.1,
        -7,
        0,
        1.8,
        10,
        0,
        2.367,
        -7,
        0,
        3.05,
        10,
        0,
        3.533,
        -7,
        0,
        4.317,
        10,
        0,
        4.783,
        -7,
        0,
        5.583,
        10,
        1,
        5.789,
        10,
        5.994,
        9.604,
        6.2,
        5,
        1,
        6.333,
        2.013,
        6.467,
        -7,
        6.6,
        -7
      ]
    },
    {
      "Target": "Parameter",
      "Id": "Param146",
      "Segments": [
        0,
        0,
        0,
        0.983,
        6,
        0,
        1.6,
        0,
        0,
        2.133,
        6,
        0,
        2.9,
        0,
        0,
        3.383,
        6,
        0,
        4.2,
        0,
        0,
        4.767,
        6,
        0,
        5.517,
        0,
        0,
        6.05,
        6,
        0,
        6.6,
        0
      ]
    },
    {
      "Target": "Parameter",
      "Id": "Param98",
      "Segments": [
        0,
        2,
        0,
        1.083,
        13,
        0,
        1.833,
        2,
        0,
        2.433,
        13,
        0,
        3.067,
        2,
        0,
        3.783,
        13,
        0,
        4.317,
        2,
        0,
        4.9,
        13,
        0,
        5.433,
        2,
        0,
        5.933,
        13,
        0,
        6.6,
        2
      ]
    },
    {
      "Target": "Parameter",
      "Id": "Param147",
      "Segments": [
        0,
        3.3,
        0,
        0.9,
        10,
        0,
        1.517,
        0,
        0,
        2.05,
        10,
        0,
        2.817,
        0,
        0,
        3.3,
        10,
        0,
        4.117,
        0,
        0,
        4.683,
        10,
        0,
        5.433,
        0,
        0,
        5.883,
        10,
        0,
        6.383,
        0,
        0,
        6.6,
        3.3
      ]
    },
    {
      "Target": "Parameter",
      "Id": "Param197",
      "Segments": [
        0,
        1,
        0,
        1.083,
        20,
        0,
        1.833,
        1,
        0,
        2.433,
        20,
        0,
        3.067,
        1,
        0,
        3.783,
        20,
        0,
        4.317,
        1,
        0,
        4.9,
        20,
        0,
        5.433,
        1,
        0,
        5.933,
        20,
        0,
        6.6,
        1
      ]
    },
    {
      "Target": "Parameter",
      "Id": "Param198",
      "Segments": [
        0,
        -13,
        1,
        0.3,
        -13,
        0.6,
        5.565,
        0.9,
        20,
        1,
        1.039,
        26.683,
        1.178,
        26,
        1.317,
        26,
        1,
        1.445,
        26,
        1.572,
        17.378,
        1.7,
        0,
        1,
        1.822,
        -16.622,
        1.945,
        -25,
        2.067,
        -25,
        1,
        2.184,
        -25,
        2.3,
        -16.152,
        2.417,
        -1,
        1,
        2.561,
        17.759,
        2.706,
        26,
        2.85,
        26,
        1,
        2.922,
        26,
        2.995,
        15.64,
        3.067,
        0,
        1,
        3.15,
        -18.046,
        3.234,
        -25,
        3.317,
        -25,
        1,
        3.434,
        -25,
        3.55,
        -16.152,
        3.667,
        -1,
        1,
        3.811,
        17.759,
        3.956,
        26,
        4.1,
        26,
        1,
        4.228,
        26,
        4.355,
        18.846,
        4.483,
        0,
        1,
        4.583,
        -14.749,
        4.683,
        -25,
        4.783,
        -25,
        1,
        4.9,
        -25,
        5.016,
        -16.152,
        5.133,
        -1,
        1,
        5.278,
        17.759,
        5.422,
        26,
        5.567,
        26,
        1,
        5.656,
        26,
        5.744,
        16.071,
        5.833,
        0,
        1,
        5.939,
        -19.084,
        6.044,
        -27,
        6.15,
        -27,
        0,
        6.6,
        -13
      ]
    },
    {
      "Target": "Parameter",
      "Id": "Param199",
      "Segments": [
        0,
        -24,
        1,
        0.3,
        -24,
        0.6,
        -23.898,
        0.9,
        -20,
        1,
        1.072,
        -17.762,
        1.245,
        21.764,
        1.417,
        27,
        1,
        1.511,
        29.871,
        1.606,
        29.076,
        1.7,
        29.076,
        1,
        1.822,
        29.076,
        1.945,
        -3.459,
        2.067,
        -17,
        1,
        2.184,
        -29.925,
        2.3,
        -30,
        2.417,
        -30,
        1,
        2.595,
        -30,
        2.772,
        17.348,
        2.95,
        27,
        1,
        2.994,
        29.413,
        3.039,
        28.104,
        3.083,
        28.104,
        1,
        3.161,
        28.104,
        3.239,
        -8.927,
        3.317,
        -17,
        1,
        3.434,
        -29.109,
        3.55,
        -30,
        3.667,
        -30,
        1,
        3.845,
        -30,
        4.022,
        21.44,
        4.2,
        27,
        1,
        4.3,
        30,
        4.4,
        29.076,
        4.5,
        29.076,
        1,
        4.594,
        29.076,
        4.689,
        -6.856,
        4.783,
        -17,
        1,
        4.9,
        -29.531,
        5.016,
        -30,
        5.133,
        -30,
        1,
        5.3,
        -30,
        5.466,
        19.196,
        5.633,
        27,
        1,
        5.705,
        30,
        5.778,
        29.076,
        5.85,
        29.076,
        1,
        5.95,
        29.076,
        6.05,
        8.803,
        6.15,
        -3,
        1,
        6.3,
        -20.705,
        6.45,
        -24,
        6.6,
        -24
      ]
    },
    {
      "Target": "Parameter",
      "Id": "Param3",
      "Segments": [
        0,
        0,
        0,
        2.117,
        8,
        0,
        4.467,
        -12,
        0,
        6.6,
        0
      ]
    },
    {
      "Target": "Parameter",
      "Id": "Param",
      "Segments": [
        0,
        0,
        0,
        2.117,
        9,
        0,
        4.467,
        -8,
        0,
        6.6,
        0
      ]
    },
    {
      "Target": "Parameter",
      "Id": "Param37",
      "Segments": [
        0,
        -2,
        0,
        1.817,
        -7,
        0,
        3.75,
        9,
        0,
        6.6,
        -2
      ]
    },
    {
      "Target": "Parameter",
      "Id": "Param38",
      "Segments": [
        0,
        -2.415,
        1,
        0.167,
        -2.415,
        0.333,
        -2.108,
        0.5,
        -3,
        1,
        1.183,
        -6.656,
        1.867,
        -11,
        2.55,
        -11,
        0,
        4.467,
        11,
        0,
        6.6,
        -2.415
      ]
    },
    {
      "Target": "Parameter",
      "Id": "Param16",
      "Segments": [
        0,
        -3,
        0,
        2.033,
        -10,
        0,
        3.95,
        9,
        0,
        6.6,
        -3
      ]
    },
    {
      "Target": "Parameter",
      "Id": "Param17",
      "Segments": [
        0,
        -1.398,
        0,
        0.85,
        0.998,
        0,
        2.85,
        -11,
        0,
        4.767,
        12,
        0,
        6.6,
        -1.398
      ]
    },
    {
      "Target": "Parameter",
      "Id": "Param6",
      "Segments": [
        0,
        -3.84,
        0,
        0.633,
        -19.57,
        0,
        1.75,
        9.07,
        0,
        4.467,
        -10,
        0,
        6.6,
        -3.84
      ]
    },
    {
      "Target": "Parameter",
      "Id": "Param15",
      "Segments": [
        0,
        -1.95,
        0,
        0.933,
        -21.191,
        0,
        2.3,
        16.364,
        0,
        4.767,
        -12,
        0,
        6.6,
        -1.95
      ]
    },
    {
      "Target": "Parameter",
      "Id": "Param18",
      "Segments": [
        0,
        -4,
        0,
        0.933,
        12,
        0,
        2,
        -6,
        1,
        2.111,
        -6,
        2.222,
        -1.686,
        2.333,
        5.967,
        1,
        2.455,
        14.385,
        2.578,
        18.149,
        2.7,
        18.149,
        1,
        2.9,
        18.149,
        3.1,
        6.185,
        3.3,
        -0.822,
        1,
        3.617,
        -11.917,
        3.933,
        -14,
        4.25,
        -14,
        1,
        4.5,
        -14,
        4.75,
        -14.036,
        5,
        -10,
        1,
        5.239,
        -6.144,
        5.478,
        3,
        5.717,
        3,
        0,
        6.6,
        -4
      ]
    },
    {
      "Target": "Parameter",
      "Id": "Param19",
      "Segments": [
        0,
        -3.555,
        0,
        1.15,
        8,
        0,
        1.95,
        -9,
        1,
        2.117,
        -9,
        2.283,
        -9.269,
        2.45,
        -8,
        1,
        2.661,
        -6.392,
        2.872,
        9.512,
        3.083,
        9.512,
        0,
        3.417,
        16.555,
        1,
        3.495,
        16.555,
        3.572,
        13.919,
        3.65,
        10.643,
        1,
        4.1,
        -8.312,
        4.55,
        -17,
        5,
        -17,
        1,
        5.239,
        -17,
        5.478,
        -11.275,
        5.717,
        -8,
        1,
        6.011,
        -3.964,
        6.306,
        -3.555,
        6.6,
        -3.555
      ]
    },
    {
      "Target": "Parameter",
      "Id": "Param124",
      "Segments": [
        0,
        0,
        0,
        0.633,
        -9,
        0,
        1.483,
        7,
        0,
        2.333,
        -13,
        2,
        2.783,
        -13,
        0,
        3.9,
        4,
        1,
        4.178,
        4,
        4.455,
        4.084,
        4.733,
        3.82,
        1,
        5.078,
        3.493,
        5.422,
        -11,
        5.767,
        -11,
        0,
        6.6,
        0
      ]
    },
    {
      "Target": "Parameter",
      "Id": "Param83",
      "Segments": [
        0,
        2,
        0,
        1.067,
        3.741,
        0,
        1.817,
        -4.772,
        0,
        2.6,
        6.336,
        0,
        3.233,
        -4,
        1,
        3.433,
        -4,
        3.633,
        -2.782,
        3.833,
        2,
        1,
        3.972,
        5.321,
        4.111,
        9,
        4.25,
        9,
        0,
        5.367,
        -3,
        0,
        6.6,
        2
      ]
    },
    {
      "Target": "Parameter",
      "Id": "Param84",
      "Segments": [
        0,
        2,
        1,
        0.45,
        2,
        0.9,
        -0.893,
        1.35,
        -8.509,
        1,
        1.506,
        -11.142,
        1.661,
        -13.805,
        1.817,
        -13.805,
        0,
        2.75,
        14.169,
        0,
        3.533,
        -5.226,
        0,
        4.05,
        7.887,
        0,
        4.917,
        -1.378,
        0,
        6,
        11.973,
        0,
        6.6,
        2
      ]
    },
    {
      "Target": "Parameter",
      "Id": "Param20",
      "Segments": [
        0,
        -1,
        0,
        2.217,
        -9.53,
        0,
        3.95,
        2,
        0,
        6.6,
        -1
      ]
    },
    {
      "Target": "Parameter",
      "Id": "Param21",
      "Segments": [
        0,
        -1.74,
        1,
        0.128,
        -1.74,
        0.255,
        -1.84,
        0.383,
        -2.27,
        1,
        1.344,
        -5.506,
        2.306,
        -7.269,
        3.267,
        -7.269,
        0,
        5.517,
        4.062,
        0,
        6.6,
        -1.74
      ]
    },
    {
      "Target": "Parameter",
      "Id": "Param22",
      "Segments": [
        0,
        -0.944,
        1,
        0.228,
        -0.944,
        0.455,
        -1.928,
        0.683,
        -2.607,
        1,
        1.105,
        -3.865,
        1.528,
        -4.168,
        1.95,
        -4.168,
        0,
        4.133,
        6.399,
        0,
        6.6,
        -0.944
      ]
    },
    {
      "Target": "Parameter",
      "Id": "Param23",
      "Segments": [
        0,
        -1.61,
        0,
        1.067,
        -2.823,
        0,
        3.017,
        -5.076,
        0,
        5.333,
        7.262,
        0,
        6.6,
        -1.61
      ]
    },
    {
      "Target": "Parameter",
      "Id": "Param76",
      "Segments": [
        0,
        -3,
        0,
        1.817,
        -9.189,
        0,
        3.65,
        5.896,
        0,
        6.6,
        -3
      ]
    },
    {
      "Target": "Parameter",
      "Id": "Param77",
      "Segments": [
        0,
        -1.921,
        1,
        0.106,
        -1.921,
        0.211,
        -1.985,
        0.317,
        -2.765,
        1,
        1.017,
        -7.938,
        1.717,
        -11.005,
        2.417,
        -11.005,
        0,
        4.467,
        8.256,
        0,
        6.6,
        -1.921
      ]
    },
    {
      "Target": "Parameter",
      "Id": "Param78",
      "Segments": [
        0,
        -1.611,
        1,
        0.2,
        -1.611,
        0.4,
        -1.177,
        0.6,
        -2,
        1,
        1.456,
        -5.521,
        2.311,
        -12.765,
        3.167,
        -12.765,
        0,
        5.067,
        9.147,
        0,
        6.6,
        -1.611
      ]
    },
    {
      "Target": "Parameter",
      "Id": "Param125",
      "Segments": [
        0,
        0,
        0,
        0.783,
        6,
        0,
        3.417,
        -3,
        0,
        4.917,
        2,
        0,
        6.6,
        0
      ]
    },
    {
      "Target": "Parameter",
      "Id": "Param79",
      "Segments": [
        0,
        2,
        0,
        1.983,
        -19,
        0,
        3.467,
        21,
        0,
        4.75,
        -12,
        0,
        6.6,
        2
      ]
    },
    {
      "Target": "Parameter",
      "Id": "Param80",
      "Segments": [
        0,
        2,
        0,
        2.417,
        -15,
        0,
        3.9,
        10,
        0,
        5.183,
        -2,
        0,
        6.6,
        2
      ]
    },
    {
      "Target": "Parameter",
      "Id": "Param81",
      "Segments": [
        0,
        -2,
        0,
        1.817,
        -5.095,
        0,
        3.983,
        7.877,
        0,
        6.6,
        -2
      ]
    },
    {
      "Target": "Parameter",
      "Id": "Param82",
      "Segments": [
        0,
        -1.778,
        1,
        0.1,
        -1.778,
        0.2,
        -1.695,
        0.3,
        -2,
        1,
        1.05,
        -4.289,
        1.8,
        -6,
        2.55,
        -6,
        0,
        4.85,
        8.978,
        0,
        6.6,
        -1.778
      ]
    },
    {
      "Target": "Parameter",
      "Id": "Param74",
      "Segments": [
        0,
        2,
        0,
        1.283,
        -14,
        0,
        3.367,
        10,
        0,
        4.85,
        -7,
        0,
        6.6,
        2
      ]
    },
    {
      "Target": "Parameter",
      "Id": "Param75",
      "Segments": [
        0,
        0.48,
        0,
        0.333,
        2,
        0,
        1.617,
        -17,
        0,
        3.7,
        16,
        0,
        5.183,
        -14,
        0,
        6.6,
        0.48
      ]
    },
    {
      "Target": "Parameter",
      "Id": "Param24",
      "Segments": [
        0,
        0.024,
        0,
        2.633,
        -3,
        0,
        4.85,
        3,
        0,
        6.6,
        0.024
      ]
    },
    {
      "Target": "Parameter",
      "Id": "Param25",
      "Segments": [
        0,
        0.509,
        1,
        0.2,
        0.509,
        0.4,
        0.581,
        0.6,
        -0.068,
        1,
        1.45,
        -2.825,
        2.3,
        -5,
        3.15,
        -5,
        0,
        5.367,
        3,
        0,
        6.6,
        0.509
      ]
    },
    {
      "Target": "Parameter",
      "Id": "Param26",
      "Segments": [
        0,
        0.794,
        1,
        0.367,
        0.794,
        0.733,
        0.868,
        1.1,
        -0.013,
        1,
        1.8,
        -1.694,
        2.5,
        -3.797,
        3.2,
        -3.797,
        0,
        5.15,
        3.969,
        0,
        6.6,
        0.794
      ]
    },
    {
      "Target": "Parameter",
      "Id": "Param8",
      "Segments": [
        0,
        6,
        1,
        0.267,
        6,
        0.533,
        -3.649,
        0.8,
        -5.34,
        1,
        1.039,
        -6.855,
        1.278,
        -6.565,
        1.517,
        -6.565,
        1,
        1.961,
        -6.565,
        2.406,
        0.574,
        2.85,
        8.488,
        1,
        3.017,
        11.456,
        3.183,
        11.352,
        3.35,
        11.352,
        1,
        3.622,
        11.352,
        3.895,
        6.466,
        4.167,
        1.436,
        1,
        4.484,
        -4.415,
        4.8,
        -5.86,
        5.117,
        -5.86,
        1,
        5.289,
        -5.86,
        5.461,
        -5.537,
        5.633,
        -2.93,
        1,
        5.955,
        1.948,
        6.278,
        6,
        6.6,
        6
      ]
    },
    {
      "Target": "Parameter",
      "Id": "Param9",
      "Segments": [
        0,
        8,
        0,
        0.6,
        8.527,
        0,
        2.033,
        -9.297,
        1,
        2.194,
        -9.297,
        2.356,
        -8.757,
        2.517,
        -7.115,
        1,
        2.906,
        -3.151,
        3.294,
        1.329,
        3.683,
        5.448,
        1,
        3.883,
        7.566,
        4.083,
        8.527,
        4.283,
        8.527,
        1,
        4.472,
        8.527,
        4.661,
        7.635,
        4.85,
        4.226,
        1,
        5.15,
        -1.188,
        5.45,
        -5.002,
        5.75,
        -5.002,
        0,
        6.6,
        8
      ]
    },
    {
      "Target": "Parameter",
      "Id": "Param11",
      "Segments": [
        0,
        -8,
        0,
        1.517,
        -10.23,
        0,
        3.35,
        9.713,
        0,
        5.217,
        -12.059,
        0,
        6.6,
        -8
      ]
    },
    {
      "Target": "Parameter",
      "Id": "Param10",
      "Segments": [
        0,
        1,
        0,
        1.617,
        -11.653,
        0,
        4.25,
        8.239,
        0,
        5.7,
        -1.321,
        0,
        6.6,
        1
      ]
    },
    {
      "Target": "Parameter",
      "Id": "Param12",
      "Segments": [
        0,
        0.5,
        0,
        0.417,
        1.609,
        0,
        2.15,
        -8.746,
        0,
        4.917,
        8.921,
        0,
        6.6,
        0.5
      ]
    },
    {
      "Target": "Parameter",
      "Id": "Param13",
      "Segments": [
        0,
        1.606,
        0,
        1.733,
        -0.769,
        0,
        4.05,
        7.165,
        0,
        5.867,
        -8.032,
        0,
        6.6,
        1.606
      ]
    },
    {
      "Target": "Parameter",
      "Id": "Param14",
      "Segments": [
        0,
        2.85,
        0,
        2.667,
        -9.949,
        0,
        4.95,
        8.301,
        0,
        6.6,
        2.85
      ]
    },
    {
      "Target": "Parameter",
      "Id": "Param27",
      "Segments": [
        0,
        2.874,
        0,
        0.083,
        3,
        0,
        1.817,
        -1.827,
        0,
        4.05,
        19.278,
        0,
        5.6,
        1.587,
        0,
        6.6,
        2.874
      ]
    },
    {
      "Target": "Parameter",
      "Id": "Param28",
      "Segments": [
        0,
        1.66,
        0,
        2.85,
        -5.759,
        0,
        5.117,
        11.44,
        0,
        6.6,
        1.66
      ]
    },
    {
      "Target": "Parameter",
      "Id": "Param34",
      "Segments": [
        0,
        4.11,
        0,
        0.8,
        0.909,
        1,
        1.211,
        -3.89,
        1.622,
        -9.375,
        2.033,
        -9.375,
        0,
        4.217,
        21.488,
        0,
        6.6,
        4.11
      ]
    },
    {
      "Target": "Parameter",
      "Id": "Param35",
      "Segments": [
        0,
        -3,
        0,
        1.55,
        -6.319,
        0,
        3.35,
        -3.532,
        0,
        5,
        9.672,
        0,
        5.783,
        4.081,
        0,
        6.6,
        -3
      ]
    },
    {
      "Target": "Parameter",
      "Id": "Param36",
      "Segments": [
        0,
        3,
        0,
        0.8,
        5.142,
        1,
        1.211,
        5.142,
        1.622,
        -2.493,
        2.033,
        -7.969,
        1,
        2.672,
        -16.479,
        3.311,
        -18.284,
        3.95,
        -18.284,
        0,
        5.483,
        14.134,
        0,
        6.6,
        3
      ]
    },
    {
      "Target": "Parameter",
      "Id": "Param29",
      "Segments": [
        0,
        -3,
        0,
        1.217,
        -15.337,
        1,
        1.617,
        -15.337,
        2.017,
        -12.16,
        2.417,
        -6.496,
        1,
        2.761,
        -1.619,
        3.106,
        2.187,
        3.45,
        7.503,
        1,
        3.778,
        12.561,
        4.105,
        16.399,
        4.433,
        16.399,
        0,
        5.417,
        7.503,
        0,
        6.6,
        -3
      ]
    },
    {
      "Target": "Parameter",
      "Id": "Param30",
      "Segments": [
        0,
        4,
        0,
        1.217,
        -8.706,
        1,
        1.617,
        -14.894,
        2.017,
        -16.073,
        2.417,
        -16.073,
        1,
        2.761,
        -16.073,
        3.106,
        -14.774,
        3.45,
        -9.443,
        1,
        3.717,
        -5.315,
        3.983,
        2.595,
        4.25,
        7.503,
        1,
        4.55,
        13.024,
        4.85,
        14.925,
        5.15,
        14.925,
        0,
        5.717,
        10.915,
        0,
        6.6,
        4
      ]
    },
    {
      "Target": "Parameter",
      "Id": "Param33",
      "Segments": [
        0,
        2.974,
        0,
        0.083,
        3,
        0,
        2.117,
        -14.6,
        0,
        4.55,
        7.503,
        0,
        6.6,
        2.974
      ]
    },
    {
      "Target": "Parameter",
      "Id": "Param31",
      "Segments": [
        0,
        3.32,
        1,
        0.167,
        3.32,
        0.333,
        3.255,
        0.5,
        1.218,
        1,
        1.211,
        -7.475,
        1.922,
        -13.383,
        2.633,
        -13.383,
        0,
        5.267,
        8.262,
        0,
        6.6,
        3.32
      ]
    },
    {
      "Target": "Parameter",
      "Id": "Param32",
      "Segments": [
        0,
        4.135,
        1,
        0.267,
        4.135,
        0.533,
        4.468,
        0.8,
        1.522,
        1,
        1.583,
        -7.131,
        2.367,
        -15.492,
        3.15,
        -15.492,
        0,
        5.667,
        10.298,
        0,
        6.6,
        4.135
      ]
    },
    {
      "Target": "Parameter",
      "Id": "Param7",
      "Segments": [
        0,
        0,
        0,
        6.6,
        0
      ]
    },
    {
      "Target": "Parameter",
      "Id": "ParamAngleY",
      "Segments": [
        0,
        0,
        0,
        6.6,
        0
      ]
    },
    {
      "Target": "Parameter",
      "Id": "ParamEyeBallX",
      "Segments": [
        0,
        0,
        0,
        6.6,
        0
      ]
    },
    {
      "Target": "Parameter",
      "Id": "ParamEyeBallY",
      "Segments": [
        0,
        0,
        0,
        6.6,
        0
      ]
    },
    {
      "Target": "Parameter",
      "Id": "Paramlian",
      "Segments": [
        0,
        10,
        0,
        6.6,
        10
      ]
    },
    {
      "Target": "Parameter",
      "Id": "ParamBodyAngleY",
      "Segments": [
        0,
        0,
        0,
        6.6,
        0
      ]
    },
    {
      "Target": "Parameter",
      "Id": "ParamBodyAngleZ",
      "Segments": [
        0,
        0,
        0,
        6.6,
        0
      ]
    },
    {
      "Target": "Parameter",
      "Id": "Param113",
      "Segments": [
        0,
        0,
        0,
        6.6,
        0
      ]
    },
    {
      "Target": "Parameter",
      "Id": "Param73",
      "Segments": [
        0,
        0,
        0,
        6.6,
        0
      ]
    },
    {
      "Target": "Parameter",
      "Id": "Param42",
      "Segments": [
        0,
        0,
        0,
        6.6,
        0
      ]
    },
    {
      "Target": "Parameter",
      "Id": "Param50",
      "Segments": [
        0,
        0,
        0,
        6.6,
        0
      ]
    },
    {
      "Target": "Parameter",
      "Id": "Param85",
      "Segments": [
        0,
        0,
        0,
        6.6,
        0
      ]
    },
    {
      "Target": "Parameter",
      "Id": "Param86",
      "Segments": [
        0,
        0,
        0,
        6.6,
        0
      ]
    },
    {
      "Target": "Parameter",
      "Id": "Param111",
      "Segments": [
        0,
        0,
        0,
        6.6,
        0
      ]
    },
    {
      "Target": "Parameter",
      "Id": "Param112",
      "Segments": [
        0,
        0,
        0,
        6.6,
        0
      ]
    },
    {
      "Target": "Parameter",
      "Id": "Param117",
      "Segments": [
        0,
        0,
        0,
        6.6,
        0
      ]
    },
    {
      "Target": "Parameter",
      "Id": "Param118",
      "Segments": [
        0,
        0,
        0,
        6.6,
        0
      ]
    },
    {
      "Target": "Parameter",
      "Id": "Param119",
      "Segments": [
        0,
        0,
        0,
        6.6,
        0
      ]
    },
    {
      "Target": "Parameter",
      "Id": "Param71",
      "Segments": [
        0,
        0,
        0,
        6.6,
        0
      ]
    },
    {
      "Target": "Parameter",
      "Id": "Param45",
      "Segments": [
        0,
        0,
        0,
        6.6,
        0
      ]
    },
    {
      "Target": "Parameter",
      "Id": "Param46",
      "Segments": [
        0,
        0,
        0,
        6.6,
        0
      ]
    },
    {
      "Target": "Parameter",
      "Id": "Param49",
      "Segments": [
        0,
        0,
        0,
        6.6,
        0
      ]
    },
    {
      "Target": "Parameter",
      "Id": "Param48",
      "Segments": [
        0,
        0,
        0,
        6.6,
        0
      ]
    },
    {
      "Target": "Parameter",
      "Id": "Param67",
      "Segments": [
        0,
        0,
        0,
        6.6,
        0
      ]
    },
    {
      "Target": "Parameter",
      "Id": "Param68",
      "Segments": [
        0,
        0,
        0,
        6.6,
        0
      ]
    },
    {
      "Target": "Parameter",
      "Id": "Param44",
      "Segments": [
        0,
        0,
        0,
        6.6,
        0
      ]
    },
    {
      "Target": "Parameter",
      "Id": "Param54",
      "Segments": [
        0,
        0,
        0,
        6.6,
        0
      ]
    },
    {
      "Target": "Parameter",
      "Id": "Param70",
      "Segments": [
        0,
        0,
        0,
        6.6,
        0
      ]
    },
    {
      "Target": "Parameter",
      "Id": "Param41",
      "Segments": [
        0,
        0,
        0,
        6.6,
        0
      ]
    },
    {
      "Target": "Parameter",
      "Id": "Param180",
      "Segments": [
        0,
        0,
        0,
        6.6,
        0
      ]
    },
    {
      "Target": "Parameter",
      "Id": "Param72",
      "Segments": [
        0,
        0,
        0,
        6.6,
        0
      ]
    },
    {
      "Target": "Parameter",
      "Id": "Param131",
      "Segments": [
        0,
        0,
        0,
        6.6,
        0
      ]
    },
    {
      "Target": "Parameter",
      "Id": "Param132",
      "Segments": [
        0,
        0,
        0,
        6.6,
        0
      ]
    },
    {
      "Target": "Parameter",
      "Id": "Param59",
      "Segments": [
        0,
        0,
        0,
        6.6,
        0
      ]
    },
    {
      "Target": "Parameter",
      "Id": "Param66",
      "Segments": [
        0,
        0,
        0,
        6.6,
        0
      ]
    },
    {
      "Target": "Parameter",
      "Id": "Param91",
      "Segments": [
        0,
        0,
        0,
        6.6,
        0
      ]
    },
    {
      "Target": "Parameter",
      "Id": "Param93",
      "Segments": [
        0,
        0,
        0,
        6.6,
        0
      ]
    },
    {
      "Target": "Parameter",
      "Id": "Param92",
      "Segments": [
        0,
        0,
        0,
        6.6,
        0
      ]
    },
    {
      "Target": "Parameter",
      "Id": "Param95",
      "Segments": [
        0,
        0,
        0,
        6.6,
        0
      ]
    },
    {
      "Target": "Parameter",
      "Id": "Param94",
      "Segments": [
        0,
        0,
        0,
        6.6,
        0
      ]
    },
    {
      "Target": "Parameter",
      "Id": "Param64",
      "Segments": [
        0,
        0,
        0,
        6.6,
        0
      ]
    },
    {
      "Target": "Parameter",
      "Id": "Param195",
      "Segments": [
        0,
        0,
        0,
        6.6,
        0
      ]
    },
    {
      "Target": "Parameter",
      "Id": "Param196",
      "Segments": [
        0,
        0,
        0,
        6.6,
        0
      ]
    },
    {
      "Target": "Parameter",
      "Id": "Param63",
      "Segments": [
        0,
        0,
        0,
        6.6,
        0
      ]
    },
    {
      "Target": "Parameter",
      "Id": "Param65",
      "Segments": [
        0,
        0,
        0,
        6.6,
        0
      ]
    },
    {
      "Target": "Parameter",
      "Id": "Param134",
      "Segments": [
        0,
        0,
        0,
        6.6,
        0
      ]
    },
    {
      "Target": "Parameter",
      "Id": "Param135",
      "Segments": [
        0,
        0,
        0,
        6.6,
        0
      ]
    },
    {
      "Target": "Parameter",
      "Id": "Param133",
      "Segments": [
        0,
        0,
        0,
        6.6,
        0
      ]
    },
    {
      "Target": "Parameter",
      "Id": "Param148",
      "Segments": [
        0,
        0,
        0,
        6.6,
        0
      ]
    },
    {
      "Target": "Parameter",
      "Id": "Param55",
      "Segments": [
        0,
        0,
        0,
        6.6,
        0
      ]
    },
    {
      "Target": "Parameter",
      "Id": "Param56",
      "Segments": [
        0,
        0,
        0,
        6.6,
        0
      ]
    },
    {
      "Target": "Parameter",
      "Id": "Param115",
      "Segments": [
        0,
        0,
        0,
        6.6,
        0
      ]
    },
    {
      "Target": "Parameter",
      "Id": "Param114",
      "Segments": [
        0,
        0,
        0,
        6.6,
        0
      ]
    },
    {
      "Target": "Parameter",
      "Id": "Param116",
      "Segments": [
        0,
        0,
        0,
        6.6,
        0
      ]
    },
    {
      "Target": "Parameter",
      "Id": "Param105",
      "Segments": [
        0,
        0,
        0,
        6.6,
        0
      ]
    },
    {
      "Target": "Parameter",
      "Id": "Param110",
      "Segments": [
        0,
        0,
        0,
        6.6,
        0
      ]
    },
    {
      "Target": "Parameter",
      "Id": "Param120",
      "Segments": [
        0,
        0,
        0,
        6.6,
        0
      ]
    },
    {
      "Target": "Parameter",
      "Id": "Param226",
      "Segments": [
        0,
        0,
        0,
        6.6,
        0
      ]
    },
    {
      "Target": "Parameter",
      "Id": "Param126",
      "Segments": [
        0,
        0,
        0,
        6.6,
        0
      ]
    },
    {
      "Target": "Parameter",
      "Id": "Param166",
      "Segments": [
        0,
        30,
        0,
        6.6,
        30
      ]
    },
    {
      "Target": "Parameter",
      "Id": "Param178",
      "Segments": [
        0,
        -20,
        0,
        6.6,
        -20
      ]
    },
    {
      "Target": "Parameter",
      "Id": "Param203",
      "Segments": [
        0,
        -10,
        0,
        6.6,
        -10
      ]
    },
    {
      "Target": "Parameter",
      "Id": "Param204",
      "Segments": [
        0,
        -15,
        0,
        6.6,
        -15
      ]
    },
    {
      "Target": "Parameter",
      "Id": "Param205",
      "Segments": [
        0,
        0,
        0,
        6.6,
        0
      ]
    },
    {
      "Target": "Parameter",
      "Id": "Param206",
      "Segments": [
        0,
        -12,
        0,
        6.6,
        -12
      ]
    },
    {
      "Target": "Parameter",
      "Id": "Param207",
      "Segments": [
        0,
        -10,
        0,
        6.6,
        -10
      ]
    },
    {
      "Target": "Parameter",
      "Id": "Param208",
      "Segments": [
        0,
        30,
        0,
        6.6,
        30
      ]
    },
    {
      "Target": "Parameter",
      "Id": "Param209",
      "Segments": [
        0,
        -11,
        0,
        6.6,
        -11
      ]
    },
    {
      "Target": "Parameter",
      "Id": "Param210",
      "Segments": [
        0,
        -0.1,
        0,
        6.6,
        -0.1
      ]
    },
    {
      "Target": "Parameter",
      "Id": "Param211",
      "Segments": [
        0,
        5.8,
        0,
        6.6,
        5.8
      ]
    },
    {
      "Target": "Parameter",
      "Id": "Param212",
      "Segments": [
        0,
        0,
        0,
        6.6,
        0
      ]
    },
    {
      "Target": "Parameter",
      "Id": "Param213",
      "Segments": [
        0,
        0,
        0,
        6.6,
        0
      ]
    },
    {
      "Target": "Parameter",
      "Id": "Param214",
      "Segments": [
        0,
        -2,
        0,
        6.6,
        -2
      ]
    },
    {
      "Target": "Parameter",
      "Id": "Param215",
      "Segments": [
        0,
        4,
        0,
        6.6,
        4
      ]
    },
    {
      "Target": "Parameter",
      "Id": "Param217",
      "Segments": [
        0,
        60,
        0,
        6.6,
        60
      ]
    },
    {
      "Target": "Parameter",
      "Id": "Param218",
      "Segments": [
        0,
        -30,
        0,
        6.6,
        -30
      ]
    },
    {
      "Target": "Parameter",
      "Id": "Param220",
      "Segments": [
        0,
        30,
        0,
        6.6,
        30
      ]
    },
    {
      "Target": "Parameter",
      "Id": "Param221",
      "Segments": [
        0,
        -30,
        0,
        6.6,
        -30
      ]
    },
    {
      "Target": "Parameter",
      "Id": "Param222",
      "Segments": [
        0,
        -30,
        0,
        6.6,
        -30
      ]
    },
    {
      "Target": "Parameter",
      "Id": "Param223",
      "Segments": [
        0,
        30,
        0,
        6.6,
        30
      ]
    },
    {
      "Target": "Parameter",
      "Id": "Param224",
      "Segments": [
        0,
        -30,
        0,
        6.6,
        -30
      ]
    },
    {
      "Target": "Parameter",
      "Id": "Param225",
      "Segments": [
        0,
        -30,
        0,
        6.6,
        -30
      ]
    },
    {
      "Target": "Parameter",
      "Id": "Param216",
      "Segments": [
        0,
        0,
        0,
        6.6,
        0
      ]
    },
    {
      "Target": "Parameter",
      "Id": "Param219",
      "Segments": [
        0,
        0,
        0,
        6.6,
        0
      ]
    },
    {
      "Target": "Parameter",
      "Id": "Param165",
      "Segments": [
        0,
        0,
        0,
        6.6,
        0
      ]
    },
    {
      "Target": "Parameter",
      "Id": "Param159",
      "Segments": [
        0,
        0,
        0,
        6.6,
        0
      ]
    },
    {
      "Target": "Parameter",
      "Id": "Param141",
      "Segments": [
        0,
        0,
        0,
        6.6,
        0
      ]
    },
    {
      "Target": "Parameter",
      "Id": "Param142",
      "Segments": [
        0,
        17,
        0,
        6.6,
        17
      ]
    },
    {
      "Target": "Parameter",
      "Id": "Param143",
      "Segments": [
        0,
        0,
        0,
        6.6,
        0
      ]
    },
    {
      "Target": "Parameter",
      "Id": "Param5",
      "Segments": [
        0,
        0,
        0,
        6.6,
        0
      ]
    },
    {
      "Target": "Parameter",
      "Id": "Param150",
      "Segments": [
        0,
        0,
        0,
        6.6,
        0
      ]
    },
    {
      "Target": "Parameter",
      "Id": "Param184",
      "Segments": [
        0,
        0,
        0,
        6.6,
        0
      ]
    },
    {
      "Target": "Parameter",
      "Id": "Param4",
      "Segments": [
        0,
        0,
        0,
        6.6,
        0
      ]
    },
    {
      "Target": "Parameter",
      "Id": "Param2",
      "Segments": [
        0,
        0,
        0,
        6.6,
        0
      ]
    },
    {
      "Target": "Parameter",
      "Id": "Param123",
      "Segments": [
        0,
        0,
        0,
        6.6,
        0
      ]
    }
  ],
  "UserData": [
    {
      "Time": 0.0,
      "Value": ""
    }
  ]
}