{
  "Version": 3,
  "Meta": {
    "Duration": 10.667,
    "Fps": 30.0,
    "Loop": true,
    "AreBeziersRestricted": true,
    "CurveCount": 205,
    "TotalSegmentCount": 928,
    "TotalPointCount": 1640,
    "UserDataCount": 1,
    "TotalUserDataSize": 0
  },
  "Curves": [
    {
      "Target": "Parameter",
      "Id": "ParamEyeLOpen",
      "Segments": [
        0,
        1,
        2,
        5.233,
        1,
        0,
        5.4,
        0,
        2,
        5.5,
        0,
        0,
        5.667,
        1,
        2,
        9.4,
        1,
        0,
        9.567,
        0,
        2,
        9.667,
        0,
        0,
        9.833,
        1,
        2,
        10.667,
        1
      ]
    },
    {
      "Target": "Parameter",
      "Id": "ParamEyeROpen",
      "Segments": [
        0,
        1,
        2,
        5.233,
        1,
        0,
        5.4,
        0,
        2,
        5.5,
        0,
        0,
        5.667,
        1,
        2,
        9.4,
        1,
        0,
        9.567,
        0,
        2,
        9.667,
        0,
        0,
        9.833,
        1,
        2,
        10.667,
        1
      ]
    },
    {
      "Target": "Parameter",
      "Id": "ParamAngleX",
      "Segments": [
        0,
        0,
        1,
        0.267,
        0,
        0.533,
        0.146,
        0.8,
        -0.982,
        1,
        1.1,
        -2.251,
        1.4,
        -6.451,
        1.7,
        -6.451,
        1,
        2.167,
        -6.451,
        2.633,
        -6.144,
        3.1,
        -4.553,
        1,
        3.389,
        -3.568,
        3.678,
        -3.294,
        3.967,
        -2.012,
        1,
        5.922,
        -0.673,
        7.878,
        -2.012,
        9.833,
        -2.012,
        0,
        10.667,
        0
      ]
    },
    {
      "Target": "Parameter",
      "Id": "ParamAngleY",
      "Segments": [
        0,
        0,
        1,
        0.322,
        0,
        0.645,
        0.177,
        0.967,
        1.118,
        1,
        1.145,
        1.637,
        1.322,
        2.605,
        1.5,
        2.605,
        1,
        1.689,
        2.605,
        1.878,
        -1.79,
        2.067,
        -2.776,
        1,
        2.234,
        -3.645,
        2.4,
        -3.501,
        2.567,
        -3.501,
        1,
        3.356,
        -3.13,
        4.144,
        -0.732,
        4.933,
        -0.216,
        1,
        6.2,
        0.338,
        7.466,
        0.582,
        8.733,
        0.582,
        0,
        10.667,
        0
      ]
    },
    {
      "Target": "Parameter",
      "Id": "ParamAngleZ",
      "Segments": [
        0,
        0,
        2,
        1.333,
        0,
        2,
        2.667,
        0,
        2,
        4,
        0,
        1,
        6.222,
        -0.036,
        8.445,
        0,
        10.667,
        0
      ]
    },
    {
      "Target": "Parameter",
      "Id": "Param",
      "Segments": [
        0,
        0,
        2,
        1.333,
        0,
        2,
        2.667,
        0,
        0,
        4,
        0.12,
        1,
        6.222,
        0.173,
        8.445,
        0,
        10.667,
        0
      ]
    },
    {
      "Target": "Parameter",
      "Id": "Param4",
      "Segments": [
        0,
        0,
        0,
        1.367,
        1.559,
        1,
        1.645,
        1.559,
        1.922,
        1.338,
        2.2,
        0,
        1,
        2.3,
        -0.661,
        2.4,
        -3.459,
        2.5,
        -4.125,
        1,
        2.656,
        -4.897,
        2.811,
        0.03,
        2.967,
        0.865,
        1,
        3.456,
        2.563,
        3.944,
        0.006,
        4.433,
        0.006,
        0,
        5.3,
        0.482,
        1,
        5.667,
        0.482,
        6.033,
        0.507,
        6.4,
        0.166,
        1,
        6.844,
        -0.314,
        7.289,
        -1.09,
        7.733,
        -1.102,
        0,
        8.867,
        1.27,
        0,
        10.667,
        0
      ]
    },
    {
      "Target": "Parameter",
      "Id": "Param3",
      "Segments": [
        0,
        0,
        1,
        0.4,
        0,
        0.8,
        2.395,
        1.2,
        2.746,
        1,
        1.722,
        3.314,
        2.245,
        1.129,
        2.767,
        0,
        1,
        3.122,
        -0.728,
        3.478,
        -0.679,
        3.833,
        -0.679,
        1,
        4.422,
        -0.679,
        5.011,
        0.447,
        5.6,
        0.575,
        1,
        6.278,
        0.72,
        6.955,
        -0.845,
        7.633,
        -0.969,
        1,
        8.2,
        -1.071,
        8.766,
        0.575,
        9.333,
        0.575,
        0,
        10.667,
        0
      ]
    },
    {
      "Target": "Parameter",
      "Id": "ParamBodyAngleX",
      "Segments": [
        0,
        0,
        0,
        1.133,
        -0.503,
        1,
        1.578,
        -0.503,
        2.022,
        -0.203,
        2.467,
        -0.074,
        1,
        4.678,
        0.396,
        6.889,
        -0.681,
        9.1,
        0,
        1,
        9.622,
        0.145,
        10.145,
        0,
        10.667,
        0
      ]
    },
    {
      "Target": "Parameter",
      "Id": "ParamBreath",
      "Segments": [
        0,
        0,
        1,
        0.144,
        0,
        0.289,
        -0,
        0.433,
        0.078,
        1,
        0.644,
        0.236,
        0.856,
        0.44,
        1.067,
        0.552,
        1,
        1.245,
        0.62,
        1.422,
        0.615,
        1.6,
        0.552,
        1,
        1.956,
        0.396,
        2.311,
        0,
        2.667,
        0,
        1,
        2.811,
        0,
        2.956,
        0.027,
        3.1,
        0.078,
        1,
        3.311,
        0.236,
        3.522,
        0.44,
        3.733,
        0.552,
        1,
        3.911,
        0.62,
        4.089,
        0.615,
        4.267,
        0.552,
        1,
        4.622,
        0.344,
        4.978,
        -0,
        5.333,
        0,
        1,
        5.478,
        0,
        5.622,
        0.034,
        5.767,
        0.078,
        1,
        5.978,
        0.236,
        6.189,
        0.44,
        6.4,
        0.552,
        1,
        6.578,
        0.62,
        6.755,
        0.615,
        6.933,
        0.552,
        1,
        7.289,
        0.344,
        7.644,
        0,
        8,
        0,
        1,
        8.144,
        0,
        8.289,
        0.032,
        8.433,
        0.078,
        1,
        8.644,
        0.236,
        8.856,
        0.44,
        9.067,
        0.552,
        1,
        9.245,
        0.62,
        9.422,
        0.615,
        9.6,
        0.552,
        1,
        9.956,
        0.344,
        10.311,
        -0,
        10.667,
        0
      ]
    },
    {
      "Target": "Parameter",
      "Id": "Param151",
      "Segments": [
        0,
        0,
        2,
        2.067,
        0,
        0,
        2.4,
        4,
        0,
        2.667,
        0,
        2,
        6.633,
        0,
        0,
        7.267,
        1.722,
        0,
        8,
        0,
        2,
        10.667,
        0
      ]
    },
    {
      "Target": "Parameter",
      "Id": "Param2",
      "Segments": [
        0,
        0,
        1,
        0.444,
        0,
        0.889,
        -1.218,
        1.333,
        -2,
        1,
        1.855,
        -2.919,
        2.378,
        -3.02,
        2.9,
        -3.02,
        0,
        4.967,
        -0.635,
        0,
        6.667,
        -2,
        0,
        8,
        0,
        0,
        9.333,
        -1.159,
        0,
        10.667,
        0
      ]
    },
    {
      "Target": "Parameter",
      "Id": "Param5",
      "Segments": [
        0,
        0,
        1,
        0.489,
        0,
        0.978,
        4.148,
        1.467,
        7,
        1,
        1.989,
        10.047,
        2.511,
        10.36,
        3.033,
        10.36,
        0,
        5.233,
        3.211,
        0,
        6.867,
        4.779,
        0,
        8,
        0,
        0,
        9.367,
        3.211,
        0,
        10.667,
        0
      ]
    },
    {
      "Target": "Parameter",
      "Id": "Param147",
      "Segments": [
        0,
        0,
        0,
        1.9,
        -17,
        0,
        3.1,
        25,
        0,
        4.7,
        -8,
        0,
        6.533,
        10.849,
        0,
        8.2,
        -3.1,
        0,
        10.667,
        0
      ]
    },
    {
      "Target": "Parameter",
      "Id": "Param73",
      "Segments": [
        0,
        0,
        2,
        1.333,
        0,
        2,
        2,
        0,
        1,
        2.089,
        0,
        2.178,
        2.957,
        2.267,
        6.142,
        1,
        2.389,
        8.065,
        2.511,
        0,
        2.633,
        0,
        2,
        4,
        0,
        2,
        5.333,
        0,
        1,
        5.778,
        0,
        6.222,
        0.006,
        6.667,
        0.042,
        1,
        6.789,
        0.052,
        6.911,
        3.804,
        7.033,
        4.861,
        1,
        7.1,
        5.438,
        7.166,
        5.398,
        7.233,
        5.398,
        1,
        7.389,
        5.398,
        7.544,
        0.056,
        7.7,
        0.045,
        1,
        8.244,
        0.006,
        8.789,
        0,
        9.333,
        0,
        2,
        10.667,
        0
      ]
    },
    {
      "Target": "Parameter",
      "Id": "Param74",
      "Segments": [
        0,
        0,
        2,
        1.333,
        0,
        2,
        2,
        0,
        1,
        2.089,
        0,
        2.178,
        2.824,
        2.267,
        6.162,
        1,
        2.389,
        8.333,
        2.511,
        0,
        2.633,
        0,
        2,
        4,
        0,
        2,
        5.333,
        0,
        1,
        5.778,
        0,
        6.222,
        0.006,
        6.667,
        0.042,
        1,
        6.789,
        0.052,
        6.911,
        3.664,
        7.033,
        4.68,
        1,
        7.1,
        5.234,
        7.166,
        5.194,
        7.233,
        5.194,
        1,
        7.389,
        5.194,
        7.544,
        0.056,
        7.7,
        0.045,
        1,
        8.244,
        0.006,
        8.789,
        0,
        9.333,
        0,
        2,
        10.667,
        0
      ]
    },
    {
      "Target": "Parameter",
      "Id": "Param10",
      "Segments": [
        0,
        6.834,
        0,
        0.067,
        6.95,
        0,
        1.333,
        -10.509,
        0,
        2.367,
        6.834,
        0,
        4,
        -10.509,
        1,
        4.444,
        -10.509,
        4.889,
        -1.767,
        5.333,
        6.834,
        1,
        5.355,
        7.264,
        5.378,
        6.95,
        5.4,
        6.95,
        0,
        6.667,
        -10.509,
        1,
        7.111,
        -10.509,
        7.556,
        -1.767,
        8,
        6.834,
        1,
        8.022,
        7.264,
        8.045,
        6.95,
        8.067,
        6.95,
        0,
        9.333,
        -10.509,
        0,
        10.667,
        6.834
      ]
    },
    {
      "Target": "Parameter",
      "Id": "Param6",
      "Segments": [
        0,
        -1.095,
        0,
        0.3,
        0,
        0,
        1.667,
        -8.089,
        1,
        1.9,
        -8.089,
        2.134,
        -3.437,
        2.367,
        -1.095,
        1,
        2.5,
        0.243,
        2.634,
        0,
        2.767,
        0,
        0,
        4.333,
        -8.089,
        1,
        4.666,
        -8.089,
        5,
        -4.931,
        5.333,
        -1.095,
        1,
        5.433,
        0.056,
        5.533,
        0,
        5.633,
        0,
        0,
        7,
        -8.089,
        1,
        7.333,
        -8.089,
        7.667,
        -4.931,
        8,
        -1.095,
        1,
        8.1,
        0.056,
        8.2,
        0,
        8.3,
        0,
        0,
        9.667,
        -8.089,
        0,
        10.667,
        -1.095
      ]
    },
    {
      "Target": "Parameter",
      "Id": "Param8",
      "Segments": [
        0,
        -2.485,
        0,
        0.433,
        0,
        0,
        1.767,
        -10,
        1,
        1.967,
        -10,
        2.167,
        -5.796,
        2.367,
        -2.485,
        1,
        2.511,
        -0.094,
        2.656,
        0,
        2.8,
        0,
        0,
        4.433,
        -10,
        1,
        4.733,
        -10,
        5.033,
        -6.84,
        5.333,
        -2.485,
        1,
        5.478,
        -0.388,
        5.622,
        0,
        5.767,
        0,
        0,
        7.1,
        -10,
        1,
        7.4,
        -10,
        7.7,
        -6.84,
        8,
        -2.485,
        1,
        8.144,
        -0.388,
        8.289,
        0,
        8.433,
        0,
        0,
        9.767,
        -10,
        0,
        10.667,
        -2.485
      ]
    },
    {
      "Target": "Parameter",
      "Id": "Param7",
      "Segments": [
        0,
        -0.339,
        0,
        0.167,
        0,
        0,
        1.533,
        -7.491,
        1,
        1.811,
        -7.491,
        2.089,
        -2.968,
        2.367,
        -0.339,
        1,
        2.434,
        0.292,
        2.5,
        0,
        2.567,
        0,
        0,
        4.2,
        -7.491,
        1,
        4.578,
        -7.491,
        4.955,
        -4.075,
        5.333,
        -0.339,
        1,
        5.389,
        0.21,
        5.444,
        0,
        5.5,
        0,
        0,
        6.867,
        -7.491,
        1,
        7.245,
        -7.491,
        7.622,
        -4.075,
        8,
        -0.339,
        1,
        8.056,
        0.21,
        8.111,
        0,
        8.167,
        0,
        0,
        9.533,
        -7.491,
        0,
        10.667,
        -0.339
      ]
    },
    {
      "Target": "Parameter",
      "Id": "Param9",
      "Segments": [
        0,
        2.715,
        0,
        0.333,
        0,
        0,
        1.633,
        18.133,
        1,
        1.878,
        18.133,
        2.122,
        8.007,
        2.367,
        2.715,
        1,
        2.511,
        -0.412,
        2.656,
        0,
        2.8,
        0,
        0,
        4.3,
        18.133,
        1,
        4.644,
        18.133,
        4.989,
        11.186,
        5.333,
        2.715,
        1,
        5.444,
        -0.018,
        5.556,
        0,
        5.667,
        0,
        0,
        6.967,
        18.133,
        1,
        7.311,
        18.133,
        7.656,
        11.186,
        8,
        2.715,
        1,
        8.111,
        -0.018,
        8.222,
        0,
        8.333,
        0,
        0,
        9.633,
        18.133,
        0,
        10.667,
        2.715
      ]
    },
    {
      "Target": "Parameter",
      "Id": "Param11",
      "Segments": [
        0,
        -0.013,
        0,
        0.267,
        1.106,
        0,
        1.6,
        -9.634,
        1,
        1.856,
        -9.634,
        2.111,
        -3.788,
        2.367,
        -0.013,
        1,
        2.467,
        1.464,
        2.567,
        1.106,
        2.667,
        1.106,
        0,
        4.267,
        -9.634,
        1,
        4.622,
        -9.634,
        4.978,
        -5.196,
        5.333,
        -0.013,
        1,
        5.422,
        1.283,
        5.511,
        1.106,
        5.6,
        1.106,
        0,
        6.933,
        -9.634,
        1,
        7.289,
        -9.634,
        7.644,
        -5.196,
        8,
        -0.013,
        1,
        8.089,
        1.283,
        8.178,
        1.106,
        8.267,
        1.106,
        0,
        9.6,
        -9.634,
        0,
        10.667,
        -0.013
      ]
    },
    {
      "Target": "Parameter",
      "Id": "Param12",
      "Segments": [
        0,
        -5.055,
        0,
        0.5,
        -11,
        0,
        1.867,
        7.004,
        1,
        2.034,
        7.004,
        2.2,
        0.168,
        2.367,
        -5.055,
        1,
        2.534,
        -10.278,
        2.7,
        -11,
        2.867,
        -11,
        0,
        4.533,
        7.004,
        1,
        4.8,
        7.004,
        5.066,
        2.221,
        5.333,
        -5.055,
        1,
        5.5,
        -9.603,
        5.666,
        -11,
        5.833,
        -11,
        0,
        7.2,
        7.004,
        1,
        7.467,
        7.004,
        7.733,
        2.221,
        8,
        -5.055,
        1,
        8.167,
        -9.603,
        8.333,
        -11,
        8.5,
        -11,
        0,
        9.867,
        7.004,
        0,
        10.667,
        -5.055
      ]
    },
    {
      "Target": "Parameter",
      "Id": "Param13",
      "Segments": [
        0,
        0,
        0,
        1.3,
        -10.627,
        0,
        2.367,
        0,
        0,
        3.967,
        -10.627,
        0,
        5.333,
        0,
        0,
        6.633,
        -10.627,
        0,
        8,
        0,
        0,
        9.3,
        -10.627,
        0,
        10.667,
        0
      ]
    },
    {
      "Target": "Parameter",
      "Id": "Param14",
      "Segments": [
        0,
        0,
        0,
        1.333,
        10.096,
        0,
        2.367,
        0,
        0,
        4,
        10.096,
        0,
        5.333,
        0,
        0,
        6.667,
        10.096,
        0,
        8,
        0,
        0,
        9.333,
        10.096,
        0,
        10.667,
        0
      ]
    },
    {
      "Target": "Parameter",
      "Id": "Param15",
      "Segments": [
        0,
        0,
        2,
        2,
        0,
        1,
        2.089,
        -0.061,
        2.178,
        -0.222,
        2.267,
        -0.827,
        1,
        2.389,
        -1.368,
        2.511,
        -0.216,
        2.633,
        0,
        1,
        2.722,
        0.16,
        2.811,
        -0.037,
        2.9,
        -0.142,
        1,
        3.044,
        -0.336,
        3.189,
        0,
        3.333,
        0,
        2,
        6.5,
        0,
        2,
        7.6,
        0,
        0,
        8.633,
        0.72,
        1,
        9.022,
        0.72,
        9.411,
        0.505,
        9.8,
        0.24,
        1,
        10.089,
        0.043,
        10.378,
        0,
        10.667,
        0
      ]
    },
    {
      "Target": "Parameter",
      "Id": "Param16",
      "Segments": [
        0,
        0,
        2,
        2,
        0,
        1,
        2.211,
        0,
        2.422,
        1.087,
        2.633,
        1.528,
        1,
        2.833,
        1.841,
        3.033,
        1.92,
        3.233,
        1.92,
        1,
        4.322,
        1.991,
        5.411,
        1.92,
        6.5,
        1.92,
        0,
        7.6,
        0,
        0,
        8.7,
        0.241,
        1,
        9.067,
        0.241,
        9.433,
        0.209,
        9.8,
        0.12,
        1,
        10.089,
        0.05,
        10.378,
        -0,
        10.667,
        0
      ]
    },
    {
      "Target": "Parameter",
      "Id": "Param18",
      "Segments": [
        0,
        0,
        0,
        0.933,
        -6.214,
        0,
        2,
        5.224,
        0,
        3.067,
        -6.214,
        1,
        3.467,
        -6.253,
        3.867,
        4.252,
        4.267,
        4.605,
        0,
        5.467,
        -6.214,
        0,
        6.533,
        5.224,
        0,
        7.633,
        -6.214,
        0,
        8.667,
        5.224,
        0,
        9.967,
        -6.214,
        0,
        10.667,
        0
      ]
    },
    {
      "Target": "Parameter",
      "Id": "Param150",
      "Segments": [
        0,
        0,
        2,
        0.9,
        0,
        0,
        1.933,
        25,
        0,
        2.533,
        -30,
        0,
        3,
        13,
        1,
        3.644,
        13,
        4.289,
        12.994,
        4.933,
        11,
        1,
        5.322,
        9.796,
        5.711,
        -1.497,
        6.1,
        -11,
        1,
        6.4,
        -18.331,
        6.7,
        -30,
        7,
        -30,
        0,
        7.533,
        7,
        0,
        8.833,
        -2,
        0,
        10.667,
        0
      ]
    },
    {
      "Target": "Parameter",
      "Id": "Param19",
      "Segments": [
        0,
        0,
        2,
        2,
        0,
        1,
        2.089,
        0,
        2.178,
        -0.438,
        2.267,
        -1.07,
        1,
        2.389,
        -1.958,
        2.511,
        -0.279,
        2.633,
        0,
        1,
        2.733,
        0.136,
        2.833,
        -0.084,
        2.933,
        -0.27,
        1,
        3.066,
        -0.564,
        3.2,
        0,
        3.333,
        0,
        2,
        6.5,
        0,
        2,
        7.6,
        0,
        0,
        8.633,
        1.2,
        1,
        9.022,
        1.2,
        9.411,
        0.276,
        9.8,
        0.098,
        1,
        10.089,
        -0.034,
        10.378,
        0,
        10.667,
        0
      ]
    },
    {
      "Target": "Parameter",
      "Id": "Param20",
      "Segments": [
        0,
        0,
        2,
        2,
        0,
        1,
        2.1,
        0,
        2.2,
        -0.102,
        2.3,
        -0.309,
        1,
        2.411,
        -0.539,
        2.522,
        -0.917,
        2.633,
        -1,
        1,
        2.866,
        -1.174,
        3.1,
        -1.2,
        3.333,
        -1.2,
        2,
        6.5,
        -1.2,
        0,
        7.6,
        0,
        0,
        8.7,
        -0.252,
        1,
        9.067,
        -0.252,
        9.433,
        -0.154,
        9.8,
        -0.071,
        1,
        10.089,
        -0.005,
        10.378,
        0,
        10.667,
        0
      ]
    },
    {
      "Target": "Parameter",
      "Id": "Param22",
      "Segments": [
        0,
        0,
        0,
        1.367,
        14,
        0,
        2.6,
        -13,
        0,
        4.5,
        11.357,
        0,
        6.1,
        -12,
        0,
        8.2,
        11.357,
        0,
        10.667,
        0
      ]
    },
    {
      "Target": "Parameter",
      "Id": "Param148",
      "Segments": [
        0,
        0,
        0,
        1.233,
        9,
        0,
        1.867,
        -10,
        1,
        2.089,
        -10,
        2.311,
        -8.431,
        2.533,
        -1,
        1,
        2.755,
        6.431,
        2.978,
        14,
        3.2,
        14,
        0,
        4.167,
        -1,
        1,
        4.534,
        -1,
        4.9,
        -0.548,
        5.267,
        2,
        1,
        5.6,
        4.317,
        5.934,
        8.667,
        6.267,
        12,
        1,
        6.8,
        17.333,
        7.334,
        20,
        7.867,
        20,
        1,
        8.267,
        20,
        8.667,
        1.844,
        9.067,
        1,
        1,
        9.6,
        -0.125,
        10.134,
        0,
        10.667,
        0
      ]
    },
    {
      "Target": "Parameter",
      "Id": "Param149",
      "Segments": [
        0,
        0,
        0,
        1.233,
        24,
        0,
        1.867,
        -9,
        1,
        2.089,
        -9,
        2.311,
        -8.593,
        2.533,
        0,
        1,
        2.755,
        8.593,
        2.978,
        26,
        3.2,
        26,
        0,
        4.167,
        -7,
        0,
        5.267,
        5,
        0,
        6.9,
        -10,
        1,
        7.222,
        -10,
        7.545,
        -8.715,
        7.867,
        -2,
        1,
        8.267,
        6.336,
        8.667,
        14,
        9.067,
        14,
        0,
        10.667,
        0
      ]
    },
    {
      "Target": "Parameter",
      "Id": "Param23",
      "Segments": [
        0,
        0,
        0,
        1.367,
        -4.32,
        0,
        2.667,
        0,
        0,
        4.033,
        -4.32,
        0,
        5.333,
        0,
        0,
        6.7,
        -4.32,
        0,
        8,
        0,
        0,
        9.367,
        -4.32,
        0,
        10.667,
        0
      ]
    },
    {
      "Target": "Parameter",
      "Id": "Param24",
      "Segments": [
        0,
        -0.294,
        0,
        0.133,
        0,
        0,
        1.5,
        -10,
        1,
        1.889,
        -10,
        2.278,
        -5.282,
        2.667,
        -0.294,
        1,
        2.711,
        0.276,
        2.756,
        0,
        2.8,
        0,
        0,
        4.167,
        -10,
        1,
        4.556,
        -10,
        4.944,
        -5.282,
        5.333,
        -0.294,
        1,
        5.378,
        0.276,
        5.422,
        0,
        5.467,
        0,
        0,
        6.833,
        -10,
        1,
        7.222,
        -10,
        7.611,
        -5.282,
        8,
        -0.294,
        1,
        8.044,
        0.276,
        8.089,
        0,
        8.133,
        0,
        0,
        9.5,
        -10,
        0,
        10.667,
        -0.294
      ]
    },
    {
      "Target": "Parameter",
      "Id": "Param25",
      "Segments": [
        0,
        -0.781,
        0,
        0.367,
        0,
        0,
        1.767,
        -3.85,
        1,
        2.067,
        -3.85,
        2.367,
        -2.523,
        2.667,
        -0.781,
        1,
        2.789,
        -0.071,
        2.911,
        0,
        3.033,
        0,
        0,
        4.433,
        -3.85,
        1,
        4.733,
        -3.85,
        5.033,
        -2.523,
        5.333,
        -0.781,
        1,
        5.455,
        -0.071,
        5.578,
        0,
        5.7,
        0,
        0,
        7.1,
        -3.85,
        1,
        7.4,
        -3.85,
        7.7,
        -2.523,
        8,
        -0.781,
        1,
        8.122,
        -0.071,
        8.245,
        0,
        8.367,
        0,
        0,
        9.767,
        -3.85,
        0,
        10.667,
        -0.781
      ]
    },
    {
      "Target": "Parameter",
      "Id": "Param26",
      "Segments": [
        0,
        -2.933,
        0,
        0.533,
        0,
        0,
        1.9,
        -8,
        1,
        2.156,
        -8,
        2.411,
        -6.052,
        2.667,
        -2.933,
        1,
        2.845,
        -0.764,
        3.022,
        0,
        3.2,
        0,
        0,
        4.567,
        -8,
        1,
        4.822,
        -8,
        5.078,
        -6.052,
        5.333,
        -2.933,
        1,
        5.511,
        -0.764,
        5.689,
        0,
        5.867,
        0,
        0,
        7.233,
        -8,
        1,
        7.489,
        -8,
        7.744,
        -6.052,
        8,
        -2.933,
        1,
        8.178,
        -0.764,
        8.355,
        0,
        8.533,
        0,
        0,
        9.9,
        -8,
        0,
        10.667,
        -2.933
      ]
    },
    {
      "Target": "Parameter",
      "Id": "Param27",
      "Segments": [
        0,
        -0.109,
        0,
        0.133,
        0,
        0,
        1.5,
        -3.72,
        1,
        1.889,
        -3.72,
        2.278,
        -1.978,
        2.667,
        -0.109,
        1,
        2.711,
        0.105,
        2.756,
        0,
        2.8,
        0,
        0,
        4.167,
        -3.72,
        1,
        4.556,
        -3.72,
        4.944,
        -1.978,
        5.333,
        -0.109,
        1,
        5.378,
        0.105,
        5.422,
        0,
        5.467,
        0,
        0,
        6.833,
        -3.72,
        1,
        7.222,
        -3.72,
        7.611,
        -1.978,
        8,
        -0.109,
        1,
        8.044,
        0.105,
        8.089,
        0,
        8.133,
        0,
        0,
        9.5,
        -3.72,
        0,
        10.667,
        -0.109
      ]
    },
    {
      "Target": "Parameter",
      "Id": "Param28",
      "Segments": [
        0,
        -0.512,
        0,
        0.233,
        0,
        0,
        1.6,
        -6,
        1,
        1.956,
        -6,
        2.311,
        -3.451,
        2.667,
        -0.512,
        1,
        2.745,
        0.131,
        2.822,
        0,
        2.9,
        0,
        0,
        4.267,
        -6,
        1,
        4.622,
        -6,
        4.978,
        -3.451,
        5.333,
        -0.512,
        1,
        5.411,
        0.131,
        5.489,
        0,
        5.567,
        0,
        0,
        6.933,
        -6,
        1,
        7.289,
        -6,
        7.644,
        -3.451,
        8,
        -0.512,
        1,
        8.078,
        0.131,
        8.155,
        0,
        8.233,
        0,
        0,
        9.6,
        -6,
        0,
        10.667,
        -0.512
      ]
    },
    {
      "Target": "Parameter",
      "Id": "Param29",
      "Segments": [
        0,
        -1.002,
        0,
        0.4,
        0,
        0,
        1.767,
        -4.44,
        1,
        2.067,
        -4.44,
        2.367,
        -2.974,
        2.667,
        -1.002,
        1,
        2.8,
        -0.126,
        2.934,
        0,
        3.067,
        0,
        0,
        4.433,
        -4.44,
        1,
        4.733,
        -4.44,
        5.033,
        -2.974,
        5.333,
        -1.002,
        1,
        5.466,
        -0.126,
        5.6,
        0,
        5.733,
        0,
        0,
        7.1,
        -4.44,
        1,
        7.4,
        -4.44,
        7.7,
        -2.974,
        8,
        -1.002,
        1,
        8.133,
        -0.126,
        8.267,
        0,
        8.4,
        0,
        0,
        9.767,
        -4.44,
        0,
        10.667,
        -1.002
      ]
    },
    {
      "Target": "Parameter",
      "Id": "Param30",
      "Segments": [
        0,
        -2.972,
        0,
        0.5,
        0,
        0,
        1.867,
        -9,
        1,
        2.134,
        -9,
        2.4,
        -6.613,
        2.667,
        -2.972,
        1,
        2.834,
        -0.696,
        3,
        0,
        3.167,
        0,
        0,
        4.533,
        -9,
        1,
        4.8,
        -9,
        5.066,
        -6.613,
        5.333,
        -2.972,
        1,
        5.5,
        -0.696,
        5.666,
        0,
        5.833,
        0,
        0,
        7.2,
        -9,
        1,
        7.467,
        -9,
        7.733,
        -6.613,
        8,
        -2.972,
        1,
        8.167,
        -0.696,
        8.333,
        0,
        8.5,
        0,
        0,
        9.867,
        -9,
        0,
        10.667,
        -2.972
      ]
    },
    {
      "Target": "Parameter",
      "Id": "Param31",
      "Segments": [
        0,
        -0.233,
        0,
        0.167,
        0,
        0,
        1.533,
        -5.16,
        1,
        1.911,
        -5.16,
        2.289,
        -2.812,
        2.667,
        -0.233,
        1,
        2.722,
        0.146,
        2.778,
        0,
        2.833,
        0,
        0,
        4.2,
        -5.16,
        1,
        4.578,
        -5.16,
        4.955,
        -2.812,
        5.333,
        -0.233,
        1,
        5.389,
        0.146,
        5.444,
        0,
        5.5,
        0,
        0,
        6.867,
        -5.16,
        1,
        7.245,
        -5.16,
        7.622,
        -2.812,
        8,
        -0.233,
        1,
        8.056,
        0.146,
        8.111,
        0,
        8.167,
        0,
        0,
        9.533,
        -5.16,
        0,
        10.667,
        -0.233
      ]
    },
    {
      "Target": "Parameter",
      "Id": "Param32",
      "Segments": [
        0,
        -1.354,
        0,
        0.3,
        0,
        0,
        1.667,
        -10,
        1,
        2,
        -10,
        2.334,
        -6.09,
        2.667,
        -1.354,
        1,
        2.767,
        0.067,
        2.867,
        0,
        2.967,
        0,
        0,
        4.333,
        -10,
        1,
        4.666,
        -10,
        5,
        -6.09,
        5.333,
        -1.354,
        1,
        5.433,
        0.067,
        5.533,
        0,
        5.633,
        0,
        0,
        7,
        -10,
        1,
        7.333,
        -10,
        7.667,
        -6.09,
        8,
        -1.354,
        1,
        8.1,
        0.067,
        8.2,
        0,
        8.3,
        0,
        0,
        9.667,
        -10,
        0,
        10.667,
        -1.354
      ]
    },
    {
      "Target": "Parameter",
      "Id": "Param197",
      "Segments": [
        0,
        0,
        0,
        1.7,
        -4,
        0,
        2.9,
        4,
        0,
        4.3,
        -2,
        0,
        5.5,
        1,
        0,
        7,
        -3,
        0,
        8.1,
        2,
        0,
        9.6,
        -3,
        0,
        10.667,
        0
      ]
    },
    {
      "Target": "Parameter",
      "Id": "Param198",
      "Segments": [
        0,
        0,
        0,
        1.7,
        -6,
        0,
        2.9,
        2,
        0,
        4.3,
        -7,
        0,
        5.5,
        5,
        0,
        7.1,
        -11,
        0,
        8.2,
        3,
        0,
        9.7,
        -5,
        0,
        10.667,
        0
      ]
    },
    {
      "Target": "Parameter",
      "Id": "Param33",
      "Segments": [
        0,
        1.709,
        0,
        0.633,
        7,
        0,
        2,
        -4,
        1,
        2.222,
        -4,
        2.445,
        -2.051,
        2.667,
        1.709,
        1,
        2.878,
        5.281,
        3.089,
        7,
        3.3,
        7,
        0,
        4.667,
        -4,
        1,
        4.889,
        -4,
        5.111,
        -2.051,
        5.333,
        1.709,
        1,
        5.544,
        5.281,
        5.756,
        7,
        5.967,
        7,
        0,
        7.333,
        -4,
        1,
        7.555,
        -4,
        7.778,
        -2.051,
        8,
        1.709,
        1,
        8.211,
        5.281,
        8.422,
        7,
        8.633,
        7,
        0,
        10,
        -4,
        0,
        10.667,
        1.709
      ]
    },
    {
      "Target": "Parameter",
      "Id": "Param36",
      "Segments": [
        0,
        -2.533,
        0,
        0.767,
        0,
        0,
        2.133,
        -4,
        1,
        2.311,
        -4,
        2.489,
        -3.618,
        2.667,
        -2.533,
        1,
        2.922,
        -0.973,
        3.178,
        0,
        3.433,
        0,
        0,
        4.8,
        -4,
        1,
        4.978,
        -4,
        5.155,
        -3.618,
        5.333,
        -2.533,
        1,
        5.589,
        -0.973,
        5.844,
        0,
        6.1,
        0,
        0,
        7.467,
        -4,
        1,
        7.645,
        -4,
        7.822,
        -3.618,
        8,
        -2.533,
        1,
        8.256,
        -0.973,
        8.511,
        0,
        8.767,
        0,
        0,
        10.133,
        -4,
        0,
        10.667,
        -2.533
      ]
    },
    {
      "Target": "Parameter",
      "Id": "Param37",
      "Segments": [
        0,
        -3.5,
        0,
        0.9,
        0,
        0,
        2.2,
        -4.794,
        1,
        2.356,
        -4.794,
        2.511,
        -4.563,
        2.667,
        -3.5,
        1,
        2.967,
        -1.449,
        3.267,
        0,
        3.567,
        0,
        0,
        4.867,
        -4.794,
        1,
        5.022,
        -4.794,
        5.178,
        -4.563,
        5.333,
        -3.5,
        1,
        5.633,
        -1.449,
        5.933,
        0,
        6.233,
        0,
        0,
        7.533,
        -4.794,
        1,
        7.689,
        -4.794,
        7.844,
        -4.563,
        8,
        -3.5,
        1,
        8.3,
        -1.449,
        8.6,
        0,
        8.9,
        0,
        0,
        10.2,
        -4.794,
        0,
        10.667,
        -3.5
      ]
    },
    {
      "Target": "Parameter",
      "Id": "Param34",
      "Segments": [
        0,
        -2.386,
        0,
        0.967,
        10.992,
        0,
        2.333,
        -5,
        1,
        2.444,
        -5,
        2.556,
        -4.939,
        2.667,
        -2.386,
        1,
        2.989,
        5.017,
        3.311,
        10.992,
        3.633,
        10.992,
        0,
        5,
        -5,
        1,
        5.111,
        -5,
        5.222,
        -4.939,
        5.333,
        -2.386,
        1,
        5.655,
        5.017,
        5.978,
        10.992,
        6.3,
        10.992,
        0,
        7.667,
        -5,
        1,
        7.778,
        -5,
        7.889,
        -4.939,
        8,
        -2.386,
        1,
        8.322,
        5.017,
        8.645,
        10.992,
        8.967,
        10.992,
        0,
        10.333,
        -5,
        0,
        10.667,
        -2.386
      ]
    },
    {
      "Target": "Parameter",
      "Id": "Param35",
      "Segments": [
        0,
        -3.819,
        0,
        1.067,
        8,
        0,
        2.433,
        -4.921,
        1,
        2.511,
        -4.921,
        2.589,
        -5.194,
        2.667,
        -3.819,
        1,
        3.022,
        2.466,
        3.378,
        8,
        3.733,
        8,
        0,
        5.1,
        -4.921,
        1,
        5.178,
        -4.921,
        5.255,
        -5.194,
        5.333,
        -3.819,
        1,
        5.689,
        2.466,
        6.044,
        8,
        6.4,
        8,
        0,
        7.767,
        -4.921,
        1,
        7.845,
        -4.921,
        7.922,
        -5.194,
        8,
        -3.819,
        1,
        8.356,
        2.466,
        8.711,
        8,
        9.067,
        8,
        0,
        10.433,
        -4.921,
        0,
        10.667,
        -3.819
      ]
    },
    {
      "Target": "Parameter",
      "Id": "Param38",
      "Segments": [
        0,
        10.884,
        0,
        0.067,
        11,
        0,
        1.433,
        -3.417,
        1,
        1.844,
        -3.417,
        2.256,
        3.653,
        2.667,
        10.884,
        1,
        2.689,
        11.275,
        2.711,
        11,
        2.733,
        11,
        0,
        4.1,
        -3.417,
        1,
        4.511,
        -3.417,
        4.922,
        3.653,
        5.333,
        10.884,
        1,
        5.355,
        11.275,
        5.378,
        11,
        5.4,
        11,
        0,
        6.767,
        -3.417,
        1,
        7.178,
        -3.417,
        7.589,
        3.653,
        8,
        10.884,
        1,
        8.022,
        11.275,
        8.045,
        11,
        8.067,
        11,
        0,
        9.433,
        -3.417,
        0,
        10.667,
        10.89
      ]
    },
    {
      "Target": "Parameter",
      "Id": "Param39",
      "Segments": [
        0,
        -2.789,
        0,
        0.7,
        0,
        0,
        2.067,
        -5,
        1,
        2.267,
        -5,
        2.467,
        -4.325,
        2.667,
        -2.789,
        1,
        2.9,
        -0.997,
        3.134,
        0,
        3.367,
        0,
        0,
        4.733,
        -5,
        1,
        4.933,
        -5,
        5.133,
        -4.325,
        5.333,
        -2.789,
        1,
        5.566,
        -0.997,
        5.8,
        0,
        6.033,
        0,
        0,
        7.4,
        -5,
        1,
        7.6,
        -5,
        7.8,
        -4.325,
        8,
        -2.789,
        1,
        8.233,
        -0.997,
        8.467,
        0,
        8.7,
        0,
        0,
        10.067,
        -5,
        0,
        10.667,
        -2.789
      ]
    },
    {
      "Target": "Parameter",
      "Id": "Param40",
      "Segments": [
        0,
        -3.167,
        0,
        0.767,
        0,
        0,
        2.133,
        -5,
        1,
        2.311,
        -5,
        2.489,
        -4.523,
        2.667,
        -3.167,
        1,
        2.922,
        -1.218,
        3.178,
        0,
        3.433,
        0,
        0,
        4.8,
        -5,
        1,
        4.978,
        -5,
        5.155,
        -4.523,
        5.333,
        -3.167,
        1,
        5.589,
        -1.218,
        5.844,
        0,
        6.1,
        0,
        0,
        7.467,
        -5,
        1,
        7.645,
        -5,
        7.822,
        -4.523,
        8,
        -3.167,
        1,
        8.256,
        -1.218,
        8.511,
        0,
        8.767,
        0,
        0,
        10.133,
        -5,
        0,
        10.667,
        -3.167
      ]
    },
    {
      "Target": "Parameter",
      "Id": "Param41",
      "Segments": [
        0,
        -11.001,
        0,
        0.533,
        0,
        0,
        1.9,
        -30,
        1,
        2.156,
        -30,
        2.411,
        -22.685,
        2.667,
        -11.001,
        1,
        2.845,
        -2.873,
        3.022,
        0,
        3.2,
        0,
        0,
        4.567,
        -30,
        1,
        4.822,
        -30,
        5.078,
        -22.685,
        5.333,
        -11.001,
        1,
        5.511,
        -2.873,
        5.689,
        0,
        5.867,
        0,
        0,
        7.233,
        -30,
        1,
        7.489,
        -30,
        7.744,
        -22.685,
        8,
        -11.001,
        1,
        8.178,
        -2.873,
        8.355,
        0,
        8.533,
        0,
        0,
        9.9,
        -30,
        0,
        10.667,
        -11.001
      ]
    },
    {
      "Target": "Parameter",
      "Id": "Param42",
      "Segments": [
        0,
        -3.54,
        0,
        0.7,
        10.109,
        0,
        2.1,
        -13.472,
        1,
        2.289,
        -13.472,
        2.478,
        -10.55,
        2.667,
        -3.54,
        1,
        2.9,
        5.12,
        3.134,
        10.109,
        3.367,
        10.109,
        0,
        4.767,
        -13.472,
        1,
        4.956,
        -13.472,
        5.144,
        -10.55,
        5.333,
        -3.54,
        1,
        5.566,
        5.12,
        5.8,
        10.109,
        6.033,
        10.109,
        0,
        7.433,
        -13.472,
        1,
        7.622,
        -13.472,
        7.811,
        -10.55,
        8,
        -3.54,
        1,
        8.233,
        5.12,
        8.467,
        10.109,
        8.7,
        10.109,
        0,
        10.1,
        -13.472,
        0,
        10.667,
        -3.54
      ]
    },
    {
      "Target": "Parameter",
      "Id": "Param43",
      "Segments": [
        0,
        -6.195,
        0,
        0.9,
        0,
        0,
        2.267,
        -8,
        1,
        2.4,
        -8,
        2.534,
        -7.772,
        2.667,
        -6.195,
        1,
        2.967,
        -2.646,
        3.267,
        0,
        3.567,
        0,
        0,
        4.933,
        -8,
        1,
        5.066,
        -8,
        5.2,
        -7.772,
        5.333,
        -6.195,
        1,
        5.633,
        -2.646,
        5.933,
        0,
        6.233,
        0,
        0,
        7.6,
        -8,
        1,
        7.733,
        -8,
        7.867,
        -7.772,
        8,
        -6.195,
        1,
        8.3,
        -2.646,
        8.6,
        0,
        8.9,
        0,
        0,
        10.267,
        -8,
        0,
        10.667,
        -6.195
      ]
    },
    {
      "Target": "Parameter",
      "Id": "Param44",
      "Segments": [
        0,
        -1.48,
        0,
        1,
        21,
        0,
        2.367,
        -5,
        1,
        2.467,
        -5,
        2.567,
        -5.142,
        2.667,
        -1.48,
        1,
        3,
        10.726,
        3.334,
        21,
        3.667,
        21,
        0,
        5.033,
        -5,
        1,
        5.133,
        -5,
        5.233,
        -5.142,
        5.333,
        -1.48,
        1,
        5.666,
        10.726,
        6,
        21,
        6.333,
        21,
        0,
        7.7,
        -5,
        1,
        7.8,
        -5,
        7.9,
        -5.142,
        8,
        -1.48,
        1,
        8.333,
        10.726,
        8.667,
        21,
        9,
        21,
        0,
        10.367,
        -5,
        0,
        10.667,
        -1.48
      ]
    },
    {
      "Target": "Parameter",
      "Id": "Param49",
      "Segments": [
        0,
        -1.1,
        0,
        0.533,
        0,
        0,
        1.9,
        -3,
        1,
        2.156,
        -3,
        2.411,
        -2.27,
        2.667,
        -1.1,
        1,
        2.845,
        -0.286,
        3.022,
        0,
        3.2,
        0,
        0,
        4.567,
        -3,
        1,
        4.822,
        -3,
        5.078,
        -2.27,
        5.333,
        -1.1,
        1,
        5.511,
        -0.286,
        5.689,
        0,
        5.867,
        0,
        0,
        7.233,
        -3,
        1,
        7.489,
        -3,
        7.744,
        -2.27,
        8,
        -1.1,
        1,
        8.178,
        -0.286,
        8.355,
        0,
        8.533,
        0,
        0,
        9.9,
        -3,
        0,
        10.667,
        -1.1
      ]
    },
    {
      "Target": "Parameter",
      "Id": "Param50",
      "Segments": [
        0,
        -6.748,
        0,
        0.667,
        0,
        0,
        2.033,
        -13,
        1,
        2.244,
        -13,
        2.456,
        -10.969,
        2.667,
        -6.748,
        1,
        2.889,
        -2.304,
        3.111,
        0,
        3.333,
        0,
        0,
        4.7,
        -13,
        1,
        4.911,
        -13,
        5.122,
        -10.969,
        5.333,
        -6.748,
        1,
        5.555,
        -2.304,
        5.778,
        0,
        6,
        0,
        0,
        7.367,
        -13,
        1,
        7.578,
        -13,
        7.789,
        -10.969,
        8,
        -6.748,
        1,
        8.222,
        -2.304,
        8.445,
        0,
        8.667,
        0,
        0,
        10.033,
        -13,
        0,
        10.667,
        -6.748
      ]
    },
    {
      "Target": "Parameter",
      "Id": "Param51",
      "Segments": [
        0,
        -6.192,
        0,
        0.6,
        0,
        0,
        1.967,
        -14,
        1,
        2.2,
        -14,
        2.434,
        -11.209,
        2.667,
        -6.192,
        1,
        2.867,
        -1.891,
        3.067,
        0,
        3.267,
        0,
        0,
        4.633,
        -14,
        1,
        4.866,
        -14,
        5.1,
        -11.209,
        5.333,
        -6.192,
        1,
        5.533,
        -1.891,
        5.733,
        0,
        5.933,
        0,
        0,
        7.3,
        -14,
        1,
        7.533,
        -14,
        7.767,
        -11.209,
        8,
        -6.192,
        1,
        8.2,
        -1.891,
        8.4,
        0,
        8.6,
        0,
        0,
        9.967,
        -14,
        0,
        10.667,
        -6.192
      ]
    },
    {
      "Target": "Parameter",
      "Id": "Param52",
      "Segments": [
        0,
        -2.972,
        0,
        0.5,
        0,
        0,
        1.867,
        -9,
        1,
        2.134,
        -9,
        2.4,
        -6.613,
        2.667,
        -2.972,
        1,
        2.834,
        -0.696,
        3,
        0,
        3.167,
        0,
        0,
        4.533,
        -9,
        1,
        4.8,
        -9,
        5.066,
        -6.613,
        5.333,
        -2.972,
        1,
        5.5,
        -0.696,
        5.666,
        0,
        5.833,
        0,
        0,
        7.2,
        -9,
        1,
        7.467,
        -9,
        7.733,
        -6.613,
        8,
        -2.972,
        1,
        8.167,
        -0.696,
        8.333,
        0,
        8.5,
        0,
        0,
        9.867,
        -9,
        0,
        10.667,
        -2.972
      ]
    },
    {
      "Target": "Parameter",
      "Id": "Param53",
      "Segments": [
        0,
        -8.866,
        0,
        0.767,
        0,
        0,
        2.133,
        -14,
        1,
        2.311,
        -14,
        2.489,
        -12.661,
        2.667,
        -8.866,
        1,
        2.922,
        -3.411,
        3.178,
        0,
        3.433,
        0,
        0,
        4.8,
        -14,
        1,
        4.978,
        -14,
        5.155,
        -12.661,
        5.333,
        -8.866,
        1,
        5.589,
        -3.411,
        5.844,
        -0,
        6.1,
        0,
        0,
        7.467,
        -14,
        1,
        7.645,
        -14,
        7.822,
        -12.661,
        8,
        -8.866,
        1,
        8.256,
        -3.411,
        8.511,
        0,
        8.767,
        0,
        0,
        10.133,
        -14,
        0,
        10.667,
        -8.866
      ]
    },
    {
      "Target": "Parameter",
      "Id": "Param54",
      "Segments": [
        0,
        -8.166,
        0,
        1.033,
        15.29,
        0,
        2.433,
        -10.463,
        1,
        2.511,
        -10.463,
        2.589,
        -10.956,
        2.667,
        -8.166,
        1,
        3.011,
        4.189,
        3.356,
        15.29,
        3.7,
        15.29,
        0,
        5.1,
        -10.463,
        1,
        5.178,
        -10.463,
        5.255,
        -10.956,
        5.333,
        -8.166,
        1,
        5.678,
        4.189,
        6.022,
        15.29,
        6.367,
        15.29,
        0,
        7.767,
        -10.463,
        1,
        7.845,
        -10.463,
        7.922,
        -10.956,
        8,
        -8.166,
        1,
        8.344,
        4.189,
        8.689,
        15.29,
        9.033,
        15.29,
        0,
        10.433,
        -10.463,
        0,
        10.667,
        -8.166
      ]
    },
    {
      "Target": "Parameter",
      "Id": "Param55",
      "Segments": [
        0,
        -21.412,
        0,
        0.133,
        -22,
        0,
        1.433,
        24,
        1,
        1.844,
        24,
        2.256,
        -5.668,
        2.667,
        -21.412,
        1,
        2.711,
        -23.114,
        2.756,
        -22,
        2.8,
        -22,
        0,
        4.1,
        24,
        1,
        4.511,
        24,
        4.922,
        -5.668,
        5.333,
        -21.412,
        1,
        5.378,
        -23.114,
        5.422,
        -22,
        5.467,
        -22,
        0,
        6.767,
        24,
        1,
        7.178,
        24,
        7.589,
        -5.668,
        8,
        -21.412,
        1,
        8.044,
        -23.114,
        8.089,
        -22,
        8.133,
        -22,
        0,
        9.433,
        24,
        0,
        10.667,
        -20.77
      ]
    },
    {
      "Target": "Parameter",
      "Id": "Param45",
      "Segments": [
        0,
        1.071,
        0,
        0.5,
        3,
        0,
        1.867,
        -2.841,
        1,
        2.134,
        -2.841,
        2.4,
        -1.293,
        2.667,
        1.071,
        1,
        2.834,
        2.548,
        3,
        3,
        3.167,
        3,
        0,
        4.533,
        -2.841,
        1,
        4.8,
        -2.841,
        5.066,
        -1.293,
        5.333,
        1.071,
        1,
        5.5,
        2.548,
        5.666,
        3,
        5.833,
        3,
        0,
        7.2,
        -2.841,
        1,
        7.467,
        -2.841,
        7.733,
        -1.293,
        8,
        1.071,
        1,
        8.167,
        2.548,
        8.333,
        3,
        8.5,
        3,
        0,
        9.867,
        -2.841,
        0,
        10.667,
        1.071
      ]
    },
    {
      "Target": "Parameter",
      "Id": "Param46",
      "Segments": [
        0,
        2.273,
        0,
        0.567,
        5,
        0,
        1.9,
        -2.028,
        1,
        2.156,
        -2.028,
        2.411,
        -0.405,
        2.667,
        2.273,
        1,
        2.856,
        4.252,
        3.044,
        5,
        3.233,
        5,
        0,
        4.567,
        -2.028,
        1,
        4.822,
        -2.028,
        5.078,
        -0.405,
        5.333,
        2.273,
        1,
        5.522,
        4.252,
        5.711,
        5,
        5.9,
        5,
        0,
        7.233,
        -2.028,
        1,
        7.489,
        -2.028,
        7.744,
        -0.405,
        8,
        2.273,
        1,
        8.189,
        4.252,
        8.378,
        5,
        8.567,
        5,
        0,
        9.9,
        -2.028,
        0,
        10.667,
        2.273
      ]
    },
    {
      "Target": "Parameter",
      "Id": "Param47",
      "Segments": [
        0,
        -20.961,
        0,
        0.033,
        -21,
        0,
        1.3,
        16,
        0,
        2.667,
        -21,
        0,
        3.967,
        16,
        0,
        5.333,
        -21,
        0,
        6.633,
        16,
        0,
        8,
        -21,
        0,
        9.3,
        16,
        0,
        10.667,
        -20.937
      ]
    },
    {
      "Target": "Parameter",
      "Id": "Param48",
      "Segments": [
        0,
        -0.782,
        0,
        0.8,
        24,
        0,
        2.167,
        -13,
        1,
        2.334,
        -13,
        2.5,
        -10.123,
        2.667,
        -0.782,
        1,
        2.934,
        14.164,
        3.2,
        24,
        3.467,
        24,
        0,
        4.833,
        -13,
        1,
        5,
        -13,
        5.166,
        -10.123,
        5.333,
        -0.782,
        1,
        5.6,
        14.164,
        5.866,
        24,
        6.133,
        24,
        0,
        7.5,
        -13,
        1,
        7.667,
        -13,
        7.833,
        -10.123,
        8,
        -0.782,
        1,
        8.267,
        14.164,
        8.533,
        24,
        8.8,
        24,
        0,
        10.167,
        -13,
        0,
        10.667,
        -0.782
      ]
    },
    {
      "Target": "Parameter",
      "Id": "Param143",
      "Segments": [
        0,
        1.195,
        0,
        0.4,
        3,
        0,
        1.767,
        -5,
        1,
        2.067,
        -5,
        2.367,
        -2.354,
        2.667,
        1.195,
        1,
        2.8,
        2.772,
        2.934,
        3,
        3.067,
        3,
        0,
        4.433,
        -5,
        1,
        4.733,
        -5,
        5.033,
        -2.354,
        5.333,
        1.195,
        1,
        5.466,
        2.772,
        5.6,
        3,
        5.733,
        3,
        0,
        7.1,
        -5,
        1,
        7.4,
        -5,
        7.7,
        -2.354,
        8,
        1.195,
        1,
        8.133,
        2.772,
        8.267,
        3,
        8.4,
        3,
        0,
        9.767,
        -5,
        0,
        10.667,
        1.195
      ]
    },
    {
      "Target": "Parameter",
      "Id": "Param144",
      "Segments": [
        0,
        -0.5,
        0,
        0.833,
        4,
        0,
        2.2,
        -5,
        1,
        2.356,
        -5,
        2.511,
        -2.488,
        2.667,
        -0.5,
        1,
        2.945,
        3.05,
        3.222,
        4,
        3.5,
        4,
        0,
        4.867,
        -5,
        1,
        5.022,
        -5,
        5.178,
        -2.488,
        5.333,
        -0.5,
        1,
        5.611,
        3.05,
        5.889,
        4,
        6.167,
        4,
        0,
        7.533,
        -5,
        1,
        7.689,
        -5,
        7.844,
        -2.488,
        8,
        -0.5,
        1,
        8.278,
        3.05,
        8.555,
        4,
        8.833,
        4,
        0,
        10.2,
        -5,
        0,
        10.667,
        -0.5
      ]
    },
    {
      "Target": "Parameter",
      "Id": "Param145",
      "Segments": [
        0,
        0.119,
        0,
        0.567,
        4,
        0,
        1.933,
        -6,
        1,
        2.178,
        -6,
        2.422,
        -3.604,
        2.667,
        0.119,
        1,
        2.856,
        2.996,
        3.044,
        4,
        3.233,
        4,
        0,
        4.6,
        -6,
        1,
        4.844,
        -6,
        5.089,
        -3.604,
        5.333,
        0.119,
        1,
        5.522,
        2.996,
        5.711,
        4,
        5.9,
        4,
        0,
        7.267,
        -6,
        1,
        7.511,
        -6,
        7.756,
        -3.604,
        8,
        0.119,
        1,
        8.189,
        2.996,
        8.378,
        4,
        8.567,
        4,
        0,
        9.933,
        -6,
        0,
        10.667,
        0.119
      ]
    },
    {
      "Target": "Parameter",
      "Id": "Param146",
      "Segments": [
        0,
        -3.048,
        0,
        0.967,
        5,
        0,
        2.333,
        -8,
        1,
        2.444,
        -8,
        2.556,
        -5.123,
        2.667,
        -3.048,
        1,
        2.989,
        2.969,
        3.311,
        5,
        3.633,
        5,
        0,
        5,
        -8,
        1,
        5.111,
        -8,
        5.222,
        -5.123,
        5.333,
        -3.048,
        1,
        5.655,
        2.969,
        5.978,
        5,
        6.3,
        5,
        0,
        7.667,
        -8,
        1,
        7.778,
        -8,
        7.889,
        -5.123,
        8,
        -3.048,
        1,
        8.322,
        2.969,
        8.645,
        5,
        8.967,
        5,
        0,
        10.333,
        -8,
        0,
        10.667,
        -3.048
      ]
    },
    {
      "Target": "Parameter",
      "Id": "Param132",
      "Segments": [
        0,
        0,
        0,
        1.533,
        30,
        2,
        1.967,
        30,
        1,
        1.978,
        20,
        1.989,
        10,
        2,
        0,
        0,
        3.533,
        30,
        2,
        4.267,
        30,
        1,
        4.278,
        20,
        4.289,
        10,
        4.3,
        0,
        0,
        5.833,
        30,
        2,
        6.267,
        30,
        1,
        6.278,
        20,
        6.289,
        10,
        6.3,
        0,
        0,
        8.133,
        30,
        2,
        10.033,
        30,
        0,
        10.067,
        0,
        2,
        10.667,
        0
      ]
    },
    {
      "Target": "Parameter",
      "Id": "Param133",
      "Segments": [
        0,
        0,
        0,
        1.5,
        30,
        2,
        2.5,
        30,
        1,
        2.511,
        20,
        2.522,
        10,
        2.533,
        0,
        2,
        4.033,
        0,
        0,
        5.533,
        30,
        2,
        6.533,
        30,
        1,
        6.544,
        20,
        6.556,
        10,
        6.567,
        0,
        2,
        8.067,
        0,
        0,
        9.567,
        30,
        2,
        10.633,
        30,
        0,
        10.667,
        0
      ]
    },
    {
      "Target": "Parameter",
      "Id": "Param134",
      "Segments": [
        0,
        0,
        2,
        1.133,
        0,
        0,
        2.633,
        30,
        2,
        3.633,
        30,
        1,
        3.644,
        20,
        3.656,
        10,
        3.667,
        0,
        2,
        5.167,
        0,
        0,
        6.667,
        30,
        2,
        7.9,
        30,
        1,
        7.911,
        20,
        7.922,
        10,
        7.933,
        0,
        0,
        9.433,
        30,
        0,
        9.467,
        0,
        2,
        10.633,
        0,
        2,
        10.667,
        0
      ]
    },
    {
      "Target": "Parameter",
      "Id": "ParamEyeBallX",
      "Segments": [
        0,
        0,
        0,
        10.667,
        0
      ]
    },
    {
      "Target": "Parameter",
      "Id": "ParamEyeBallY",
      "Segments": [
        0,
        0,
        0,
        10.667,
        0
      ]
    },
    {
      "Target": "Parameter",
      "Id": "Param178",
      "Segments": [
        0,
        0,
        0,
        10.667,
        0
      ]
    },
    {
      "Target": "Parameter",
      "Id": "ParamBodyAngleZ",
      "Segments": [
        0,
        0,
        0,
        10.667,
        0
      ]
    },
    {
      "Target": "Parameter",
      "Id": "Param199",
      "Segments": [
        0,
        0,
        0,
        10.667,
        0
      ]
    },
    {
      "Target": "Parameter",
      "Id": "Param76",
      "Segments": [
        0,
        10,
        0,
        10.667,
        10
      ]
    },
    {
      "Target": "Parameter",
      "Id": "Param17",
      "Segments": [
        0,
        0,
        0,
        10.667,
        0
      ]
    },
    {
      "Target": "Parameter",
      "Id": "Param152",
      "Segments": [
        0,
        0,
        0,
        10.667,
        0
      ]
    },
    {
      "Target": "Parameter",
      "Id": "Param130",
      "Segments": [
        0,
        0,
        0,
        10.667,
        0
      ]
    },
    {
      "Target": "Parameter",
      "Id": "Param202",
      "Segments": [
        0,
        0,
        0,
        10.667,
        0
      ]
    },
    {
      "Target": "Parameter",
      "Id": "Param153",
      "Segments": [
        0,
        0,
        0,
        10.667,
        0
      ]
    },
    {
      "Target": "Parameter",
      "Id": "Param184",
      "Segments": [
        0,
        0,
        0,
        10.667,
        0
      ]
    },
    {
      "Target": "Parameter",
      "Id": "Param156",
      "Segments": [
        0,
        0,
        0,
        10.667,
        0
      ]
    },
    {
      "Target": "Parameter",
      "Id": "Param95",
      "Segments": [
        0,
        0,
        0,
        10.667,
        0
      ]
    },
    {
      "Target": "Parameter",
      "Id": "Param91",
      "Segments": [
        0,
        0,
        0,
        10.667,
        0
      ]
    },
    {
      "Target": "Parameter",
      "Id": "Param92",
      "Segments": [
        0,
        0,
        0,
        10.667,
        0
      ]
    },
    {
      "Target": "Parameter",
      "Id": "Param158",
      "Segments": [
        0,
        0,
        0,
        10.667,
        0
      ]
    },
    {
      "Target": "Parameter",
      "Id": "Param93",
      "Segments": [
        0,
        0,
        0,
        10.667,
        0
      ]
    },
    {
      "Target": "Parameter",
      "Id": "Param94",
      "Segments": [
        0,
        0,
        0,
        10.667,
        0
      ]
    },
    {
      "Target": "Parameter",
      "Id": "Param75",
      "Segments": [
        0,
        10,
        0,
        10.667,
        10
      ]
    },
    {
      "Target": "Parameter",
      "Id": "Param182",
      "Segments": [
        0,
        0,
        0,
        10.667,
        0
      ]
    },
    {
      "Target": "Parameter",
      "Id": "Param194",
      "Segments": [
        0,
        0,
        0,
        10.667,
        0
      ]
    },
    {
      "Target": "Parameter",
      "Id": "Param21",
      "Segments": [
        0,
        0,
        0,
        10.667,
        0
      ]
    },
    {
      "Target": "Parameter",
      "Id": "Param183",
      "Segments": [
        0,
        0,
        0,
        10.667,
        0
      ]
    },
    {
      "Target": "Parameter",
      "Id": "Param159",
      "Segments": [
        0,
        0,
        0,
        10.667,
        0
      ]
    },
    {
      "Target": "Parameter",
      "Id": "Param131",
      "Segments": [
        0,
        0,
        0,
        10.667,
        0
      ]
    },
    {
      "Target": "Parameter",
      "Id": "Param157",
      "Segments": [
        0,
        0,
        0,
        10.667,
        0
      ]
    },
    {
      "Target": "Parameter",
      "Id": "Param96",
      "Segments": [
        0,
        0,
        0,
        10.667,
        0
      ]
    },
    {
      "Target": "Parameter",
      "Id": "Param87",
      "Segments": [
        0,
        0,
        0,
        10.667,
        0
      ]
    },
    {
      "Target": "Parameter",
      "Id": "Param88",
      "Segments": [
        0,
        0,
        0,
        10.667,
        0
      ]
    },
    {
      "Target": "Parameter",
      "Id": "Param90",
      "Segments": [
        0,
        0,
        0,
        10.667,
        0
      ]
    },
    {
      "Target": "Parameter",
      "Id": "Param160",
      "Segments": [
        0,
        0,
        0,
        10.667,
        0
      ]
    },
    {
      "Target": "Parameter",
      "Id": "Param89",
      "Segments": [
        0,
        0,
        0,
        10.667,
        0
      ]
    },
    {
      "Target": "Parameter",
      "Id": "Param98",
      "Segments": [
        0,
        0,
        0,
        10.667,
        0
      ]
    },
    {
      "Target": "Parameter",
      "Id": "Param97",
      "Segments": [
        0,
        0,
        0,
        10.667,
        0
      ]
    },
    {
      "Target": "Parameter",
      "Id": "Param99",
      "Segments": [
        0,
        0,
        0,
        10.667,
        0
      ]
    },
    {
      "Target": "Parameter",
      "Id": "Param154",
      "Segments": [
        0,
        0,
        0,
        10.667,
        0
      ]
    },
    {
      "Target": "Parameter",
      "Id": "Param86",
      "Segments": [
        0,
        0,
        0,
        10.667,
        0
      ]
    },
    {
      "Target": "Parameter",
      "Id": "Param79",
      "Segments": [
        0,
        0,
        0,
        10.667,
        0
      ]
    },
    {
      "Target": "Parameter",
      "Id": "Param80",
      "Segments": [
        0,
        0,
        0,
        10.667,
        0
      ]
    },
    {
      "Target": "Parameter",
      "Id": "Param195",
      "Segments": [
        0,
        0,
        0,
        10.667,
        0
      ]
    },
    {
      "Target": "Parameter",
      "Id": "Param196",
      "Segments": [
        0,
        0,
        0,
        10.667,
        0
      ]
    },
    {
      "Target": "Parameter",
      "Id": "Param155",
      "Segments": [
        0,
        0,
        0,
        10.667,
        0
      ]
    },
    {
      "Target": "Parameter",
      "Id": "Param81",
      "Segments": [
        0,
        0,
        0,
        10.667,
        0
      ]
    },
    {
      "Target": "Parameter",
      "Id": "Param82",
      "Segments": [
        0,
        0,
        0,
        10.667,
        0
      ]
    },
    {
      "Target": "Parameter",
      "Id": "Param85",
      "Segments": [
        0,
        0,
        0,
        10.667,
        0
      ]
    },
    {
      "Target": "Parameter",
      "Id": "Param83",
      "Segments": [
        0,
        0,
        0,
        10.667,
        0
      ]
    },
    {
      "Target": "Parameter",
      "Id": "Param84",
      "Segments": [
        0,
        0,
        0,
        10.667,
        0
      ]
    },
    {
      "Target": "Parameter",
      "Id": "Param71",
      "Segments": [
        0,
        0,
        0,
        10.667,
        0
      ]
    },
    {
      "Target": "Parameter",
      "Id": "Param56",
      "Segments": [
        0,
        0,
        0,
        10.667,
        0
      ]
    },
    {
      "Target": "Parameter",
      "Id": "Param58",
      "Segments": [
        0,
        0,
        0,
        10.667,
        0
      ]
    },
    {
      "Target": "Parameter",
      "Id": "Param57",
      "Segments": [
        0,
        0,
        0,
        10.667,
        0
      ]
    },
    {
      "Target": "Parameter",
      "Id": "Param201",
      "Segments": [
        0,
        0,
        0,
        10.667,
        0
      ]
    },
    {
      "Target": "Parameter",
      "Id": "Param174",
      "Segments": [
        0,
        0,
        0,
        10.667,
        0
      ]
    },
    {
      "Target": "Parameter",
      "Id": "Param129",
      "Segments": [
        0,
        0,
        0,
        10.667,
        0
      ]
    },
    {
      "Target": "Parameter",
      "Id": "Param176",
      "Segments": [
        0,
        0,
        0,
        10.667,
        0
      ]
    },
    {
      "Target": "Parameter",
      "Id": "Param175",
      "Segments": [
        0,
        0,
        0,
        10.667,
        0
      ]
    },
    {
      "Target": "Parameter",
      "Id": "Param60",
      "Segments": [
        0,
        0,
        0,
        10.667,
        0
      ]
    },
    {
      "Target": "Parameter",
      "Id": "Param59",
      "Segments": [
        0,
        0,
        0,
        10.667,
        0
      ]
    },
    {
      "Target": "Parameter",
      "Id": "Param61",
      "Segments": [
        0,
        0,
        0,
        10.667,
        0
      ]
    },
    {
      "Target": "Parameter",
      "Id": "Param62",
      "Segments": [
        0,
        0,
        0,
        10.667,
        0
      ]
    },
    {
      "Target": "Parameter",
      "Id": "Param63",
      "Segments": [
        0,
        0,
        0,
        10.667,
        0
      ]
    },
    {
      "Target": "Parameter",
      "Id": "Param64",
      "Segments": [
        0,
        0,
        0,
        10.667,
        0
      ]
    },
    {
      "Target": "Parameter",
      "Id": "Param65",
      "Segments": [
        0,
        0,
        0,
        10.667,
        0
      ]
    },
    {
      "Target": "Parameter",
      "Id": "Param66",
      "Segments": [
        0,
        0,
        0,
        10.667,
        0
      ]
    },
    {
      "Target": "Parameter",
      "Id": "Param67",
      "Segments": [
        0,
        0,
        0,
        10.667,
        0
      ]
    },
    {
      "Target": "Parameter",
      "Id": "Param68",
      "Segments": [
        0,
        0,
        0,
        10.667,
        0
      ]
    },
    {
      "Target": "Parameter",
      "Id": "Param69",
      "Segments": [
        0,
        0,
        0,
        10.667,
        0
      ]
    },
    {
      "Target": "Parameter",
      "Id": "Param70",
      "Segments": [
        0,
        0,
        0,
        10.667,
        0
      ]
    },
    {
      "Target": "Parameter",
      "Id": "Param78",
      "Segments": [
        0,
        0,
        0,
        10.667,
        0
      ]
    },
    {
      "Target": "Parameter",
      "Id": "Param179",
      "Segments": [
        0,
        0,
        0,
        10.667,
        0
      ]
    },
    {
      "Target": "Parameter",
      "Id": "Param200",
      "Segments": [
        0,
        0,
        0,
        10.667,
        0
      ]
    },
    {
      "Target": "Parameter",
      "Id": "Param72",
      "Segments": [
        0,
        0,
        0,
        10.667,
        0
      ]
    },
    {
      "Target": "Parameter",
      "Id": "Param77",
      "Segments": [
        0,
        0,
        0,
        10.667,
        0
      ]
    },
    {
      "Target": "Parameter",
      "Id": "Param172",
      "Segments": [
        0,
        0,
        0,
        10.667,
        0
      ]
    },
    {
      "Target": "Parameter",
      "Id": "Param180",
      "Segments": [
        0,
        0,
        0,
        10.667,
        0
      ]
    },
    {
      "Target": "Parameter",
      "Id": "Param171",
      "Segments": [
        0,
        0,
        0,
        10.667,
        0
      ]
    },
    {
      "Target": "Parameter",
      "Id": "Param181",
      "Segments": [
        0,
        0,
        0,
        10.667,
        0
      ]
    },
    {
      "Target": "Parameter",
      "Id": "Param177",
      "Segments": [
        0,
        0,
        0,
        10.667,
        0
      ]
    },
    {
      "Target": "Parameter",
      "Id": "Param173",
      "Segments": [
        0,
        0,
        0,
        10.667,
        0
      ]
    },
    {
      "Target": "Parameter",
      "Id": "Param161",
      "Segments": [
        0,
        0,
        0,
        10.667,
        0
      ]
    },
    {
      "Target": "Parameter",
      "Id": "Param162",
      "Segments": [
        0,
        0,
        0,
        10.667,
        0
      ]
    },
    {
      "Target": "Parameter",
      "Id": "Param163",
      "Segments": [
        0,
        0,
        0,
        10.667,
        0
      ]
    },
    {
      "Target": "Parameter",
      "Id": "Param164",
      "Segments": [
        0,
        0,
        0,
        10.667,
        0
      ]
    },
    {
      "Target": "Parameter",
      "Id": "Param165",
      "Segments": [
        0,
        0,
        0,
        10.667,
        0
      ]
    },
    {
      "Target": "Parameter",
      "Id": "Param166",
      "Segments": [
        0,
        0,
        0,
        10.667,
        0
      ]
    },
    {
      "Target": "Parameter",
      "Id": "Param167",
      "Segments": [
        0,
        0,
        0,
        10.667,
        0
      ]
    },
    {
      "Target": "Parameter",
      "Id": "Param168",
      "Segments": [
        0,
        0,
        0,
        10.667,
        0
      ]
    },
    {
      "Target": "Parameter",
      "Id": "Param169",
      "Segments": [
        0,
        0,
        0,
        10.667,
        0
      ]
    },
    {
      "Target": "Parameter",
      "Id": "Param170",
      "Segments": [
        0,
        0,
        0,
        10.667,
        0
      ]
    },
    {
      "Target": "Parameter",
      "Id": "Param114",
      "Segments": [
        0,
        0,
        0,
        10.667,
        0
      ]
    },
    {
      "Target": "Parameter",
      "Id": "Param100",
      "Segments": [
        0,
        0,
        0,
        10.667,
        0
      ]
    },
    {
      "Target": "Parameter",
      "Id": "Param193",
      "Segments": [
        0,
        0,
        0,
        10.667,
        0
      ]
    },
    {
      "Target": "Parameter",
      "Id": "Param101",
      "Segments": [
        0,
        0,
        0,
        10.667,
        0
      ]
    },
    {
      "Target": "Parameter",
      "Id": "Param186",
      "Segments": [
        0,
        0,
        0,
        10.667,
        0
      ]
    },
    {
      "Target": "Parameter",
      "Id": "Param103",
      "Segments": [
        0,
        0,
        0,
        10.667,
        0
      ]
    },
    {
      "Target": "Parameter",
      "Id": "Param104",
      "Segments": [
        0,
        0,
        0,
        10.667,
        0
      ]
    },
    {
      "Target": "Parameter",
      "Id": "Param102",
      "Segments": [
        0,
        0,
        0,
        10.667,
        0
      ]
    },
    {
      "Target": "Parameter",
      "Id": "Param188",
      "Segments": [
        0,
        0,
        0,
        10.667,
        0
      ]
    },
    {
      "Target": "Parameter",
      "Id": "Param189",
      "Segments": [
        0,
        0,
        0,
        10.667,
        0
      ]
    },
    {
      "Target": "Parameter",
      "Id": "Param105",
      "Segments": [
        0,
        0,
        0,
        10.667,
        0
      ]
    },
    {
      "Target": "Parameter",
      "Id": "Param106",
      "Segments": [
        0,
        0,
        0,
        10.667,
        0
      ]
    },
    {
      "Target": "Parameter",
      "Id": "Param107",
      "Segments": [
        0,
        0,
        0,
        10.667,
        0
      ]
    },
    {
      "Target": "Parameter",
      "Id": "Param108",
      "Segments": [
        0,
        0,
        0,
        10.667,
        0
      ]
    },
    {
      "Target": "Parameter",
      "Id": "Param109",
      "Segments": [
        0,
        0,
        0,
        10.667,
        0
      ]
    },
    {
      "Target": "Parameter",
      "Id": "Param110",
      "Segments": [
        0,
        0,
        0,
        10.667,
        0
      ]
    },
    {
      "Target": "Parameter",
      "Id": "Param112",
      "Segments": [
        0,
        0,
        0,
        10.667,
        0
      ]
    },
    {
      "Target": "Parameter",
      "Id": "Param126",
      "Segments": [
        0,
        0,
        0,
        10.667,
        0
      ]
    },
    {
      "Target": "Parameter",
      "Id": "Param111",
      "Segments": [
        0,
        0,
        0,
        10.667,
        0
      ]
    },
    {
      "Target": "Parameter",
      "Id": "Param192",
      "Segments": [
        0,
        0,
        0,
        10.667,
        0
      ]
    },
    {
      "Target": "Parameter",
      "Id": "Param113",
      "Segments": [
        0,
        0,
        0,
        10.667,
        0
      ]
    },
    {
      "Target": "Parameter",
      "Id": "Param185",
      "Segments": [
        0,
        0,
        0,
        10.667,
        0
      ]
    },
    {
      "Target": "Parameter",
      "Id": "Param115",
      "Segments": [
        0,
        0,
        0,
        10.667,
        0
      ]
    },
    {
      "Target": "Parameter",
      "Id": "Param190",
      "Segments": [
        0,
        0,
        0,
        10.667,
        0
      ]
    },
    {
      "Target": "Parameter",
      "Id": "Param191",
      "Segments": [
        0,
        0,
        0,
        10.667,
        0
      ]
    },
    {
      "Target": "Parameter",
      "Id": "Param116",
      "Segments": [
        0,
        0,
        0,
        10.667,
        0
      ]
    },
    {
      "Target": "Parameter",
      "Id": "Param117",
      "Segments": [
        0,
        0,
        0,
        10.667,
        0
      ]
    },
    {
      "Target": "Parameter",
      "Id": "Param118",
      "Segments": [
        0,
        0,
        0,
        10.667,
        0
      ]
    },
    {
      "Target": "Parameter",
      "Id": "Param119",
      "Segments": [
        0,
        0,
        0,
        10.667,
        0
      ]
    },
    {
      "Target": "Parameter",
      "Id": "Param120",
      "Segments": [
        0,
        0,
        0,
        10.667,
        0
      ]
    },
    {
      "Target": "Parameter",
      "Id": "Param121",
      "Segments": [
        0,
        0,
        0,
        10.667,
        0
      ]
    },
    {
      "Target": "Parameter",
      "Id": "Param122",
      "Segments": [
        0,
        0,
        0,
        10.667,
        0
      ]
    },
    {
      "Target": "Parameter",
      "Id": "Param123",
      "Segments": [
        0,
        0,
        0,
        10.667,
        0
      ]
    },
    {
      "Target": "Parameter",
      "Id": "Param124",
      "Segments": [
        0,
        0,
        0,
        10.667,
        0
      ]
    },
    {
      "Target": "Parameter",
      "Id": "Param125",
      "Segments": [
        0,
        0,
        0,
        10.667,
        0
      ]
    },
    {
      "Target": "Parameter",
      "Id": "Param127",
      "Segments": [
        0,
        0,
        0,
        10.667,
        0
      ]
    },
    {
      "Target": "Parameter",
      "Id": "Param128",
      "Segments": [
        0,
        0,
        0,
        10.667,
        0
      ]
    },
    {
      "Target": "Parameter",
      "Id": "Param187",
      "Segments": [
        0,
        0,
        0,
        10.667,
        0
      ]
    },
    {
      "Target": "Parameter",
      "Id": "Param135",
      "Segments": [
        0,
        0,
        0,
        10.667,
        0
      ]
    }
  ],
  "UserData": [
    {
      "Time": 0.0,
      "Value": ""
    }
  ]
}