{
  "Version": 3,
  "Meta": {
    "Duration": 2.367,
    "Fps": 30.0,
    "Loop": true,
    "AreBeziersRestricted": true,
    "CurveCount": 220,
    "TotalSegmentCount": 488,
    "TotalPointCount": 688,
    "UserDataCount": 1,
    "TotalUserDataSize": 0
  },
  "Curves": [
    {
      "Target": "Parameter",
      "Id": "ParamEyeLOpen",
      "Segments": [
        0,
        1,
        2,
        1.467,
        1,
        0,
        1.633,
        0,
        2,
        1.733,
        0,
        0,
        1.9,
        1,
        2,
        2.367,
        1
      ]
    },
    {
      "Target": "Parameter",
      "Id": "ParamEyeROpen",
      "Segments": [
        0,
        1,
        2,
        1.467,
        1,
        0,
        1.633,
        0,
        2,
        1.733,
        0,
        0,
        1.9,
        1,
        2,
        2.367,
        1
      ]
    },
    {
      "Target": "Parameter",
      "Id": "ParamAngleY",
      "Segments": [
        0,
        0,
        0,
        0.533,
        -9,
        1,
        0.766,
        -9,
        1,
        3.047,
        1.233,
        4.521,
        1,
        1.611,
        6.315,
        1.989,
        6.925,
        2.367,
        6.925
      ]
    },
    {
      "Target": "Parameter",
      "Id": "Param4",
      "Segments": [
        0,
        0,
        0,
        0.367,
        3.616,
        0,
        0.667,
        -1.102,
        0,
        1.367,
        1.559,
        2,
        2.367,
        1.559
      ]
    },
    {
      "Target": "Parameter",
      "Id": "Param3",
      "Segments": [
        0,
        0,
        1,
        0.156,
        0,
        0.311,
        -2.281,
        0.467,
        -1.953,
        1,
        0.734,
        -1.67,
        1,
        1.131,
        1.267,
        1.744,
        1,
        1.634,
        2.229,
        2,
        1.744,
        2.367,
        1.744
      ]
    },
    {
      "Target": "Parameter",
      "Id": "ParamBodyAngleX",
      "Segments": [
        0,
        0,
        0,
        1.133,
        -0.503,
        2,
        2.367,
        -0.503
      ]
    },
    {
      "Target": "Parameter",
      "Id": "ParamBreath",
      "Segments": [
        0,
        0,
        1,
        0.144,
        0,
        0.289,
        -0,
        0.433,
        0.078,
        1,
        0.644,
        0.236,
        0.856,
        0.44,
        1.067,
        0.552,
        1,
        1.5,
        0.614,
        1.934,
        0,
        2.367,
        0
      ]
    },
    {
      "Target": "Parameter",
      "Id": "Param151",
      "Segments": [
        0,
        0,
        2,
        0.467,
        0,
        1,
        0.6,
        0,
        0.734,
        4.433,
        0.867,
        4.822,
        1,
        1.367,
        5.476,
        1.867,
        0,
        2.367,
        0
      ]
    },
    {
      "Target": "Parameter",
      "Id": "Param2",
      "Segments": [
        0,
        0,
        0,
        1.333,
        -2,
        2,
        2.367,
        -2
      ]
    },
    {
      "Target": "Parameter",
      "Id": "Param5",
      "Segments": [
        0,
        0,
        0,
        2.367,
        7
      ]
    },
    {
      "Target": "Parameter",
      "Id": "Param147",
      "Segments": [
        0,
        0,
        0,
        2.367,
        -17
      ]
    },
    {
      "Target": "Parameter",
      "Id": "Param10",
      "Segments": [
        0,
        6.834,
        0,
        0.067,
        6.95,
        0,
        1.333,
        -10.509,
        0,
        2.367,
        6.834
      ]
    },
    {
      "Target": "Parameter",
      "Id": "Param6",
      "Segments": [
        0,
        -1.095,
        0,
        0.3,
        0,
        0,
        1.667,
        -8.089,
        0,
        2.367,
        -1.095
      ]
    },
    {
      "Target": "Parameter",
      "Id": "Param8",
      "Segments": [
        0,
        -2.485,
        0,
        0.433,
        0,
        0,
        1.767,
        -10,
        0,
        2.367,
        -2.485
      ]
    },
    {
      "Target": "Parameter",
      "Id": "Param7",
      "Segments": [
        0,
        -0.339,
        0,
        0.167,
        0,
        0,
        1.533,
        -7.491,
        0,
        2.367,
        -0.339
      ]
    },
    {
      "Target": "Parameter",
      "Id": "Param9",
      "Segments": [
        0,
        2.715,
        0,
        0.333,
        0,
        0,
        1.633,
        18.133,
        0,
        2.367,
        2.715
      ]
    },
    {
      "Target": "Parameter",
      "Id": "Param11",
      "Segments": [
        0,
        -0.013,
        0,
        0.267,
        1.106,
        0,
        1.6,
        -9.634,
        0,
        2.367,
        -0.013
      ]
    },
    {
      "Target": "Parameter",
      "Id": "Param12",
      "Segments": [
        0,
        -5.055,
        0,
        0.5,
        -11,
        0,
        1.867,
        7.004,
        0,
        2.367,
        -5.055
      ]
    },
    {
      "Target": "Parameter",
      "Id": "Param13",
      "Segments": [
        0,
        0,
        0,
        1.3,
        -10.627,
        0,
        2.367,
        0
      ]
    },
    {
      "Target": "Parameter",
      "Id": "Param14",
      "Segments": [
        0,
        0,
        0,
        1.333,
        10.096,
        0,
        2.367,
        0
      ]
    },
    {
      "Target": "Parameter",
      "Id": "Param76",
      "Segments": [
        0,
        10,
        2,
        0.333,
        10,
        1,
        0.4,
        10,
        0.466,
        5.532,
        0.533,
        1.8,
        1,
        0.566,
        -0,
        0.6,
        0,
        0.633,
        0,
        2,
        2.367,
        0
      ]
    },
    {
      "Target": "Parameter",
      "Id": "Param153",
      "Segments": [
        0,
        0,
        2,
        0.3,
        0,
        0,
        0.5,
        29,
        2,
        2.367,
        29
      ]
    },
    {
      "Target": "Parameter",
      "Id": "Param184",
      "Segments": [
        0,
        0,
        2,
        0.267,
        0,
        1,
        0.311,
        0,
        0.356,
        0.965,
        0.4,
        4.2,
        1,
        0.444,
        7.435,
        0.489,
        10,
        0.533,
        10,
        2,
        2.367,
        10
      ]
    },
    {
      "Target": "Parameter",
      "Id": "Param15",
      "Segments": [
        0,
        0,
        1,
        0.111,
        0,
        0.222,
        5.629,
        0.333,
        23,
        1,
        0.378,
        29.948,
        0.422,
        39,
        0.467,
        39,
        0,
        0.833,
        35.515,
        2,
        2.367,
        35.515
      ]
    },
    {
      "Target": "Parameter",
      "Id": "Param16",
      "Segments": [
        0,
        0,
        0,
        0.233,
        -13.842,
        1,
        0.266,
        -13.842,
        0.3,
        -13.068,
        0.333,
        -10.64,
        1,
        0.366,
        -8.212,
        0.4,
        -4.481,
        0.433,
        -2.14,
        1,
        0.478,
        0.981,
        0.522,
        2.652,
        0.567,
        6.187,
        1,
        0.6,
        8.838,
        0.634,
        12.86,
        0.667,
        12.86,
        0,
        0.833,
        4,
        2,
        2.367,
        4
      ]
    },
    {
      "Target": "Parameter",
      "Id": "Param17",
      "Segments": [
        0,
        0,
        0,
        0.167,
        -8.96,
        0,
        0.333,
        5,
        2,
        2.367,
        5
      ]
    },
    {
      "Target": "Parameter",
      "Id": "Param152",
      "Segments": [
        0,
        0,
        1,
        0.111,
        0,
        0.222,
        -0.781,
        0.333,
        -3.66,
        1,
        0.366,
        -4.524,
        0.4,
        -8,
        0.433,
        -8,
        0,
        0.833,
        0,
        2,
        2.367,
        0
      ]
    },
    {
      "Target": "Parameter",
      "Id": "Param130",
      "Segments": [
        0,
        0,
        1,
        0.111,
        0,
        0.222,
        3.367,
        0.333,
        16.43,
        1,
        0.4,
        24.268,
        0.466,
        34.315,
        0.533,
        34.315,
        2,
        2.367,
        34.315
      ]
    },
    {
      "Target": "Parameter",
      "Id": "Param18",
      "Segments": [
        0,
        0,
        2,
        0.833,
        0,
        0,
        1,
        -6.214,
        2,
        2.367,
        -6.214
      ]
    },
    {
      "Target": "Parameter",
      "Id": "Param156",
      "Segments": [
        0,
        0,
        2,
        0.167,
        0,
        0,
        0.333,
        30,
        2,
        2.367,
        30
      ]
    },
    {
      "Target": "Parameter",
      "Id": "Param75",
      "Segments": [
        0,
        10,
        2,
        0.4,
        10,
        0,
        0.533,
        0,
        2,
        0.7,
        0,
        2,
        2.367,
        0
      ]
    },
    {
      "Target": "Parameter",
      "Id": "Param19",
      "Segments": [
        0,
        0,
        1,
        0.078,
        0,
        0.155,
        9.745,
        0.233,
        12,
        1,
        0.289,
        13.611,
        0.344,
        13.658,
        0.4,
        14.675,
        1,
        0.411,
        14.878,
        0.422,
        16.439,
        0.433,
        16.439,
        0,
        0.467,
        16.413,
        1,
        0.5,
        16.413,
        0.534,
        18.201,
        0.567,
        20.68,
        1,
        0.656,
        27.291,
        0.744,
        30.153,
        0.833,
        30.153,
        2,
        2.367,
        30.153
      ]
    },
    {
      "Target": "Parameter",
      "Id": "Param20",
      "Segments": [
        0,
        -1.2,
        0,
        0.233,
        10.87,
        1,
        0.3,
        10.87,
        0.366,
        7.42,
        0.433,
        -0.33,
        1,
        0.444,
        -1.622,
        0.456,
        -3.703,
        0.467,
        -5.399,
        1,
        0.478,
        -7.095,
        0.489,
        -8.513,
        0.5,
        -10.507,
        1,
        0.556,
        -20.476,
        0.611,
        -26,
        0.667,
        -26,
        2,
        2.367,
        -26
      ]
    },
    {
      "Target": "Parameter",
      "Id": "Param183",
      "Segments": [
        0,
        0,
        2,
        0.233,
        0,
        2,
        0.333,
        0,
        0,
        0.467,
        10,
        2,
        2.367,
        10
      ]
    },
    {
      "Target": "Parameter",
      "Id": "Param159",
      "Segments": [
        0,
        0,
        1,
        0.078,
        0,
        0.155,
        6.045,
        0.233,
        8.312,
        1,
        0.311,
        10.579,
        0.389,
        10.673,
        0.467,
        12.842,
        1,
        0.522,
        14.392,
        0.578,
        22,
        0.633,
        22,
        0,
        2.367,
        12.842
      ]
    },
    {
      "Target": "Parameter",
      "Id": "Param22",
      "Segments": [
        0,
        0,
        0,
        1.367,
        14,
        2,
        2.367,
        14
      ]
    },
    {
      "Target": "Parameter",
      "Id": "Param131",
      "Segments": [
        0,
        0,
        2,
        0.233,
        0,
        1,
        0.3,
        0,
        0.366,
        2.785,
        0.433,
        9,
        1,
        0.444,
        10.036,
        0.456,
        11,
        0.467,
        11,
        2,
        2.367,
        11
      ]
    },
    {
      "Target": "Parameter",
      "Id": "Param148",
      "Segments": [
        0,
        0,
        0,
        1.233,
        9,
        0,
        1.867,
        -10,
        2,
        2.367,
        -10
      ]
    },
    {
      "Target": "Parameter",
      "Id": "Param149",
      "Segments": [
        0,
        0,
        0,
        1.233,
        24,
        0,
        1.867,
        -9,
        2,
        2.367,
        -9
      ]
    },
    {
      "Target": "Parameter",
      "Id": "Param157",
      "Segments": [
        0,
        0,
        2,
        0.167,
        0,
        0,
        0.333,
        30,
        2,
        2.367,
        30
      ]
    },
    {
      "Target": "Parameter",
      "Id": "Param114",
      "Segments": [
        0,
        0,
        2,
        0.233,
        0,
        2,
        0.333,
        0,
        0,
        0.467,
        10,
        2,
        1.033,
        10,
        2,
        2.367,
        10
      ]
    },
    {
      "Target": "Parameter",
      "Id": "Param100",
      "Segments": [
        0,
        -8,
        1,
        0.033,
        -8,
        0.067,
        -7.906,
        0.1,
        -7.418,
        1,
        0.144,
        -6.767,
        0.189,
        -5.559,
        0.233,
        -4.98,
        1,
        0.5,
        -1.504,
        0.766,
        0,
        1.033,
        0,
        2,
        2.367,
        0
      ]
    },
    {
      "Target": "Parameter",
      "Id": "Param101",
      "Segments": [
        0,
        17.14,
        1,
        0.078,
        17.14,
        0.155,
        19.071,
        0.233,
        24.02,
        1,
        0.255,
        25.434,
        0.278,
        27.025,
        0.3,
        27.025,
        1,
        0.333,
        27.025,
        0.367,
        23.571,
        0.4,
        20.019,
        1,
        0.422,
        17.651,
        0.445,
        16.617,
        0.467,
        14.694,
        1,
        0.5,
        11.809,
        0.534,
        6.408,
        0.567,
        5.517,
        1,
        0.722,
        1.361,
        0.878,
        0,
        1.033,
        0,
        2,
        2.367,
        0
      ]
    },
    {
      "Target": "Parameter",
      "Id": "Param186",
      "Segments": [
        0,
        21,
        1,
        0.133,
        21,
        0.267,
        21.64,
        0.4,
        24,
        1,
        0.433,
        24.59,
        0.467,
        30,
        0.5,
        30,
        0,
        0.833,
        0,
        2,
        2.367,
        0
      ]
    },
    {
      "Target": "Parameter",
      "Id": "Param104",
      "Segments": [
        0,
        30,
        0,
        1.033,
        0,
        2,
        2.367,
        0
      ]
    },
    {
      "Target": "Parameter",
      "Id": "Param102",
      "Segments": [
        0,
        -11,
        1,
        0.189,
        -11,
        0.378,
        -10.137,
        0.567,
        -7.742,
        1,
        0.722,
        -5.769,
        0.878,
        -1.775,
        1.033,
        -0.968,
        1,
        1.222,
        0.012,
        1.411,
        0,
        1.6,
        0,
        2,
        2.367,
        0
      ]
    },
    {
      "Target": "Parameter",
      "Id": "Param105",
      "Segments": [
        0,
        0,
        2,
        0.233,
        0,
        0,
        0.733,
        4,
        0,
        1.033,
        0,
        2,
        2.367,
        0
      ]
    },
    {
      "Target": "Parameter",
      "Id": "Param106",
      "Segments": [
        0,
        0,
        2,
        0.233,
        0,
        0,
        0.733,
        6,
        0,
        1.033,
        0,
        2,
        2.367,
        0
      ]
    },
    {
      "Target": "Parameter",
      "Id": "Param107",
      "Segments": [
        0,
        0,
        2,
        0.233,
        0,
        0,
        0.733,
        9,
        0,
        1.067,
        0,
        2,
        2.367,
        0
      ]
    },
    {
      "Target": "Parameter",
      "Id": "Param108",
      "Segments": [
        0,
        0,
        2,
        0.233,
        0,
        0,
        0.733,
        6,
        0,
        1.1,
        0,
        2,
        2.367,
        0
      ]
    },
    {
      "Target": "Parameter",
      "Id": "Param109",
      "Segments": [
        0,
        0,
        2,
        0.233,
        0,
        0,
        0.733,
        11,
        0,
        1.067,
        0,
        2,
        2.367,
        0
      ]
    },
    {
      "Target": "Parameter",
      "Id": "Param110",
      "Segments": [
        0,
        0,
        2,
        0.233,
        0,
        0,
        0.733,
        11,
        0,
        1.1,
        0,
        2,
        2.367,
        0
      ]
    },
    {
      "Target": "Parameter",
      "Id": "Param112",
      "Segments": [
        0,
        0,
        2,
        0.233,
        0,
        0,
        0.733,
        26,
        0,
        1.033,
        0,
        2,
        2.367,
        0
      ]
    },
    {
      "Target": "Parameter",
      "Id": "Param126",
      "Segments": [
        0,
        0,
        2,
        0.233,
        0,
        2,
        0.333,
        0,
        0,
        0.467,
        10,
        2,
        0.567,
        10,
        2,
        1.033,
        10,
        2,
        2.367,
        10
      ]
    },
    {
      "Target": "Parameter",
      "Id": "Param111",
      "Segments": [
        0,
        9.12,
        1,
        0.078,
        9.12,
        0.155,
        6.451,
        0.233,
        6,
        1,
        0.278,
        5.742,
        0.322,
        5.868,
        0.367,
        5.666,
        1,
        0.434,
        5.363,
        0.5,
        4.548,
        0.567,
        3.655,
        1,
        0.722,
        1.572,
        0.878,
        0,
        1.033,
        0,
        2,
        2.367,
        0
      ]
    },
    {
      "Target": "Parameter",
      "Id": "Param113",
      "Segments": [
        0,
        -27,
        1,
        0.078,
        -27,
        0.155,
        -26.953,
        0.233,
        -26,
        1,
        0.289,
        -25.319,
        0.344,
        -22.814,
        0.4,
        -20.138,
        1,
        0.456,
        -17.979,
        0.511,
        -8.591,
        0.567,
        -6.246,
        1,
        0.722,
        -0.327,
        0.878,
        -0.112,
        1.033,
        0,
        1,
        1.478,
        0.319,
        1.922,
        0.36,
        2.367,
        0.36
      ]
    },
    {
      "Target": "Parameter",
      "Id": "Param185",
      "Segments": [
        0,
        0,
        0,
        0.367,
        30,
        0,
        1.033,
        0,
        2,
        2.367,
        0
      ]
    },
    {
      "Target": "Parameter",
      "Id": "Param115",
      "Segments": [
        0,
        0,
        2,
        0.233,
        0,
        1,
        0.344,
        0,
        0.456,
        0.101,
        0.567,
        1.14,
        1,
        0.789,
        1.971,
        1.011,
        -0.031,
        1.233,
        0,
        2,
        2.367,
        0
      ]
    },
    {
      "Target": "Parameter",
      "Id": "Param116",
      "Segments": [
        0,
        30,
        0,
        1.033,
        0,
        2,
        2.367,
        0
      ]
    },
    {
      "Target": "Parameter",
      "Id": "Param117",
      "Segments": [
        0,
        0,
        0,
        0.567,
        -7,
        1,
        0.722,
        -7,
        0.878,
        -3.012,
        1.033,
        -0.858,
        1,
        1.111,
        0.219,
        1.189,
        0,
        1.267,
        0,
        2,
        1.6,
        0,
        2,
        2.367,
        0
      ]
    },
    {
      "Target": "Parameter",
      "Id": "Param118",
      "Segments": [
        0,
        0,
        2,
        0.233,
        0,
        0,
        0.733,
        8,
        0,
        1.033,
        0,
        2,
        2.367,
        0
      ]
    },
    {
      "Target": "Parameter",
      "Id": "Param119",
      "Segments": [
        0,
        0,
        2,
        0.233,
        0,
        0,
        0.733,
        -6,
        1,
        0.844,
        -6,
        0.956,
        -0.166,
        1.067,
        0,
        1,
        1.5,
        0.646,
        1.934,
        0.78,
        2.367,
        0.78
      ]
    },
    {
      "Target": "Parameter",
      "Id": "Param120",
      "Segments": [
        0,
        0,
        2,
        0.233,
        0,
        0,
        0.667,
        -7,
        1,
        0.8,
        -7,
        0.934,
        -0.269,
        1.067,
        0,
        1,
        1.5,
        0.873,
        1.934,
        1.02,
        2.367,
        1.02
      ]
    },
    {
      "Target": "Parameter",
      "Id": "Param121",
      "Segments": [
        0,
        0,
        2,
        0.233,
        0,
        0,
        0.7,
        -9,
        1,
        0.833,
        -9,
        0.967,
        -0.197,
        1.1,
        0,
        1,
        1.522,
        0.624,
        1.945,
        0.72,
        2.367,
        0.72
      ]
    },
    {
      "Target": "Parameter",
      "Id": "Param122",
      "Segments": [
        0,
        0,
        2,
        0.233,
        0,
        0,
        0.767,
        -6,
        1,
        0.878,
        -6,
        0.989,
        -0.158,
        1.1,
        0,
        1,
        1.522,
        0.6,
        1.945,
        0.72,
        2.367,
        0.72
      ]
    },
    {
      "Target": "Parameter",
      "Id": "Param123",
      "Segments": [
        0,
        0,
        2,
        0.233,
        0,
        0,
        0.733,
        -6,
        0,
        1.033,
        0,
        2,
        2.367,
        0
      ]
    },
    {
      "Target": "Parameter",
      "Id": "Param124",
      "Segments": [
        0,
        0,
        2,
        0.233,
        0,
        0,
        0.7,
        -5,
        1,
        0.833,
        -5,
        0.967,
        -0.115,
        1.1,
        0,
        1,
        1.522,
        0.365,
        1.945,
        0.42,
        2.367,
        0.42
      ]
    },
    {
      "Target": "Parameter",
      "Id": "Param125",
      "Segments": [
        0,
        0,
        2,
        0.233,
        0,
        0,
        0.733,
        -11,
        1,
        0.855,
        -11,
        0.978,
        -0.192,
        1.1,
        0,
        1,
        1.522,
        0.664,
        1.945,
        0.78,
        2.367,
        0.78
      ]
    },
    {
      "Target": "Parameter",
      "Id": "Param127",
      "Segments": [
        0,
        30,
        1,
        0.133,
        30,
        0.267,
        30,
        0.4,
        28,
        1,
        0.578,
        24.924,
        0.755,
        8.691,
        0.933,
        3.833,
        1,
        1.022,
        -0.672,
        1.111,
        -0.455,
        1.2,
        -0.455,
        0,
        2.367,
        -1.551
      ]
    },
    {
      "Target": "Parameter",
      "Id": "Param128",
      "Segments": [
        0,
        0,
        2,
        0.333,
        0,
        1,
        0.478,
        0,
        0.622,
        3.464,
        0.767,
        4.6,
        1,
        1.3,
        8.793,
        1.834,
        10,
        2.367,
        10
      ]
    },
    {
      "Target": "Parameter",
      "Id": "Param23",
      "Segments": [
        0,
        0,
        0,
        0.467,
        -4,
        0,
        1,
        6,
        0,
        1.667,
        -3.567,
        0,
        2.367,
        0
      ]
    },
    {
      "Target": "Parameter",
      "Id": "Param24",
      "Segments": [
        0,
        -0.294,
        0,
        0.567,
        -3,
        0,
        1.1,
        3,
        0,
        1.767,
        -5.778,
        0,
        2.367,
        -0.294
      ]
    },
    {
      "Target": "Parameter",
      "Id": "Param25",
      "Segments": [
        0,
        -0.781,
        0,
        0.467,
        -3,
        0,
        1,
        4,
        0,
        1.667,
        -3.85,
        0,
        2.367,
        -0.781
      ]
    },
    {
      "Target": "Parameter",
      "Id": "Param26",
      "Segments": [
        0,
        -2.933,
        0,
        0.567,
        -3,
        0,
        1.1,
        5,
        0,
        1.767,
        -4.173,
        0,
        2.367,
        -2.933
      ]
    },
    {
      "Target": "Parameter",
      "Id": "Param27",
      "Segments": [
        0,
        -0.109,
        0,
        0.5,
        -4,
        0,
        1.033,
        6,
        0,
        1.7,
        -4,
        0,
        2.367,
        -0.109
      ]
    },
    {
      "Target": "Parameter",
      "Id": "Param28",
      "Segments": [
        0,
        -0.512,
        0,
        0.633,
        -3,
        0,
        1.167,
        6,
        0,
        1.9,
        -6,
        0,
        2.367,
        -0.512
      ]
    },
    {
      "Target": "Parameter",
      "Id": "Param29",
      "Segments": [
        0,
        -1.002,
        0,
        0.467,
        -5,
        0,
        1,
        3,
        1,
        1.233,
        3,
        1.467,
        -3.358,
        1.7,
        -3.852,
        1,
        1.922,
        -4.247,
        2.145,
        -1.002,
        2.367,
        -1.002
      ]
    },
    {
      "Target": "Parameter",
      "Id": "Param30",
      "Segments": [
        0,
        -2.972,
        0,
        0.533,
        -4,
        0,
        1.067,
        5,
        0,
        1.733,
        -6.798,
        0,
        2.367,
        -2.972
      ]
    },
    {
      "Target": "Parameter",
      "Id": "Param31",
      "Segments": [
        0,
        -0.233,
        0,
        0.433,
        -4,
        0,
        0.967,
        9,
        0,
        1.633,
        -4,
        0,
        2.367,
        -0.233
      ]
    },
    {
      "Target": "Parameter",
      "Id": "Param32",
      "Segments": [
        0,
        -1.354,
        0,
        0.5,
        -6,
        0,
        1.033,
        4,
        1,
        1.255,
        4,
        1.478,
        -5.251,
        1.7,
        -6,
        1,
        1.922,
        -6.807,
        2.145,
        -1.354,
        2.367,
        -1.354
      ]
    },
    {
      "Target": "Parameter",
      "Id": "Param197",
      "Segments": [
        0,
        -0.344,
        0,
        0.5,
        -2.289,
        0,
        0.967,
        2,
        1,
        1.222,
        2,
        1.478,
        1.611,
        1.733,
        0.756,
        1,
        1.944,
        0.05,
        2.156,
        -0.344,
        2.367,
        -0.344
      ]
    },
    {
      "Target": "Parameter",
      "Id": "Param198",
      "Segments": [
        0,
        7.551,
        0,
        0.533,
        3.32,
        0,
        1.1,
        9,
        0,
        1.733,
        6,
        0,
        2.367,
        7.551
      ]
    },
    {
      "Target": "Parameter",
      "Id": "Param33",
      "Segments": [
        0,
        1.709,
        0,
        0.567,
        4.495,
        0,
        1.367,
        -4,
        0,
        2.367,
        1.709
      ]
    },
    {
      "Target": "Parameter",
      "Id": "Param36",
      "Segments": [
        0,
        -2.533,
        0,
        0.667,
        5,
        0,
        1.6,
        -8,
        0,
        2.367,
        -2.533
      ]
    },
    {
      "Target": "Parameter",
      "Id": "Param37",
      "Segments": [
        0,
        -3.5,
        1,
        0.267,
        -3.5,
        0.533,
        -3.254,
        0.8,
        0,
        1,
        1.067,
        3.254,
        1.333,
        8.295,
        1.6,
        8.295,
        1,
        1.856,
        8.295,
        2.111,
        -2.563,
        2.367,
        -4.794
      ]
    },
    {
      "Target": "Parameter",
      "Id": "Param34",
      "Segments": [
        0,
        -2.386,
        0,
        0.833,
        10.992,
        0,
        2.367,
        -2.386
      ]
    },
    {
      "Target": "Parameter",
      "Id": "Param35",
      "Segments": [
        0,
        -3.819,
        0,
        0.933,
        8,
        1,
        1.411,
        9.157,
        1.889,
        -3.819,
        2.367,
        -3.819
      ]
    },
    {
      "Target": "Parameter",
      "Id": "Param38",
      "Segments": [
        0,
        10.884,
        0,
        0.067,
        11,
        0,
        1.267,
        -3.417,
        0,
        2.367,
        10.884
      ]
    },
    {
      "Target": "Parameter",
      "Id": "Param39",
      "Segments": [
        0,
        -2.789,
        0,
        0.6,
        -7.46,
        0,
        1.533,
        3.622,
        0,
        2.367,
        -2.789
      ]
    },
    {
      "Target": "Parameter",
      "Id": "Param40",
      "Segments": [
        0,
        -3.167,
        0,
        1.5,
        1.723,
        0,
        2.367,
        -3.167
      ]
    },
    {
      "Target": "Parameter",
      "Id": "Param41",
      "Segments": [
        0,
        -11.001,
        1,
        0.156,
        -11.001,
        0.311,
        -11.002,
        0.467,
        -11,
        1,
        0.811,
        -10.995,
        1.156,
        7,
        1.5,
        7,
        0,
        2.367,
        -11.001
      ]
    },
    {
      "Target": "Parameter",
      "Id": "Param42",
      "Segments": [
        0,
        -3.54,
        0,
        0.667,
        10.109,
        0,
        2.367,
        -3.54
      ]
    },
    {
      "Target": "Parameter",
      "Id": "Param43",
      "Segments": [
        0,
        -6.195,
        0,
        1.4,
        2.116,
        2,
        2.367,
        2.116
      ]
    },
    {
      "Target": "Parameter",
      "Id": "Param44",
      "Segments": [
        0,
        -1.48,
        0,
        0.867,
        21,
        0,
        2.367,
        -1.48
      ]
    },
    {
      "Target": "Parameter",
      "Id": "Param49",
      "Segments": [
        0,
        -1.1,
        0,
        0.567,
        0.327,
        0,
        1.5,
        -1.841,
        0,
        2.367,
        -1.1
      ]
    },
    {
      "Target": "Parameter",
      "Id": "Param50",
      "Segments": [
        0,
        -6.748,
        1,
        0.333,
        -6.748,
        0.667,
        7.118,
        1,
        8.364,
        1,
        1.456,
        10.274,
        1.911,
        -6.748,
        2.367,
        -6.748
      ]
    },
    {
      "Target": "Parameter",
      "Id": "Param51",
      "Segments": [
        0,
        -6.192,
        0,
        0.533,
        0,
        0,
        2.367,
        -6.192
      ]
    },
    {
      "Target": "Parameter",
      "Id": "Param52",
      "Segments": [
        0,
        -2.972,
        1,
        0.144,
        -2.972,
        0.289,
        -1.495,
        0.433,
        0,
        1,
        0.722,
        2.989,
        1.011,
        4,
        1.3,
        4,
        0,
        2.367,
        -2.972
      ]
    },
    {
      "Target": "Parameter",
      "Id": "Param53",
      "Segments": [
        0,
        -8.866,
        0,
        0.667,
        0,
        0,
        2.367,
        -8.866
      ]
    },
    {
      "Target": "Parameter",
      "Id": "Param54",
      "Segments": [
        0,
        -8.166,
        0,
        0.9,
        15.29,
        0,
        2.367,
        -8.166
      ]
    },
    {
      "Target": "Parameter",
      "Id": "Param55",
      "Segments": [
        0,
        -21.412,
        0,
        0.1,
        -22,
        0,
        1.233,
        -3.516,
        0,
        2.367,
        -21.412
      ]
    },
    {
      "Target": "Parameter",
      "Id": "Param45",
      "Segments": [
        0,
        1.071,
        1,
        0.167,
        1.071,
        0.333,
        -4.757,
        0.5,
        -5.491,
        1,
        0.878,
        -6.29,
        1.255,
        2.392,
        1.633,
        3,
        0,
        2.367,
        1.071
      ]
    },
    {
      "Target": "Parameter",
      "Id": "Param46",
      "Segments": [
        0,
        2.273,
        0,
        0.567,
        5,
        0,
        1.9,
        -2.028,
        0,
        2.367,
        2.273
      ]
    },
    {
      "Target": "Parameter",
      "Id": "Param47",
      "Segments": [
        0,
        -20.961,
        0,
        0.033,
        -21,
        0,
        1.3,
        16,
        0,
        2.367,
        -21
      ]
    },
    {
      "Target": "Parameter",
      "Id": "Param48",
      "Segments": [
        0,
        -0.782,
        0,
        0.8,
        24,
        0,
        2.167,
        -13,
        0,
        2.367,
        -0.782
      ]
    },
    {
      "Target": "Parameter",
      "Id": "Param143",
      "Segments": [
        0,
        1.195,
        0,
        0.4,
        3,
        0,
        1.767,
        -5,
        0,
        2.367,
        1.195
      ]
    },
    {
      "Target": "Parameter",
      "Id": "Param145",
      "Segments": [
        0,
        0.119,
        0,
        0.567,
        4,
        0,
        1.933,
        -6,
        0,
        2.367,
        0.119
      ]
    },
    {
      "Target": "Parameter",
      "Id": "Param144",
      "Segments": [
        0,
        -0.5,
        0,
        0.833,
        4,
        0,
        2.2,
        -5,
        0,
        2.367,
        -0.5
      ]
    },
    {
      "Target": "Parameter",
      "Id": "Param146",
      "Segments": [
        0,
        -3.048,
        0,
        0.967,
        5,
        0,
        2.367,
        -3.048
      ]
    },
    {
      "Target": "Parameter",
      "Id": "ParamEyeBallX",
      "Segments": [
        0,
        0,
        0,
        2.367,
        0
      ]
    },
    {
      "Target": "Parameter",
      "Id": "ParamEyeBallY",
      "Segments": [
        0,
        0,
        0,
        2.367,
        0
      ]
    },
    {
      "Target": "Parameter",
      "Id": "ParamAngleX",
      "Segments": [
        0,
        0,
        0,
        2.367,
        0
      ]
    },
    {
      "Target": "Parameter",
      "Id": "ParamAngleZ",
      "Segments": [
        0,
        0,
        0,
        2.367,
        0
      ]
    },
    {
      "Target": "Parameter",
      "Id": "Param",
      "Segments": [
        0,
        0,
        0,
        2.367,
        0
      ]
    },
    {
      "Target": "Parameter",
      "Id": "Param178",
      "Segments": [
        0,
        0,
        0,
        2.367,
        0
      ]
    },
    {
      "Target": "Parameter",
      "Id": "ParamBodyAngleZ",
      "Segments": [
        0,
        0,
        0,
        2.367,
        0
      ]
    },
    {
      "Target": "Parameter",
      "Id": "Param199",
      "Segments": [
        0,
        0,
        0,
        2.367,
        0
      ]
    },
    {
      "Target": "Parameter",
      "Id": "Param73",
      "Segments": [
        0,
        0,
        0,
        2.367,
        0
      ]
    },
    {
      "Target": "Parameter",
      "Id": "Param74",
      "Segments": [
        0,
        0,
        0,
        2.367,
        0
      ]
    },
    {
      "Target": "Parameter",
      "Id": "Param217",
      "Segments": [
        0,
        0,
        0,
        2.367,
        0
      ]
    },
    {
      "Target": "Parameter",
      "Id": "Param218",
      "Segments": [
        0,
        0,
        0,
        2.367,
        0
      ]
    },
    {
      "Target": "Parameter",
      "Id": "Param202",
      "Segments": [
        0,
        0,
        0,
        2.367,
        0
      ]
    },
    {
      "Target": "Parameter",
      "Id": "Param206",
      "Segments": [
        0,
        10,
        0,
        2.367,
        10
      ]
    },
    {
      "Target": "Parameter",
      "Id": "Param210",
      "Segments": [
        0,
        0,
        0,
        2.367,
        0
      ]
    },
    {
      "Target": "Parameter",
      "Id": "Param208",
      "Segments": [
        0,
        0,
        0,
        2.367,
        0
      ]
    },
    {
      "Target": "Parameter",
      "Id": "Param209",
      "Segments": [
        0,
        0,
        0,
        2.367,
        0
      ]
    },
    {
      "Target": "Parameter",
      "Id": "Param205",
      "Segments": [
        0,
        0,
        0,
        2.367,
        0
      ]
    },
    {
      "Target": "Parameter",
      "Id": "Param207",
      "Segments": [
        0,
        0,
        0,
        2.367,
        0
      ]
    },
    {
      "Target": "Parameter",
      "Id": "Param95",
      "Segments": [
        0,
        0,
        0,
        2.367,
        0
      ]
    },
    {
      "Target": "Parameter",
      "Id": "Param91",
      "Segments": [
        0,
        0,
        0,
        2.367,
        0
      ]
    },
    {
      "Target": "Parameter",
      "Id": "Param92",
      "Segments": [
        0,
        0,
        0,
        2.367,
        0
      ]
    },
    {
      "Target": "Parameter",
      "Id": "Param158",
      "Segments": [
        0,
        0,
        0,
        2.367,
        0
      ]
    },
    {
      "Target": "Parameter",
      "Id": "Param204",
      "Segments": [
        0,
        0,
        0,
        2.367,
        0
      ]
    },
    {
      "Target": "Parameter",
      "Id": "Param93",
      "Segments": [
        0,
        0,
        0,
        2.367,
        0
      ]
    },
    {
      "Target": "Parameter",
      "Id": "Param94",
      "Segments": [
        0,
        0,
        0,
        2.367,
        0
      ]
    },
    {
      "Target": "Parameter",
      "Id": "Param182",
      "Segments": [
        0,
        0,
        0,
        2.367,
        0
      ]
    },
    {
      "Target": "Parameter",
      "Id": "Param194",
      "Segments": [
        0,
        0,
        0,
        2.367,
        0
      ]
    },
    {
      "Target": "Parameter",
      "Id": "Param21",
      "Segments": [
        0,
        0,
        0,
        2.367,
        0
      ]
    },
    {
      "Target": "Parameter",
      "Id": "Param211",
      "Segments": [
        0,
        0,
        0,
        2.367,
        0
      ]
    },
    {
      "Target": "Parameter",
      "Id": "Param212",
      "Segments": [
        0,
        0,
        0,
        2.367,
        0
      ]
    },
    {
      "Target": "Parameter",
      "Id": "Param213",
      "Segments": [
        0,
        0,
        0,
        2.367,
        0
      ]
    },
    {
      "Target": "Parameter",
      "Id": "Param214",
      "Segments": [
        0,
        0,
        0,
        2.367,
        0
      ]
    },
    {
      "Target": "Parameter",
      "Id": "Param215",
      "Segments": [
        0,
        0,
        0,
        2.367,
        0
      ]
    },
    {
      "Target": "Parameter",
      "Id": "Param216",
      "Segments": [
        0,
        0,
        0,
        2.367,
        0
      ]
    },
    {
      "Target": "Parameter",
      "Id": "Param150",
      "Segments": [
        0,
        10,
        0,
        2.367,
        10
      ]
    },
    {
      "Target": "Parameter",
      "Id": "Param96",
      "Segments": [
        0,
        0,
        0,
        2.367,
        0
      ]
    },
    {
      "Target": "Parameter",
      "Id": "Param87",
      "Segments": [
        0,
        0,
        0,
        2.367,
        0
      ]
    },
    {
      "Target": "Parameter",
      "Id": "Param88",
      "Segments": [
        0,
        0,
        0,
        2.367,
        0
      ]
    },
    {
      "Target": "Parameter",
      "Id": "Param90",
      "Segments": [
        0,
        0,
        0,
        2.367,
        0
      ]
    },
    {
      "Target": "Parameter",
      "Id": "Param160",
      "Segments": [
        0,
        0,
        0,
        2.367,
        0
      ]
    },
    {
      "Target": "Parameter",
      "Id": "Param89",
      "Segments": [
        0,
        0,
        0,
        2.367,
        0
      ]
    },
    {
      "Target": "Parameter",
      "Id": "Param98",
      "Segments": [
        0,
        0,
        0,
        2.367,
        0
      ]
    },
    {
      "Target": "Parameter",
      "Id": "Param97",
      "Segments": [
        0,
        0,
        0,
        2.367,
        0
      ]
    },
    {
      "Target": "Parameter",
      "Id": "Param99",
      "Segments": [
        0,
        0,
        0,
        2.367,
        0
      ]
    },
    {
      "Target": "Parameter",
      "Id": "Param154",
      "Segments": [
        0,
        0,
        0,
        2.367,
        0
      ]
    },
    {
      "Target": "Parameter",
      "Id": "Param86",
      "Segments": [
        0,
        0,
        0,
        2.367,
        0
      ]
    },
    {
      "Target": "Parameter",
      "Id": "Param79",
      "Segments": [
        0,
        0,
        0,
        2.367,
        0
      ]
    },
    {
      "Target": "Parameter",
      "Id": "Param80",
      "Segments": [
        0,
        0,
        0,
        2.367,
        0
      ]
    },
    {
      "Target": "Parameter",
      "Id": "Param195",
      "Segments": [
        0,
        0,
        0,
        2.367,
        0
      ]
    },
    {
      "Target": "Parameter",
      "Id": "Param196",
      "Segments": [
        0,
        0,
        0,
        2.367,
        0
      ]
    },
    {
      "Target": "Parameter",
      "Id": "Param155",
      "Segments": [
        0,
        0,
        0,
        2.367,
        0
      ]
    },
    {
      "Target": "Parameter",
      "Id": "Param81",
      "Segments": [
        0,
        0,
        0,
        2.367,
        0
      ]
    },
    {
      "Target": "Parameter",
      "Id": "Param82",
      "Segments": [
        0,
        0,
        0,
        2.367,
        0
      ]
    },
    {
      "Target": "Parameter",
      "Id": "Param85",
      "Segments": [
        0,
        0,
        0,
        2.367,
        0
      ]
    },
    {
      "Target": "Parameter",
      "Id": "Param83",
      "Segments": [
        0,
        0,
        0,
        2.367,
        0
      ]
    },
    {
      "Target": "Parameter",
      "Id": "Param84",
      "Segments": [
        0,
        0,
        0,
        2.367,
        0
      ]
    },
    {
      "Target": "Parameter",
      "Id": "Param71",
      "Segments": [
        0,
        0,
        0,
        2.367,
        0
      ]
    },
    {
      "Target": "Parameter",
      "Id": "Param56",
      "Segments": [
        0,
        0,
        0,
        2.367,
        0
      ]
    },
    {
      "Target": "Parameter",
      "Id": "Param58",
      "Segments": [
        0,
        0,
        0,
        2.367,
        0
      ]
    },
    {
      "Target": "Parameter",
      "Id": "Param57",
      "Segments": [
        0,
        0,
        0,
        2.367,
        0
      ]
    },
    {
      "Target": "Parameter",
      "Id": "Param201",
      "Segments": [
        0,
        0,
        0,
        2.367,
        0
      ]
    },
    {
      "Target": "Parameter",
      "Id": "Param174",
      "Segments": [
        0,
        0,
        0,
        2.367,
        0
      ]
    },
    {
      "Target": "Parameter",
      "Id": "Param129",
      "Segments": [
        0,
        0,
        0,
        2.367,
        0
      ]
    },
    {
      "Target": "Parameter",
      "Id": "Param176",
      "Segments": [
        0,
        0,
        0,
        2.367,
        0
      ]
    },
    {
      "Target": "Parameter",
      "Id": "Param175",
      "Segments": [
        0,
        0,
        0,
        2.367,
        0
      ]
    },
    {
      "Target": "Parameter",
      "Id": "Param60",
      "Segments": [
        0,
        0,
        0,
        2.367,
        0
      ]
    },
    {
      "Target": "Parameter",
      "Id": "Param59",
      "Segments": [
        0,
        0,
        0,
        2.367,
        0
      ]
    },
    {
      "Target": "Parameter",
      "Id": "Param61",
      "Segments": [
        0,
        0,
        0,
        2.367,
        0
      ]
    },
    {
      "Target": "Parameter",
      "Id": "Param62",
      "Segments": [
        0,
        0,
        0,
        2.367,
        0
      ]
    },
    {
      "Target": "Parameter",
      "Id": "Param63",
      "Segments": [
        0,
        0,
        0,
        2.367,
        0
      ]
    },
    {
      "Target": "Parameter",
      "Id": "Param64",
      "Segments": [
        0,
        0,
        0,
        2.367,
        0
      ]
    },
    {
      "Target": "Parameter",
      "Id": "Param65",
      "Segments": [
        0,
        0,
        0,
        2.367,
        0
      ]
    },
    {
      "Target": "Parameter",
      "Id": "Param66",
      "Segments": [
        0,
        0,
        0,
        2.367,
        0
      ]
    },
    {
      "Target": "Parameter",
      "Id": "Param67",
      "Segments": [
        0,
        0,
        0,
        2.367,
        0
      ]
    },
    {
      "Target": "Parameter",
      "Id": "Param68",
      "Segments": [
        0,
        0,
        0,
        2.367,
        0
      ]
    },
    {
      "Target": "Parameter",
      "Id": "Param69",
      "Segments": [
        0,
        0,
        0,
        2.367,
        0
      ]
    },
    {
      "Target": "Parameter",
      "Id": "Param70",
      "Segments": [
        0,
        0,
        0,
        2.367,
        0
      ]
    },
    {
      "Target": "Parameter",
      "Id": "Param78",
      "Segments": [
        0,
        0,
        0,
        2.367,
        0
      ]
    },
    {
      "Target": "Parameter",
      "Id": "Param179",
      "Segments": [
        0,
        0,
        0,
        2.367,
        0
      ]
    },
    {
      "Target": "Parameter",
      "Id": "Param200",
      "Segments": [
        0,
        0,
        0,
        2.367,
        0
      ]
    },
    {
      "Target": "Parameter",
      "Id": "Param72",
      "Segments": [
        0,
        0,
        0,
        2.367,
        0
      ]
    },
    {
      "Target": "Parameter",
      "Id": "Param77",
      "Segments": [
        0,
        0,
        0,
        2.367,
        0
      ]
    },
    {
      "Target": "Parameter",
      "Id": "Param172",
      "Segments": [
        0,
        0,
        0,
        2.367,
        0
      ]
    },
    {
      "Target": "Parameter",
      "Id": "Param180",
      "Segments": [
        0,
        0,
        0,
        2.367,
        0
      ]
    },
    {
      "Target": "Parameter",
      "Id": "Param171",
      "Segments": [
        0,
        0,
        0,
        2.367,
        0
      ]
    },
    {
      "Target": "Parameter",
      "Id": "Param181",
      "Segments": [
        0,
        0,
        0,
        2.367,
        0
      ]
    },
    {
      "Target": "Parameter",
      "Id": "Param177",
      "Segments": [
        0,
        0,
        0,
        2.367,
        0
      ]
    },
    {
      "Target": "Parameter",
      "Id": "Param173",
      "Segments": [
        0,
        0,
        0,
        2.367,
        0
      ]
    },
    {
      "Target": "Parameter",
      "Id": "Param161",
      "Segments": [
        0,
        0,
        0,
        2.367,
        0
      ]
    },
    {
      "Target": "Parameter",
      "Id": "Param162",
      "Segments": [
        0,
        0,
        0,
        2.367,
        0
      ]
    },
    {
      "Target": "Parameter",
      "Id": "Param163",
      "Segments": [
        0,
        0,
        0,
        2.367,
        0
      ]
    },
    {
      "Target": "Parameter",
      "Id": "Param164",
      "Segments": [
        0,
        0,
        0,
        2.367,
        0
      ]
    },
    {
      "Target": "Parameter",
      "Id": "Param165",
      "Segments": [
        0,
        0,
        0,
        2.367,
        0
      ]
    },
    {
      "Target": "Parameter",
      "Id": "Param166",
      "Segments": [
        0,
        0,
        0,
        2.367,
        0
      ]
    },
    {
      "Target": "Parameter",
      "Id": "Param167",
      "Segments": [
        0,
        0,
        0,
        2.367,
        0
      ]
    },
    {
      "Target": "Parameter",
      "Id": "Param168",
      "Segments": [
        0,
        0,
        0,
        2.367,
        0
      ]
    },
    {
      "Target": "Parameter",
      "Id": "Param169",
      "Segments": [
        0,
        0,
        0,
        2.367,
        0
      ]
    },
    {
      "Target": "Parameter",
      "Id": "Param170",
      "Segments": [
        0,
        0,
        0,
        2.367,
        0
      ]
    },
    {
      "Target": "Parameter",
      "Id": "Param193",
      "Segments": [
        0,
        19,
        0,
        2.367,
        19
      ]
    },
    {
      "Target": "Parameter",
      "Id": "Param103",
      "Segments": [
        0,
        0,
        0,
        2.367,
        0
      ]
    },
    {
      "Target": "Parameter",
      "Id": "Param188",
      "Segments": [
        0,
        12.812,
        0,
        2.367,
        12.812
      ]
    },
    {
      "Target": "Parameter",
      "Id": "Param189",
      "Segments": [
        0,
        1.201,
        0,
        2.367,
        1.201
      ]
    },
    {
      "Target": "Parameter",
      "Id": "Param192",
      "Segments": [
        0,
        30,
        0,
        2.367,
        30
      ]
    },
    {
      "Target": "Parameter",
      "Id": "Param190",
      "Segments": [
        0,
        -8,
        0,
        2.367,
        -8
      ]
    },
    {
      "Target": "Parameter",
      "Id": "Param191",
      "Segments": [
        0,
        2.451,
        0,
        2.367,
        2.451
      ]
    },
    {
      "Target": "Parameter",
      "Id": "Param187",
      "Segments": [
        0,
        0,
        0,
        2.367,
        0
      ]
    },
    {
      "Target": "Parameter",
      "Id": "Param132",
      "Segments": [
        0,
        0,
        0,
        2.367,
        0
      ]
    },
    {
      "Target": "Parameter",
      "Id": "Param133",
      "Segments": [
        0,
        0,
        0,
        2.367,
        0
      ]
    },
    {
      "Target": "Parameter",
      "Id": "Param134",
      "Segments": [
        0,
        0,
        0,
        2.367,
        0
      ]
    },
    {
      "Target": "Parameter",
      "Id": "Param135",
      "Segments": [
        0,
        0,
        0,
        2.367,
        0
      ]
    }
  ],
  "UserData": [
    {
      "Time": 0.0,
      "Value": ""
    }
  ]
}