{
  "Version": 3,
  "Meta": {
    "Duration": 1.267,
    "Fps": 30.0,
    "Loop": true,
    "AreBeziersRestricted": true,
    "CurveCount": 185,
    "TotalSegmentCount": 412,
    "TotalPointCount": 622,
    "UserDataCount": 1,
    "TotalUserDataSize": 0
  },
  "Curves": [
    {
      "Target": "Parameter",
      "Id": "ParamAngleY",
      "Segments": [
        0,
        -30,
        1,
        0.1,
        -30,
        0.2,
        -30,
        0.3,
        -27.754,
        1,
        0.444,
        -23.66,
        0.589,
        1.398,
        0.733,
        1.398,
        0,
        1.067,
        -0.878,
        0,
        1.267,
        0
      ]
    },
    {
      "Target": "Parameter",
      "Id": "ParamEyeBallY",
      "Segments": [
        0,
        -0.3,
        0,
        0.7,
        0,
        2,
        1.267,
        0
      ]
    },
    {
      "Target": "Parameter",
      "Id": "Param3",
      "Segments": [
        0,
        1.744,
        0,
        0.467,
        -1.953,
        1,
        0.589,
        -2.211,
        0.711,
        0,
        0.833,
        0,
        2,
        1.267,
        0
      ]
    },
    {
      "Target": "Parameter",
      "Id": "Param4",
      "Segments": [
        0,
        1.559,
        0,
        0.333,
        2.676,
        1,
        0.478,
        3.079,
        0.622,
        -7.427,
        0.767,
        -7.834,
        1,
        0.934,
        -8.228,
        1.1,
        0,
        1.267,
        0
      ]
    },
    {
      "Target": "Parameter",
      "Id": "ParamBodyAngleX",
      "Segments": [
        0,
        -0.503,
        0,
        0.833,
        0,
        2,
        1.267,
        0
      ]
    },
    {
      "Target": "Parameter",
      "Id": "Param151",
      "Segments": [
        0,
        0,
        2,
        0.333,
        0,
        1,
        0.389,
        0,
        0.444,
        0.386,
        0.5,
        0.546,
        1,
        0.633,
        0.93,
        0.767,
        1.013,
        0.9,
        1.013,
        1,
        0.978,
        1.013,
        1.055,
        0.977,
        1.133,
        0,
        2,
        1.267,
        0
      ]
    },
    {
      "Target": "Parameter",
      "Id": "Param2",
      "Segments": [
        0,
        -2,
        0,
        0.5,
        5,
        0,
        1.267,
        0
      ]
    },
    {
      "Target": "Parameter",
      "Id": "Param5",
      "Segments": [
        0,
        7,
        0,
        0.667,
        7.24,
        0,
        1.267,
        0
      ]
    },
    {
      "Target": "Parameter",
      "Id": "Param147",
      "Segments": [
        0,
        -17,
        0,
        0.667,
        -17.3,
        0,
        1.267,
        0
      ]
    },
    {
      "Target": "Parameter",
      "Id": "Param22",
      "Segments": [
        0,
        30,
        2,
        0.167,
        30,
        0,
        0.2,
        0,
        2,
        1.267,
        0
      ]
    },
    {
      "Target": "Parameter",
      "Id": "Param19",
      "Segments": [
        0,
        21.52,
        2,
        0.167,
        21.52,
        0,
        0.2,
        23.34,
        1,
        0.222,
        23.34,
        0.245,
        14.738,
        0.267,
        13.7,
        1,
        0.278,
        13.181,
        0.289,
        13.781,
        0.3,
        13,
        1,
        0.411,
        5.186,
        0.522,
        -4,
        0.633,
        -4,
        1,
        0.689,
        -4,
        0.744,
        -3.701,
        0.8,
        -3,
        1,
        0.956,
        -1.037,
        1.111,
        0,
        1.267,
        0
      ]
    },
    {
      "Target": "Parameter",
      "Id": "Param42",
      "Segments": [
        0,
        30,
        2,
        0.267,
        30,
        3,
        0.3,
        0,
        2,
        1.267,
        0
      ]
    },
    {
      "Target": "Parameter",
      "Id": "Param75",
      "Segments": [
        0,
        30,
        2,
        0.267,
        30,
        3,
        0.3,
        0,
        2,
        1.267,
        0
      ]
    },
    {
      "Target": "Parameter",
      "Id": "Param44",
      "Segments": [
        0,
        -15.13,
        0,
        0.2,
        -8,
        1,
        0.222,
        -8,
        0.245,
        -11.457,
        0.267,
        -21,
        1,
        0.278,
        -25.771,
        0.289,
        -30,
        0.3,
        -30,
        1,
        0.422,
        -30,
        0.545,
        -4.952,
        0.667,
        -2,
        1,
        0.767,
        0.415,
        0.867,
        0,
        0.967,
        0,
        2,
        1.267,
        0
      ]
    },
    {
      "Target": "Parameter",
      "Id": "Param20",
      "Segments": [
        0,
        -4.676,
        2,
        0.267,
        -4.676,
        3,
        0.3,
        -15.53,
        1,
        0.411,
        -0.065,
        0.522,
        0,
        0.633,
        0,
        2,
        0.967,
        0,
        2,
        1.267,
        0
      ]
    },
    {
      "Target": "Parameter",
      "Id": "Param21",
      "Segments": [
        0,
        1,
        2,
        0.6,
        1,
        0,
        0.633,
        0,
        2,
        1.267,
        0
      ]
    },
    {
      "Target": "Parameter",
      "Id": "Param45",
      "Segments": [
        0,
        0,
        2,
        0.3,
        0,
        0,
        0.533,
        -15,
        0,
        1.267,
        0
      ]
    },
    {
      "Target": "Parameter",
      "Id": "Param164",
      "Segments": [
        0,
        23,
        2,
        0.3,
        23,
        0,
        0.667,
        0,
        2,
        1.267,
        0
      ]
    },
    {
      "Target": "Parameter",
      "Id": "Param46",
      "Segments": [
        0,
        -7,
        2,
        0.267,
        -7,
        3,
        0.3,
        -10,
        0,
        0.6,
        0,
        2,
        1.267,
        0
      ]
    },
    {
      "Target": "Parameter",
      "Id": "Param192",
      "Segments": [
        0,
        30,
        0,
        0.167,
        15,
        1,
        0.234,
        12.905,
        0.3,
        5.122,
        0.367,
        0,
        2,
        1.267,
        0
      ]
    },
    {
      "Target": "Parameter",
      "Id": "Param111",
      "Segments": [
        0,
        0,
        1,
        0.089,
        0,
        0.178,
        0.554,
        0.267,
        3.655,
        1,
        0.322,
        5.593,
        0.378,
        9.43,
        0.433,
        9.43,
        2,
        0.933,
        9.43,
        2,
        1.267,
        9.43
      ]
    },
    {
      "Target": "Parameter",
      "Id": "Param116",
      "Segments": [
        0,
        6,
        0,
        0.233,
        8.362,
        1,
        0.278,
        8.362,
        0.322,
        3.983,
        0.367,
        3.707,
        1,
        0.489,
        2.948,
        0.611,
        2.836,
        0.733,
        2.836,
        3,
        0.8,
        30,
        2,
        1.267,
        30
      ]
    },
    {
      "Target": "Parameter",
      "Id": "Param126",
      "Segments": [
        0,
        20,
        2,
        0.133,
        20,
        1,
        0.178,
        20,
        0.222,
        17.756,
        0.267,
        10,
        1,
        0.278,
        8.061,
        0.289,
        0,
        0.3,
        0,
        2,
        1.267,
        0
      ]
    },
    {
      "Target": "Parameter",
      "Id": "Param95",
      "Segments": [
        0,
        25.22,
        1,
        0.1,
        25.22,
        0.2,
        25.219,
        0.3,
        24.675,
        1,
        0.356,
        24.373,
        0.411,
        0,
        0.467,
        0,
        2,
        1.267,
        0
      ]
    },
    {
      "Target": "Parameter",
      "Id": "Param113",
      "Segments": [
        0,
        0.36,
        1,
        0.078,
        0.36,
        0.155,
        -0.205,
        0.233,
        -1.772,
        1,
        0.244,
        -1.996,
        0.256,
        -5.445,
        0.267,
        -6.588,
        1,
        0.311,
        -11.162,
        0.356,
        -16.562,
        0.4,
        -19.429,
        1,
        0.433,
        -21.579,
        0.467,
        -23.382,
        0.5,
        -24.06,
        1,
        0.611,
        -26.319,
        0.722,
        -27,
        0.833,
        -27,
        2,
        1.267,
        -27
      ]
    },
    {
      "Target": "Parameter",
      "Id": "Param115",
      "Segments": [
        0,
        0,
        0,
        0.267,
        1.14,
        0,
        0.567,
        0,
        2,
        0.833,
        0,
        2,
        1.267,
        0
      ]
    },
    {
      "Target": "Parameter",
      "Id": "Param119",
      "Segments": [
        0,
        0.78,
        0,
        0.567,
        0,
        2,
        0.833,
        0,
        2,
        1.267,
        0
      ]
    },
    {
      "Target": "Parameter",
      "Id": "Param121",
      "Segments": [
        0,
        0.72,
        0,
        0.567,
        0,
        2,
        0.833,
        0,
        2,
        1.267,
        0
      ]
    },
    {
      "Target": "Parameter",
      "Id": "Param125",
      "Segments": [
        0,
        0.78,
        0,
        0.567,
        0,
        2,
        0.833,
        0,
        2,
        1.267,
        0
      ]
    },
    {
      "Target": "Parameter",
      "Id": "Param73",
      "Segments": [
        0,
        0,
        2,
        0.4,
        0,
        1,
        0.456,
        0,
        0.511,
        2.387,
        0.567,
        2.64,
        1,
        0.678,
        3.146,
        0.789,
        3.177,
        0.9,
        3.177,
        0,
        1.133,
        0,
        2,
        1.267,
        0
      ]
    },
    {
      "Target": "Parameter",
      "Id": "Param15",
      "Segments": [
        0,
        13,
        2,
        0.067,
        13,
        0,
        0.1,
        24.848,
        1,
        0.156,
        24.848,
        0.211,
        23.217,
        0.267,
        18.886,
        1,
        0.334,
        13.689,
        0.4,
        5.745,
        0.467,
        2,
        1,
        0.567,
        -3.617,
        0.667,
        -5,
        0.767,
        -5,
        0,
        1.267,
        0
      ]
    },
    {
      "Target": "Parameter",
      "Id": "Param76",
      "Segments": [
        0,
        30,
        2,
        0.067,
        30,
        0,
        0.1,
        0,
        2,
        1.267,
        0
      ]
    },
    {
      "Target": "Parameter",
      "Id": "Param16",
      "Segments": [
        0,
        -2.14,
        2,
        0.267,
        -2.14,
        3,
        0.3,
        13.821,
        1,
        0.333,
        8.962,
        0.367,
        2.924,
        0.4,
        1.146,
        1,
        0.456,
        -1.817,
        0.511,
        -2.14,
        0.567,
        -2.14,
        1,
        0.656,
        -2.14,
        0.744,
        -0.737,
        0.833,
        0.325,
        1,
        0.9,
        1.121,
        0.966,
        1.146,
        1.033,
        1.146,
        0,
        1.267,
        0
      ]
    },
    {
      "Target": "Parameter",
      "Id": "Param78",
      "Segments": [
        0,
        30,
        2,
        0.267,
        30,
        3,
        0.3,
        0,
        2,
        1.267,
        0
      ]
    },
    {
      "Target": "Parameter",
      "Id": "Param54",
      "Segments": [
        0,
        -9,
        2,
        0.267,
        -9,
        0,
        0.3,
        -16,
        1,
        0.478,
        -16,
        0.655,
        -8.752,
        0.833,
        -4,
        1,
        0.978,
        -0.139,
        1.122,
        0,
        1.267,
        0
      ]
    },
    {
      "Target": "Parameter",
      "Id": "Param52",
      "Segments": [
        0,
        1,
        2,
        0.767,
        1,
        0,
        0.8,
        0,
        2,
        1.267,
        0
      ]
    },
    {
      "Target": "Parameter",
      "Id": "Param200",
      "Segments": [
        0,
        -0.31,
        0,
        0.267,
        -0.6,
        0,
        1.267,
        0
      ]
    },
    {
      "Target": "Parameter",
      "Id": "Param114",
      "Segments": [
        0,
        30,
        2,
        0.033,
        30,
        1,
        0.1,
        30,
        0.166,
        25,
        0.233,
        15,
        1,
        0.3,
        5,
        0.366,
        0,
        0.433,
        0,
        2,
        1.267,
        0
      ]
    },
    {
      "Target": "Parameter",
      "Id": "Param100",
      "Segments": [
        0,
        0,
        1,
        0.089,
        0,
        0.178,
        -0.942,
        0.267,
        -1.423,
        1,
        0.278,
        -1.483,
        0.289,
        -1.397,
        0.3,
        -1.46,
        1,
        0.356,
        -1.773,
        0.411,
        -4.98,
        0.467,
        -4.98,
        2,
        0.567,
        -4.98,
        1,
        0.611,
        -4.98,
        0.656,
        -6.808,
        0.7,
        -7.418,
        1,
        0.744,
        -8.028,
        0.789,
        -8,
        0.833,
        -8,
        2,
        1.267,
        -8
      ]
    },
    {
      "Target": "Parameter",
      "Id": "Param101",
      "Segments": [
        0,
        0,
        1,
        0.067,
        0,
        0.133,
        0.23,
        0.2,
        1.251,
        1,
        0.222,
        1.591,
        0.245,
        3.788,
        0.267,
        5.517,
        1,
        0.3,
        8.111,
        0.334,
        11.602,
        0.367,
        14.694,
        1,
        0.434,
        20.878,
        0.5,
        24.02,
        0.567,
        24.02,
        0,
        0.833,
        17.14,
        2,
        1.267,
        17.14
      ]
    },
    {
      "Target": "Parameter",
      "Id": "Param104",
      "Segments": [
        0,
        5.864,
        1,
        0.044,
        5.864,
        0.089,
        5.736,
        0.133,
        4.964,
        1,
        0.178,
        4.192,
        0.222,
        3.309,
        0.267,
        3.309,
        2,
        0.8,
        3.309,
        0,
        0.833,
        30,
        2,
        1.267,
        30
      ]
    },
    {
      "Target": "Parameter",
      "Id": "Param102",
      "Segments": [
        0,
        0,
        1,
        0.089,
        0,
        0.178,
        -6.404,
        0.267,
        -7.742,
        1,
        0.456,
        -10.585,
        0.644,
        -11,
        0.833,
        -11,
        2,
        1.267,
        -11
      ]
    },
    {
      "Target": "Parameter",
      "Id": "Param55",
      "Segments": [
        0,
        30,
        2,
        0.267,
        30,
        0,
        0.3,
        0,
        2,
        1.267,
        0
      ]
    },
    {
      "Target": "Parameter",
      "Id": "Param105",
      "Segments": [
        0,
        27,
        2,
        0.3,
        27,
        0,
        0.5,
        0,
        2,
        1.267,
        0
      ]
    },
    {
      "Target": "Parameter",
      "Id": "Param127",
      "Segments": [
        0,
        -5.81,
        0,
        0.533,
        30,
        2,
        1.267,
        30
      ]
    },
    {
      "Target": "Parameter",
      "Id": "Param128",
      "Segments": [
        0,
        10,
        2,
        0.167,
        10,
        0,
        0.533,
        0,
        2,
        1.267,
        0
      ]
    },
    {
      "Target": "Parameter",
      "Id": "Param107",
      "Segments": [
        0,
        30,
        2,
        0.4,
        30,
        0,
        0.967,
        0,
        2,
        1.267,
        0
      ]
    },
    {
      "Target": "Parameter",
      "Id": "Param218",
      "Segments": [
        0,
        -19.23,
        0,
        0.367,
        -4,
        0,
        1.033,
        -9,
        0,
        1.267,
        2.289
      ]
    },
    {
      "Target": "Parameter",
      "Id": "Param219",
      "Segments": [
        0,
        -29.96,
        0,
        0.367,
        22.56,
        0,
        1.033,
        -15,
        0,
        1.267,
        -1
      ]
    },
    {
      "Target": "Parameter",
      "Id": "Param220",
      "Segments": [
        0,
        -6.77,
        0,
        0.667,
        0,
        2,
        1.267,
        0
      ]
    },
    {
      "Target": "Parameter",
      "Id": "Param221",
      "Segments": [
        0,
        -6.73,
        0,
        0.367,
        13,
        0,
        0.767,
        -24,
        1,
        0.856,
        -24,
        0.944,
        -15.153,
        1.033,
        -8,
        1,
        1.111,
        -1.742,
        1.189,
        -1,
        1.267,
        -1
      ]
    },
    {
      "Target": "Parameter",
      "Id": "Param222",
      "Segments": [
        0,
        17.84,
        1,
        0.144,
        17.84,
        0.289,
        14.739,
        0.433,
        8.61,
        1,
        0.533,
        4.367,
        0.633,
        1.545,
        0.733,
        -4.048,
        1,
        0.833,
        -9.641,
        0.933,
        -17.26,
        1.033,
        -17.26,
        0,
        1.267,
        2
      ]
    },
    {
      "Target": "Parameter",
      "Id": "Param153",
      "Segments": [
        0,
        3.93,
        0,
        0.3,
        0.501,
        0,
        0.7,
        2.207,
        0,
        1.267,
        -0.024
      ]
    },
    {
      "Target": "Parameter",
      "Id": "Param156",
      "Segments": [
        0,
        -0.48,
        1,
        0.078,
        -0.48,
        0.155,
        -3.962,
        0.233,
        -5.624,
        1,
        0.322,
        -7.524,
        0.411,
        -7.653,
        0.5,
        -7.653,
        0,
        0.9,
        3.288,
        0,
        1.267,
        -0.79
      ]
    },
    {
      "Target": "Parameter",
      "Id": "Param157",
      "Segments": [
        0,
        -2.53,
        0,
        0.5,
        -1.493,
        0,
        0.7,
        -9.983,
        0,
        1.1,
        1.955,
        0,
        1.267,
        -0.11
      ]
    },
    {
      "Target": "Parameter",
      "Id": "Param162",
      "Segments": [
        0,
        4.52,
        0,
        0.567,
        -5.434,
        0,
        1,
        3.361,
        0,
        1.267,
        0
      ]
    },
    {
      "Target": "Parameter",
      "Id": "Param163",
      "Segments": [
        0,
        5,
        0,
        0.733,
        -7.677,
        0,
        1.267,
        -0.09
      ]
    },
    {
      "Target": "Parameter",
      "Id": "Param25",
      "Segments": [
        0,
        -1.56,
        0,
        0.3,
        6.102,
        1,
        0.367,
        6.102,
        0.433,
        4.843,
        0.5,
        0.401,
        1,
        0.556,
        -3.301,
        0.611,
        -6.674,
        0.667,
        -6.674,
        1,
        0.789,
        -6.674,
        0.911,
        -3.2,
        1.033,
        -1.173,
        1,
        1.111,
        0.117,
        1.189,
        0,
        1.267,
        0
      ]
    },
    {
      "Target": "Parameter",
      "Id": "Param26",
      "Segments": [
        0,
        0.25,
        0,
        0.5,
        5.087,
        1,
        0.556,
        5.087,
        0.611,
        1.888,
        0.667,
        -0.853,
        1,
        0.745,
        -4.691,
        0.822,
        -5.644,
        0.9,
        -5.644,
        0,
        1.267,
        -1
      ]
    },
    {
      "Target": "Parameter",
      "Id": "Param161",
      "Segments": [
        0,
        0.04,
        0,
        0.5,
        -0.565,
        0,
        0.833,
        3.682,
        0,
        1.167,
        -1.598,
        0,
        1.267,
        0
      ]
    },
    {
      "Target": "Parameter",
      "Id": "Param159",
      "Segments": [
        0,
        0,
        0,
        0.667,
        -7.785,
        0,
        1,
        4.776,
        0,
        1.267,
        0
      ]
    },
    {
      "Target": "Parameter",
      "Id": "Param47",
      "Segments": [
        0,
        3.09,
        1,
        0.089,
        3.09,
        0.178,
        1.321,
        0.267,
        -1.704,
        1,
        0.378,
        -5.485,
        0.489,
        -7.145,
        0.6,
        -7.145,
        1,
        0.733,
        -7.145,
        0.867,
        -4.233,
        1,
        1,
        1,
        1.056,
        3.181,
        1.111,
        4.014,
        1.167,
        4.014,
        0,
        1.267,
        0
      ]
    },
    {
      "Target": "Parameter",
      "Id": "Param48",
      "Segments": [
        0,
        3.5,
        1,
        0.133,
        3.5,
        0.267,
        3.246,
        0.4,
        -0.801,
        1,
        0.522,
        -4.51,
        0.645,
        -12.318,
        0.767,
        -12.318,
        1,
        0.867,
        -12.318,
        0.967,
        -11.51,
        1.067,
        -6.862,
        1,
        1.134,
        -3.763,
        1.2,
        2,
        1.267,
        2
      ]
    },
    {
      "Target": "Parameter",
      "Id": "Param49",
      "Segments": [
        0,
        0.47,
        0,
        0.267,
        6.409,
        0,
        1.067,
        -8.777,
        0,
        1.267,
        0
      ]
    },
    {
      "Target": "Parameter",
      "Id": "Param148",
      "Segments": [
        0,
        0,
        0,
        0.3,
        -0.6,
        1,
        0.4,
        -0.6,
        0.5,
        0.407,
        0.6,
        2.754,
        1,
        0.656,
        4.058,
        0.711,
        4.906,
        0.767,
        4.906,
        0,
        1.267,
        0
      ]
    },
    {
      "Target": "Parameter",
      "Id": "Param152",
      "Segments": [
        0,
        0.57,
        0,
        0.567,
        -5.47,
        0,
        1.067,
        4.716,
        0,
        1.267,
        0
      ]
    },
    {
      "Target": "Parameter",
      "Id": "Param149",
      "Segments": [
        0,
        -16.08,
        0,
        0.3,
        14.695,
        1,
        0.533,
        14.695,
        0.767,
        11.11,
        1,
        4.016,
        1,
        1.089,
        1.314,
        1.178,
        0,
        1.267,
        0
      ]
    },
    {
      "Target": "Parameter",
      "Id": "Param150",
      "Segments": [
        0,
        24.32,
        0,
        0.2,
        -9.192,
        0,
        0.8,
        7.674,
        0,
        1.267,
        -0.011
      ]
    },
    {
      "Target": "Parameter",
      "Id": "Param11",
      "Segments": [
        0,
        2.16,
        0,
        0.433,
        6,
        0,
        0.833,
        -4,
        0,
        1.267,
        0
      ]
    },
    {
      "Target": "Parameter",
      "Id": "Param12",
      "Segments": [
        0,
        -0.68,
        0,
        0.2,
        -7,
        0,
        0.6,
        7,
        0,
        1,
        -4,
        0,
        1.267,
        -1.58
      ]
    },
    {
      "Target": "Parameter",
      "Id": "Param13",
      "Segments": [
        0,
        -3.08,
        0,
        0.4,
        -6,
        0,
        0.767,
        8,
        0,
        1.167,
        -4,
        0,
        1.267,
        -3.538
      ]
    },
    {
      "Target": "Parameter",
      "Id": "Param23",
      "Segments": [
        0,
        3.82,
        1,
        0.089,
        3.82,
        0.178,
        -2.913,
        0.267,
        -5.704,
        1,
        0.367,
        -8.844,
        0.467,
        -9.006,
        0.567,
        -9.006,
        0,
        1.067,
        10.747,
        0,
        1.267,
        -1.27
      ]
    },
    {
      "Target": "Parameter",
      "Id": "Param24",
      "Segments": [
        0,
        8.16,
        1,
        0.089,
        8.16,
        0.178,
        3.69,
        0.267,
        -1.19,
        1,
        0.456,
        -11.559,
        0.644,
        -15.37,
        0.833,
        -15.37,
        0,
        1.267,
        -1.19
      ]
    },
    {
      "Target": "Parameter",
      "Id": "Param29",
      "Segments": [
        0,
        -7.03,
        1,
        0.111,
        -8.978,
        0.222,
        -9.325,
        0.333,
        -9.325,
        0,
        0.733,
        9.494,
        1,
        0.855,
        9.494,
        0.978,
        3.767,
        1.1,
        -1.61,
        1,
        1.156,
        -4.054,
        1.211,
        -4,
        1.267,
        -4
      ]
    },
    {
      "Target": "Parameter",
      "Id": "Param30",
      "Segments": [
        0,
        -1.95,
        1,
        0.033,
        -1.95,
        0.067,
        -4.076,
        0.1,
        -4.82,
        1,
        0.244,
        -8.045,
        0.389,
        -9.117,
        0.533,
        -9.117,
        1,
        0.622,
        -9.117,
        0.711,
        6.82,
        0.8,
        8.451,
        1,
        0.878,
        9.878,
        0.955,
        9.639,
        1.033,
        9.639,
        0,
        1.267,
        -1.69
      ]
    },
    {
      "Target": "Parameter",
      "Id": "Param31",
      "Segments": [
        0,
        -3.73,
        1,
        0.067,
        -3.73,
        0.133,
        -10.477,
        0.2,
        -12.929,
        1,
        0.278,
        -15.79,
        0.355,
        -15.927,
        0.433,
        -15.927,
        0,
        0.933,
        6.467,
        0,
        1.267,
        -0.69
      ]
    },
    {
      "Target": "Parameter",
      "Id": "Param32",
      "Segments": [
        0,
        1.9,
        0,
        0.533,
        -16.498,
        0,
        1.033,
        10.801,
        0,
        1.267,
        -0.75
      ]
    },
    {
      "Target": "Parameter",
      "Id": "Param197",
      "Segments": [
        0,
        8.77,
        0,
        0.667,
        -16.968,
        0,
        1.233,
        15.216,
        0,
        1.267,
        -2
      ]
    },
    {
      "Target": "Parameter",
      "Id": "Param198",
      "Segments": [
        0,
        4.53,
        0,
        0.967,
        -19.749,
        0,
        1.267,
        -0.72
      ]
    },
    {
      "Target": "Parameter",
      "Id": "Param33",
      "Segments": [
        0,
        -5.47,
        0,
        0.433,
        -8.38,
        0,
        0.833,
        8,
        0,
        1.267,
        0
      ]
    },
    {
      "Target": "Parameter",
      "Id": "Param36",
      "Segments": [
        0,
        -5.15,
        0,
        0.2,
        -9.527,
        1,
        0.267,
        -9.527,
        0.333,
        -9.579,
        0.4,
        -7.142,
        1,
        0.467,
        -4.706,
        0.533,
        3.272,
        0.6,
        3.272,
        0,
        1,
        -10,
        0,
        1.267,
        0
      ]
    },
    {
      "Target": "Parameter",
      "Id": "Param37",
      "Segments": [
        0,
        1.62,
        1,
        0.089,
        1.62,
        0.178,
        -0.227,
        0.267,
        -5.905,
        1,
        0.322,
        -9.453,
        0.378,
        -12.758,
        0.433,
        -12.758,
        1,
        0.566,
        -12.758,
        0.7,
        -5.903,
        0.833,
        1.644,
        1,
        0.889,
        4.789,
        0.944,
        4.868,
        1,
        4.868,
        1,
        1.089,
        4.296,
        1.178,
        2.864,
        1.267,
        -0.081
      ]
    },
    {
      "Target": "Parameter",
      "Id": "Param38",
      "Segments": [
        0,
        3.74,
        0,
        0.2,
        6.875,
        0,
        0.833,
        -8.349,
        0,
        1.267,
        0
      ]
    },
    {
      "Target": "Parameter",
      "Id": "Param39",
      "Segments": [
        0,
        5.22,
        0,
        0.4,
        6.306,
        0,
        0.6,
        -5.286,
        0,
        1,
        10,
        0,
        1.267,
        0
      ]
    },
    {
      "Target": "Parameter",
      "Id": "Param40",
      "Segments": [
        0,
        -4.76,
        0,
        0.433,
        9.315,
        1,
        0.566,
        9.315,
        0.7,
        4.505,
        0.833,
        -1.857,
        1,
        0.889,
        -4.508,
        0.944,
        -4.857,
        1,
        -4.857,
        0,
        1.267,
        0
      ]
    },
    {
      "Target": "Parameter",
      "Id": "ParamAngleX",
      "Segments": [
        0,
        0,
        0,
        1.267,
        0
      ]
    },
    {
      "Target": "Parameter",
      "Id": "ParamAngleZ",
      "Segments": [
        0,
        0,
        0,
        1.267,
        0
      ]
    },
    {
      "Target": "Parameter",
      "Id": "Param",
      "Segments": [
        0,
        0,
        0,
        1.267,
        0
      ]
    },
    {
      "Target": "Parameter",
      "Id": "ParamEyeLOpen",
      "Segments": [
        0,
        1,
        0,
        1.267,
        1
      ]
    },
    {
      "Target": "Parameter",
      "Id": "ParamEyeROpen",
      "Segments": [
        0,
        1,
        0,
        1.267,
        1
      ]
    },
    {
      "Target": "Parameter",
      "Id": "ParamEyeBallX",
      "Segments": [
        0,
        0,
        0,
        1.267,
        0
      ]
    },
    {
      "Target": "Parameter",
      "Id": "ParamBodyAngleZ",
      "Segments": [
        0,
        0,
        0,
        1.267,
        0
      ]
    },
    {
      "Target": "Parameter",
      "Id": "Param178",
      "Segments": [
        0,
        0,
        0,
        1.267,
        0
      ]
    },
    {
      "Target": "Parameter",
      "Id": "Param74",
      "Segments": [
        0,
        0,
        0,
        1.267,
        0
      ]
    },
    {
      "Target": "Parameter",
      "Id": "Param27",
      "Segments": [
        0,
        0,
        0,
        1.267,
        0
      ]
    },
    {
      "Target": "Parameter",
      "Id": "Param28",
      "Segments": [
        0,
        0,
        0,
        1.267,
        0
      ]
    },
    {
      "Target": "Parameter",
      "Id": "Param34",
      "Segments": [
        0,
        0,
        0,
        1.267,
        0
      ]
    },
    {
      "Target": "Parameter",
      "Id": "Param41",
      "Segments": [
        0,
        0,
        0,
        1.267,
        0
      ]
    },
    {
      "Target": "Parameter",
      "Id": "Param35",
      "Segments": [
        0,
        0,
        0,
        1.267,
        0
      ]
    },
    {
      "Target": "Parameter",
      "Id": "Param43",
      "Segments": [
        0,
        0,
        0,
        1.267,
        0
      ]
    },
    {
      "Target": "Parameter",
      "Id": "Param117",
      "Segments": [
        0,
        0,
        0,
        1.267,
        0
      ]
    },
    {
      "Target": "Parameter",
      "Id": "Param123",
      "Segments": [
        0,
        0,
        0,
        1.267,
        0
      ]
    },
    {
      "Target": "Parameter",
      "Id": "Param64",
      "Segments": [
        0,
        0,
        0,
        1.267,
        0
      ]
    },
    {
      "Target": "Parameter",
      "Id": "Param65",
      "Segments": [
        0,
        0,
        0,
        1.267,
        0
      ]
    },
    {
      "Target": "Parameter",
      "Id": "Param169",
      "Segments": [
        0,
        0,
        0,
        1.267,
        0
      ]
    },
    {
      "Target": "Parameter",
      "Id": "Param189",
      "Segments": [
        0,
        0,
        0,
        1.267,
        0
      ]
    },
    {
      "Target": "Parameter",
      "Id": "Param103",
      "Segments": [
        0,
        0,
        0,
        1.267,
        0
      ]
    },
    {
      "Target": "Parameter",
      "Id": "Param106",
      "Segments": [
        0,
        0,
        0,
        1.267,
        0
      ]
    },
    {
      "Target": "Parameter",
      "Id": "Param108",
      "Segments": [
        0,
        0,
        0,
        1.267,
        0
      ]
    },
    {
      "Target": "Parameter",
      "Id": "Param71",
      "Segments": [
        0,
        0,
        0,
        1.267,
        0
      ]
    },
    {
      "Target": "Parameter",
      "Id": "Param18",
      "Segments": [
        0,
        0,
        0,
        1.267,
        0
      ]
    },
    {
      "Target": "Parameter",
      "Id": "Param9",
      "Segments": [
        0,
        0,
        0,
        1.267,
        0
      ]
    },
    {
      "Target": "Parameter",
      "Id": "Param68",
      "Segments": [
        0,
        0,
        0,
        1.267,
        0
      ]
    },
    {
      "Target": "Parameter",
      "Id": "Param14",
      "Segments": [
        0,
        0,
        0,
        1.267,
        0
      ]
    },
    {
      "Target": "Parameter",
      "Id": "Param70",
      "Segments": [
        0,
        0,
        0,
        1.267,
        0
      ]
    },
    {
      "Target": "Parameter",
      "Id": "Param17",
      "Segments": [
        0,
        0,
        0,
        1.267,
        0
      ]
    },
    {
      "Target": "Parameter",
      "Id": "Param82",
      "Segments": [
        0,
        0,
        0,
        1.267,
        0
      ]
    },
    {
      "Target": "Parameter",
      "Id": "Param86",
      "Segments": [
        0,
        0,
        0,
        1.267,
        0
      ]
    },
    {
      "Target": "Parameter",
      "Id": "Param10",
      "Segments": [
        0,
        0,
        0,
        1.267,
        0
      ]
    },
    {
      "Target": "Parameter",
      "Id": "Param215",
      "Segments": [
        0,
        0,
        0,
        1.267,
        0
      ]
    },
    {
      "Target": "Parameter",
      "Id": "Param69",
      "Segments": [
        0,
        0,
        0,
        1.267,
        0
      ]
    },
    {
      "Target": "Parameter",
      "Id": "Param214",
      "Segments": [
        0,
        0,
        0,
        1.267,
        0
      ]
    },
    {
      "Target": "Parameter",
      "Id": "Param118",
      "Segments": [
        0,
        0,
        0,
        1.267,
        0
      ]
    },
    {
      "Target": "Parameter",
      "Id": "Param120",
      "Segments": [
        0,
        0,
        0,
        1.267,
        0
      ]
    },
    {
      "Target": "Parameter",
      "Id": "Param110",
      "Segments": [
        0,
        0,
        0,
        1.267,
        0
      ]
    },
    {
      "Target": "Parameter",
      "Id": "Param124",
      "Segments": [
        0,
        0,
        0,
        1.267,
        0
      ]
    },
    {
      "Target": "Parameter",
      "Id": "Param112",
      "Segments": [
        0,
        0,
        0,
        1.267,
        0
      ]
    },
    {
      "Target": "Parameter",
      "Id": "Param109",
      "Segments": [
        0,
        0,
        0,
        1.267,
        0
      ]
    },
    {
      "Target": "Parameter",
      "Id": "Param122",
      "Segments": [
        0,
        0,
        0,
        1.267,
        0
      ]
    },
    {
      "Target": "Parameter",
      "Id": "Param212",
      "Segments": [
        0,
        0,
        0,
        1.267,
        0
      ]
    },
    {
      "Target": "Parameter",
      "Id": "Param213",
      "Segments": [
        0,
        0,
        0,
        1.267,
        0
      ]
    },
    {
      "Target": "Parameter",
      "Id": "Param211",
      "Segments": [
        0,
        0,
        0,
        1.267,
        0
      ]
    },
    {
      "Target": "Parameter",
      "Id": "Param130",
      "Segments": [
        0,
        0,
        0,
        1.267,
        0
      ]
    },
    {
      "Target": "Parameter",
      "Id": "Param131",
      "Segments": [
        0,
        0,
        0,
        1.267,
        0
      ]
    },
    {
      "Target": "Parameter",
      "Id": "Param132",
      "Segments": [
        0,
        0,
        0,
        1.267,
        0
      ]
    },
    {
      "Target": "Parameter",
      "Id": "Param133",
      "Segments": [
        0,
        0,
        0,
        1.267,
        0
      ]
    },
    {
      "Target": "Parameter",
      "Id": "Param134",
      "Segments": [
        0,
        0,
        0,
        1.267,
        0
      ]
    },
    {
      "Target": "Parameter",
      "Id": "Param135",
      "Segments": [
        0,
        0,
        0,
        1.267,
        0
      ]
    },
    {
      "Target": "Parameter",
      "Id": "Param143",
      "Segments": [
        0,
        0,
        0,
        1.267,
        0
      ]
    },
    {
      "Target": "Parameter",
      "Id": "Param206",
      "Segments": [
        0,
        0,
        0,
        1.267,
        0
      ]
    },
    {
      "Target": "Parameter",
      "Id": "Param207",
      "Segments": [
        0,
        0,
        0,
        1.267,
        0
      ]
    },
    {
      "Target": "Parameter",
      "Id": "Param208",
      "Segments": [
        0,
        0,
        0,
        1.267,
        0
      ]
    },
    {
      "Target": "Parameter",
      "Id": "Param202",
      "Segments": [
        0,
        0,
        0,
        1.267,
        0
      ]
    },
    {
      "Target": "Parameter",
      "Id": "Param87",
      "Segments": [
        0,
        0,
        0,
        1.267,
        0
      ]
    },
    {
      "Target": "Parameter",
      "Id": "Param96",
      "Segments": [
        0,
        0,
        0,
        1.267,
        0
      ]
    },
    {
      "Target": "Parameter",
      "Id": "Param88",
      "Segments": [
        0,
        0,
        0,
        1.267,
        0
      ]
    },
    {
      "Target": "Parameter",
      "Id": "Param90",
      "Segments": [
        0,
        0,
        0,
        1.267,
        0
      ]
    },
    {
      "Target": "Parameter",
      "Id": "Param160",
      "Segments": [
        0,
        0,
        0,
        1.267,
        0
      ]
    },
    {
      "Target": "Parameter",
      "Id": "Param89",
      "Segments": [
        0,
        0,
        0,
        1.267,
        0
      ]
    },
    {
      "Target": "Parameter",
      "Id": "Param63",
      "Segments": [
        0,
        0,
        0,
        1.267,
        0
      ]
    },
    {
      "Target": "Parameter",
      "Id": "Param203",
      "Segments": [
        0,
        0,
        0,
        1.267,
        0
      ]
    },
    {
      "Target": "Parameter",
      "Id": "Param204",
      "Segments": [
        0,
        0,
        0,
        1.267,
        0
      ]
    },
    {
      "Target": "Parameter",
      "Id": "Param91",
      "Segments": [
        0,
        0,
        0,
        1.267,
        0
      ]
    },
    {
      "Target": "Parameter",
      "Id": "Param61",
      "Segments": [
        0,
        0,
        0,
        1.267,
        0
      ]
    },
    {
      "Target": "Parameter",
      "Id": "Param92",
      "Segments": [
        0,
        0,
        0,
        1.267,
        0
      ]
    },
    {
      "Target": "Parameter",
      "Id": "Param62",
      "Segments": [
        0,
        0,
        0,
        1.267,
        0
      ]
    },
    {
      "Target": "Parameter",
      "Id": "Param66",
      "Segments": [
        0,
        0,
        0,
        1.267,
        0
      ]
    },
    {
      "Target": "Parameter",
      "Id": "Param158",
      "Segments": [
        0,
        0,
        0,
        1.267,
        0
      ]
    },
    {
      "Target": "Parameter",
      "Id": "Param93",
      "Segments": [
        0,
        0,
        0,
        1.267,
        0
      ]
    },
    {
      "Target": "Parameter",
      "Id": "Param94",
      "Segments": [
        0,
        0,
        0,
        1.267,
        0
      ]
    },
    {
      "Target": "Parameter",
      "Id": "Param199",
      "Segments": [
        0,
        0,
        0,
        1.267,
        0
      ]
    },
    {
      "Target": "Parameter",
      "Id": "Param209",
      "Segments": [
        0,
        0,
        0,
        1.267,
        0
      ]
    },
    {
      "Target": "Parameter",
      "Id": "Param210",
      "Segments": [
        0,
        0,
        0,
        1.267,
        0
      ]
    },
    {
      "Target": "Parameter",
      "Id": "Param155",
      "Segments": [
        0,
        0,
        0,
        1.267,
        0
      ]
    },
    {
      "Target": "Parameter",
      "Id": "Param79",
      "Segments": [
        0,
        0,
        0,
        1.267,
        0
      ]
    },
    {
      "Target": "Parameter",
      "Id": "Param80",
      "Segments": [
        0,
        0,
        0,
        1.267,
        0
      ]
    },
    {
      "Target": "Parameter",
      "Id": "Param195",
      "Segments": [
        0,
        0,
        0,
        1.267,
        0
      ]
    },
    {
      "Target": "Parameter",
      "Id": "Param196",
      "Segments": [
        0,
        0,
        0,
        1.267,
        0
      ]
    },
    {
      "Target": "Parameter",
      "Id": "Param81",
      "Segments": [
        0,
        0,
        0,
        1.267,
        0
      ]
    },
    {
      "Target": "Parameter",
      "Id": "Param85",
      "Segments": [
        0,
        0,
        0,
        1.267,
        0
      ]
    },
    {
      "Target": "Parameter",
      "Id": "Param83",
      "Segments": [
        0,
        0,
        0,
        1.267,
        0
      ]
    },
    {
      "Target": "Parameter",
      "Id": "Param84",
      "Segments": [
        0,
        0,
        0,
        1.267,
        0
      ]
    },
    {
      "Target": "Parameter",
      "Id": "Param168",
      "Segments": [
        0,
        0,
        0,
        1.267,
        0
      ]
    },
    {
      "Target": "Parameter",
      "Id": "Param188",
      "Segments": [
        0,
        0,
        0,
        1.267,
        0
      ]
    },
    {
      "Target": "Parameter",
      "Id": "Param194",
      "Segments": [
        0,
        0,
        0,
        1.267,
        0
      ]
    },
    {
      "Target": "Parameter",
      "Id": "Param98",
      "Segments": [
        0,
        0,
        0,
        1.267,
        0
      ]
    },
    {
      "Target": "Parameter",
      "Id": "Param97",
      "Segments": [
        0,
        0,
        0,
        1.267,
        0
      ]
    },
    {
      "Target": "Parameter",
      "Id": "Param183",
      "Segments": [
        0,
        0,
        0,
        1.267,
        0
      ]
    },
    {
      "Target": "Parameter",
      "Id": "Param99",
      "Segments": [
        0,
        0,
        0,
        1.267,
        0
      ]
    },
    {
      "Target": "Parameter",
      "Id": "Param187",
      "Segments": [
        0,
        0,
        0,
        1.267,
        0
      ]
    },
    {
      "Target": "Parameter",
      "Id": "Param184",
      "Segments": [
        0,
        0,
        0,
        1.267,
        0
      ]
    },
    {
      "Target": "Parameter",
      "Id": "Param186",
      "Segments": [
        0,
        0,
        0,
        1.267,
        0
      ]
    },
    {
      "Target": "Parameter",
      "Id": "Param154",
      "Segments": [
        0,
        0,
        0,
        1.267,
        0
      ]
    },
    {
      "Target": "Parameter",
      "Id": "Param185",
      "Segments": [
        0,
        0,
        0,
        1.267,
        0
      ]
    },
    {
      "Target": "Parameter",
      "Id": "Param182",
      "Segments": [
        0,
        0,
        0,
        1.267,
        0
      ]
    }
  ],
  "UserData": [
    {
      "Time": 0.0,
      "Value": ""
    }
  ]
}