{
  "Version": 3,
  "Type": 0,
  "FileReferences": {
    "Moc": "v1a5_305303_yaxian.moc3",
    "Textures": [
      "textures/305303_yaxian_00.png",
      "textures/305303_yaxian_01.png",
      "textures/glow_001_wx.png",
      "textures/glow_00175_hs.png",
      "textures/glow_00211_hs.png",
      "textures/glow_003_wx.png",
      "textures/glow_009_ld.png",
      "textures/mask_115_hs.png",
      "textures/noise_001_lw.png",
      "textures/noise_002_dy.png",
      "textures/noise_005_ch.png",
      "textures/noise_015_gl16.png",
      "textures/noise_051_wx.png",
      "textures/noise_053_gt.png",
      "textures/noise_13_ld.png",
      "textures/trail_009_gl16.png"
    ],
    "PhysicsV2": {},
    "Expressions": [
      {
        "Name": "e_jingya",
        "File": "expressions/e_jingya.exp3.json"
      },
      {
        "Name": "e_fangsong",
        "File": "expressions/e_fangsong.exp3.json"
      },
      {
        "Name": "e_renzhen",
        "File": "expressions/e_renzhen.exp3.json"
      },
      {
        "Name": "e_shengqi",
        "File": "expressions/e_shengqi.exp3.json"
      },
      {
        "Name": "e_nanguo",
        "File": "expressions/e_nanguo.exp3.json"
      },
      {
        "Name": "e_idle",
        "File": "expressions/e_idle.exp3.json"
      },
      {
        "Name": "e_haixiu",
        "File": "expressions/e_haixiu.exp3.json"
      },
      {
        "Name": "e_weixiao",
        "File": "expressions/e_weixiao.exp3.json"
      }
    ]
  },
  "Controllers": {
    "ParamHit": {},
    "ParamLoop": {},
    "KeyTrigger": {},
    "ParamTrigger": {},
    "AreaTrigger": {},
    "HandTrigger": {},
    "EyeBlink": {
      "MinInterval": 500,
      "MaxInterval": 6000,
      "Items": [
        {
          "Id": "ParamEyeLOpen",
          "Min": 0.0,
          "Max": 1.0,
          "BlendMode": 2,
          "Input": 0
        }
      ],
      "Enabled": true
    },
    "LipSync": {
      "Gain": 5.0,
      "Items": [
        {
          "Id": "ParamMouthOpenY",
          "Min": 0.0,
          "Max": 1.0,
          "Input": 0
        }
      ],
      "Enabled": true
    },
    "MouseTracking": {
      "SmoothTime": 0.15,
      "Enabled": true
    },
    "AutoBreath": {
      "Enabled": true
    },
    "ExtraMotion": {
      "Enabled": true
    },
    "Accelerometer": {
      "Enabled": true
    },
    "Microphone": {},
    "Transform": {},
    "FaceTracking": {
      "Enabled": true
    },
    "HandTracking": {},
    "ParamValue": {},
    "PartOpacity": {},
    "ArtmeshOpacity": {},
    "ArtmeshColor": {},
    "ArtmeshCulling": {
      "DefaultMode": 0
    },
    "IntimacySystem": {}
  },
  "Options": {
    "PositionY": -160.0
  }
}