{
  "Version": 3, 
  "Name": "v1a5_305303_yaxian", 
  "FileReferences": {
    "Moc": "v1a5_305303_yaxian.moc3", 
    "Textures": [
      "textures/305303_yaxian_00.png", 
      "textures/305303_yaxian_01.png", 
      "textures/glow_001_wx.png", 
      "textures/glow_00175_hs.png", 
      "textures/glow_00211_hs.png", 
      "textures/glow_003_wx.png", 
      "textures/glow_009_ld.png", 
      "textures/mask_115_hs.png", 
      "textures/noise_001_lw.png", 
      "textures/noise_002_dy.png", 
      "textures/noise_005_ch.png", 
      "textures/noise_015_gl16.png", 
      "textures/noise_051_wx.png", 
      "textures/noise_053_gt.png", 
      "textures/noise_13_ld.png", 
      "textures/trail_009_gl16.png"
    ], 
    "Physics": null, 
    "Motions": {
      "t_idle_zhaiyatao": [
        {
          "File": "motions/t_idle_zhaiyatao.motion3.json", 
          "Name": "t_idle_zhaiyatao"
        }
      ], 
      "t_nanguo_daiyatao_bizui": [
        {
          "File": "motions/t_nanguo_daiyatao_bizui.motion3.json", 
          "Name": "t_nanguo_daiyatao_bizui"
        }
      ], 
      "t_changge": [
        {
          "File": "motions/t_changge.motion3.json", 
          "Name": "t_changge"
        }
      ], 
      "b_changge": [
        {
          "File": "motions/b_changge.motion3.json", 
          "Name": "b_changge"
        }
      ], 
      "t_weixiao_daiyatao_bizui": [
        {
          "File": "motions/t_weixiao_daiyatao_bizui.motion3.json", 
          "Name": "t_weixiao_daiyatao_bizui"
        }
      ], 
      "b_yaotou": [
        {
          "File": "motions/b_yaotou.motion3.json", 
          "Name": "b_yaotou"
        }
      ], 
      "t_renzhen_daiyatao_bizui": [
        {
          "File": "motions/t_renzhen_daiyatao_bizui.motion3.json", 
          "Name": "t_renzhen_daiyatao_bizui"
        }
      ], 
      "t_shengqi": [
        {
          "File": "motions/t_shengqi.motion3.json", 
          "Name": "t_shengqi"
        }
      ], 
      "t_shengqi_bizui": [
        {
          "File": "motions/t_shengqi_bizui.motion3.json", 
          "Name": "t_shengqi_bizui"
        }
      ], 
      "t_fangsong": [
        {
          "File": "motions/t_fangsong.motion3.json", 
          "Name": "t_fangsong"
        }
      ], 
      "t_nanguo_daiyatao": [
        {
          "File": "motions/t_nanguo_daiyatao.motion3.json", 
          "Name": "t_nanguo_daiyatao"
        }
      ], 
      "t_fangsong_bizui": [
        {
          "File": "motions/t_fangsong_bizui.motion3.json", 
          "Name": "t_fangsong_bizui"
        }
      ], 
      "b_fumo": [
        {
          "File": "motions/b_fumo.motion3.json", 
          "Name": "b_fumo"
        }
      ], 
      "t_weixiao_daiyatao": [
        {
          "File": "motions/t_weixiao_daiyatao.motion3.json", 
          "Name": "t_weixiao_daiyatao"
        }
      ], 
      "t_shengqi_daiyatao_bizui": [
        {
          "File": "motions/t_shengqi_daiyatao_bizui.motion3.json", 
          "Name": "t_shengqi_daiyatao_bizui"
        }
      ], 
      "t_jingya": [
        {
          "File": "motions/t_jingya.motion3.json", 
          "Name": "t_jingya"
        }
      ], 
      "t_weixiao": [
        {
          "File": "motions/t_weixiao.motion3.json", 
          "Name": "t_weixiao"
        }
      ], 
      "t_renzhen_zhaiyatao": [
        {
          "File": "motions/t_renzhen_zhaiyatao.motion3.json", 
          "Name": "t_renzhen_zhaiyatao"
        }
      ], 
      "t_nanguo_zhaiyatao": [
        {
          "File": "motions/t_nanguo_zhaiyatao.motion3.json", 
          "Name": "t_nanguo_zhaiyatao"
        }
      ], 
      "t_fangsong_daiyatao": [
        {
          "File": "motions/t_fangsong_daiyatao.motion3.json", 
          "Name": "t_fangsong_daiyatao"
        }
      ], 
      "t_haixiu_bizui": [
        {
          "File": "motions/t_haixiu_bizui.motion3.json", 
          "Name": "t_haixiu_bizui"
        }
      ], 
      "t_shengqi_zhaiyatao": [
        {
          "File": "motions/t_shengqi_zhaiyatao.motion3.json", 
          "Name": "t_shengqi_zhaiyatao"
        }
      ], 
      "t_weixiao_bizui": [
        {
          "File": "motions/t_weixiao_bizui.motion3.json", 
          "Name": "t_weixiao_bizui"
        }
      ], 
      "t_renzhen_bizui": [
        {
          "File": "motions/t_renzhen_bizui.motion3.json", 
          "Name": "t_renzhen_bizui"
        }
      ], 
      "t_nanguo_bizui": [
        {
          "File": "motions/t_nanguo_bizui.motion3.json", 
          "Name": "t_nanguo_bizui"
        }
      ], 
      "t_haixiu_daiyatao": [
        {
          "File": "motions/t_haixiu_daiyatao.motion3.json", 
          "Name": "t_haixiu_daiyatao"
        }
      ], 
      "t_haixiu_zhaiyatao": [
        {
          "File": "motions/t_haixiu_zhaiyatao.motion3.json", 
          "Name": "t_haixiu_zhaiyatao"
        }
      ], 
      "t_weixiao_zhaiyatao": [
        {
          "File": "motions/t_weixiao_zhaiyatao.motion3.json", 
          "Name": "t_weixiao_zhaiyatao"
        }
      ], 
      "t_haixiu": [
        {
          "File": "motions/t_haixiu.motion3.json", 
          "Name": "t_haixiu"
        }
      ], 
      "t_fangsong_daiyatao_bizui": [
        {
          "File": "motions/t_fangsong_daiyatao_bizui.motion3.json", 
          "Name": "t_fangsong_daiyatao_bizui"
        }
      ], 
      "t_jingya_daiyatao": [
        {
          "File": "motions/t_jingya_daiyatao.motion3.json", 
          "Name": "t_jingya_daiyatao"
        }
      ], 
      "t_nanguo": [
        {
          "File": "motions/t_nanguo.motion3.json", 
          "Name": "t_nanguo"
        }
      ], 
      "b_bawan": [
        {
          "File": "motions/b_bawan.motion3.json", 
          "Name": "b_bawan"
        }
      ], 
      "t_renzhen": [
        {
          "File": "motions/t_renzhen.motion3.json", 
          "Name": "t_renzhen"
        }
      ], 
      "t_jingya_daiyatao_bizui": [
        {
          "File": "motions/t_jingya_daiyatao_bizui.motion3.json", 
          "Name": "t_jingya_daiyatao_bizui"
        }
      ], 
      "t_haixiu_daiyatao_bizui": [
        {
          "File": "motions/t_haixiu_daiyatao_bizui.motion3.json", 
          "Name": "t_haixiu_daiyatao_bizui"
        }
      ], 
      "t_fangsong_zhaiyatao": [
        {
          "File": "motions/t_fangsong_zhaiyatao.motion3.json", 
          "Name": "t_fangsong_zhaiyatao"
        }
      ], 
      "t_renzhen_daiyatao": [
        {
          "File": "motions/t_renzhen_daiyatao.motion3.json", 
          "Name": "t_renzhen_daiyatao"
        }
      ], 
      "t_daiyatao": [
        {
          "File": "motions/t_daiyatao.motion3.json", 
          "Name": "t_daiyatao"
        }
      ], 
      "b_diantou": [
        {
          "File": "motions/b_diantou.motion3.json", 
          "Name": "b_diantou"
        }
      ], 
      "t_idle_daiyatao_bizui": [
        {
          "File": "motions/t_idle_daiyatao_bizui.motion3.json", 
          "Name": "t_idle_daiyatao_bizui"
        }
      ], 
      "t_idle_bizui": [
        {
          "File": "motions/t_idle_bizui.motion3.json", 
          "Name": "t_idle_bizui"
        }
      ], 
      "t_idle_daiyatao": [
        {
          "File": "motions/t_idle_daiyatao.motion3.json", 
          "Name": "t_idle_daiyatao"
        }
      ], 
      "Idle": [
        {
          "File": "motions/b_idle.motion3.json", 
          "Name": "b_idle"
        }
      ], 
      "b_huipai": [
        {
          "File": "motions/b_huipai.motion3.json", 
          "Name": "b_huipai"
        }
      ], 
      "t_jingya_bizui": [
        {
          "File": "motions/t_jingya_bizui.motion3.json", 
          "Name": "t_jingya_bizui"
        }
      ], 
      "t_idle": [
        {
          "File": "motions/t_idle.motion3.json", 
          "Name": "t_idle"
        }
      ], 
      "t_jingya_zhaiyatao": [
        {
          "File": "motions/t_jingya_zhaiyatao.motion3.json", 
          "Name": "t_jingya_zhaiyatao"
        }
      ], 
      "t_zhaiyatao": [
        {
          "File": "motions/t_zhaiyatao.motion3.json", 
          "Name": "t_zhaiyatao"
        }
      ], 
      "t_bizui": [
        {
          "File": "motions/t_bizui.motion3.json", 
          "Name": "t_bizui"
        }
      ], 
      "t_shengqi_daiyatao": [
        {
          "File": "motions/t_shengqi_daiyatao.motion3.json", 
          "Name": "t_shengqi_daiyatao"
        }
      ], 
      "b_liaofa": [
        {
          "File": "motions/b_liaofa.motion3.json", 
          "Name": "b_liaofa"
        }
      ]
    }, 
    "Expressions": [
      {
        "Name": "e_jingya", 
        "File": "expressions/e_jingya.exp3.json"
      }, 
      {
        "Name": "e_fangsong", 
        "File": "expressions/e_fangsong.exp3.json"
      }, 
      {
        "Name": "e_renzhen", 
        "File": "expressions/e_renzhen.exp3.json"
      }, 
      {
        "Name": "e_shengqi", 
        "File": "expressions/e_shengqi.exp3.json"
      }, 
      {
        "Name": "e_nanguo", 
        "File": "expressions/e_nanguo.exp3.json"
      }, 
      {
        "Name": "e_idle", 
        "File": "expressions/e_idle.exp3.json"
      }, 
      {
        "Name": "e_haixiu", 
        "File": "expressions/e_haixiu.exp3.json"
      }, 
      {
        "Name": "e_weixiao", 
        "File": "expressions/e_weixiao.exp3.json"
      }
    ]
  }, 
  "Groups": [
    {
      "Target": "Parameter", 
      "Name": "EyeBlink", 
      "Ids": [
        "ParamEyeLOpen"
      ]
    }, 
    {
      "Target": "Parameter", 
      "Name": "LipSync", 
      "Ids": [
        "ParamMouthOpenY"
      ]
    }
  ]
}